1,330705627,org.apache.lucene.index.TermsHashPerField$$$$$writeByte,14702,5,0.000000,0.000000,0.125000,
1,330705664,org.apache.lucene.analysis.LowerCaseFilter$$$$$next,14702,3,0.006835,0.000000,0.125000,
1,330705713,org.apache.lucene.analysis.CharArraySet$$$$$getSlot,14702,2,0.000000,0.000000,0.125000,
1,330705770,org.apache.lucene.index.FreqProxTermsWriterPerField$$$$$writeProx,14702,7,0.000000,0.000000,0.125000,
1,330705778,org.apache.lucene.analysis.standard.StandardTokenizerImpl$$$$$getNextToken,14702,0,0.000000,0.000000,0.125000,
1,330705864,org.apache.lucene.analysis.CharArraySet$$$$$equals,14702,19,0.000000,0.000000,0.125000,
1,330705930,org.apache.lucene.index.FreqProxTermsWriterPerField$$$$$writeProx,14702,7,0.000000,0.000000,0.125000,
1,330705987,org.apache.lucene.analysis.CharArraySet$$$$$equals,14702,19,0.000000,0.000000,0.125000,
1,330706094,org.apache.lucene.analysis.Token$$$$$endOffset,14702,12,0.000000,0.000000,0.125000,
1,330706502,org.apache.lucene.index.FreqProxTermsWriterPerField$$$$$writeProx,14702,7,0.000000,0.000000,0.125000,
1,330706786,org.apache.lucene.analysis.Token$$$$$initTermBuffer,14702,23,0.000000,0.000000,0.125000,
1,330706917,org.apache.lucene.analysis.Token$$$$$initTermBuffer,14702,23,0.000000,0.000000,0.125000,
1,330707121,org.apache.lucene.analysis.standard.StandardTokenizer$$$$$next,14702,1,0.000000,0.000000,0.125000,
1,330707200,org.apache.lucene.index.FreqProxTermsWriterPerField$$$$$writeProx,14702,7,0.000000,0.000000,0.125000,
1,330707229,org.apache.lucene.analysis.CharArraySet$$$$$getHashCode,14702,4,0.000000,0.000000,0.125000,
1,330707302,org.apache.lucene.analysis.Token$$$$$initTermBuffer,14702,23,0.000000,0.000000,0.125000,
1,330707364,org.apache.lucene.index.TermsHashPerField$$$$$writeVInt,14702,39,0.000000,0.000000,0.125000,
1,330707528,org.apache.lucene.analysis.standard.StandardTokenizer$$$$$next,14702,1,0.000000,0.000000,0.125000,
1,330707586,org.apache.lucene.analysis.Token$$$$$initTermBuffer,14702,23,0.000000,0.000000,0.125000,
1,330708523,org.apache.lucene.store.BufferedIndexOutput$$$$$getFilePointer,14702,32,0.000000,0.000000,1.125000,
1,330707945,org.apache.lucene.store.IndexInput$$$$$readVInt,14703,25,0.000000,0.000000,0.125000,
1,330707953,org.apache.lucene.index.DefaultSkipListWriter$$$$$resetSkip,14703,38,0.000000,0.000000,0.125000,
1,330708003,org.apache.lucene.store.IndexInput$$$$$readVInt,14703,25,0.000000,0.000000,0.125000,
1,330708027,org.apache.lucene.store.BufferedIndexOutput$$$$$writeByte,14703,27,0.000000,0.000000,0.125000,
1,330708224,org.apache.lucene.store.BufferedIndexInput$$$$$readByte,14703,50,0.000000,0.000000,0.125000,
2,330708629,org.apache.lucene.store.BufferedIndexInput$$$$$readByte,14702,50,0.000000,0.000000,0.375000,
2,330708792,org.apache.lucene.analysis.Token$$$$$initTermBuffer,14702,23,0.000000,0.000000,0.125000,
2,330708924,org.apache.lucene.analysis.Token$$$$$clear,14702,10,0.000000,0.000000,0.125000,
2,330709079,org.apache.lucene.analysis.Token$$$$$setEndOffset,14702,47,0.000000,0.000000,0.125000,
2,330709198,org.apache.lucene.index.TermsHashPerField$$$$$quickSort,14702,28,0.000000,0.000000,0.125000,
2,330709644,org.apache.lucene.index.FreqProxTermsWriterPerField$$$$$addTerm,14702,46,0.000000,0.000000,0.125000,
2,330709939,org.apache.lucene.analysis.standard.StandardFilter$$$$$next,14702,21,0.000000,0.000000,0.125000,
2,330710262,org.apache.lucene.store.BufferedIndexInput$$$$$readByte,14704,50,0.000000,0.000000,0.125000,
2,330710319,org.apache.lucene.index.SegmentTermPositions$$$$$lazySkip,14704,65,0.000000,0.000000,0.125000,
2,330710455,org.apache.lucene.store.BufferedIndexInput$$$$$readByte,14704,50,0.000000,0.000000,0.125000,
3,330710733,org.apache.lucene.index.FreqProxTermsWriterPerField$$$$$addTerm,14702,46,0.000000,0.000000,0.125000,
3,330710836,org.apache.lucene.index.FreqProxTermsWriterPerField$$$$$addTerm,14702,46,0.000000,0.000000,0.125000,
3,330710844,org.apache.lucene.index.FreqProxTermsWriterPerField$$$$$addTerm,14702,46,0.000000,0.000000,0.125000,
3,330710897,org.apache.lucene.index.FreqProxTermsWriterPerField$$$$$addTerm,14702,46,0.000000,0.000000,0.125000,
3,330710946,org.apache.lucene.index.FreqProxTermsWriterPerField$$$$$addTerm,14702,46,0.000000,0.000000,0.125000,
3,330710984,org.apache.lucene.index.FreqProxTermsWriterPerField$$$$$addTerm,14702,46,0.059815,0.000000,0.375000,
3,330711040,org.apache.lucene.index.FreqProxTermsWriterPerField$$$$$addTerm,14702,46,0.000000,0.000000,0.125000,
3,330711171,org.apache.lucene.index.ByteBlockPool$$$$$allocSlice,14702,74,0.000000,0.000000,0.125000,
3,330711192,org.apache.lucene.index.FreqProxTermsWriterPerField$$$$$addTerm,14702,46,0.000000,0.000000,0.125000,
3,330711479,org.apache.lucene.index.ByteBlockPool$$$$$allocSlice,14702,74,0.000000,0.000000,0.125000,
3,330711725,org.apache.lucene.store.RAMOutputStream$$$$$writeTo,14702,41,0.000000,0.000000,0.125000,
3,330711770,org.apache.lucene.analysis.Token$$$$$growTermBuffer,14702,40,0.000000,0.000000,0.125000,
3,330711779,org.apache.lucene.index.ByteBlockPool$$$$$allocSlice,14702,74,0.000000,0.000000,0.125000,
3,330711787,org.apache.lucene.analysis.TokenFilter$$$$$reset,14702,48,0.000000,0.000000,0.125000,
4,330712394,org.apache.lucene.index.FreqProxTermsWriterPerField$$$$$newTerm,14702,49,0.000000,0.000000,0.125000,
4,330712402,org.apache.lucene.index.ByteBlockPool$$$$$allocSlice,14702,74,0.000000,0.000000,0.125000,
4,330712410,org.apache.lucene.index.ByteBlockPool$$$$$allocSlice,14702,74,0.000000,0.000000,0.125000,
4,330712418,org.apache.lucene.index.ByteBlockPool$$$$$allocSlice,14702,74,0.000000,0.000000,0.125000,
4,330712468,org.apache.lucene.index.FreqProxTermsWriterPerField$$$$$newTerm,14702,49,0.000000,0.000000,0.125000,
4,330712476,org.apache.lucene.index.FreqProxTermsWriterPerField$$$$$newTerm,14702,49,0.000000,0.000000,0.125000,
4,330712526,org.apache.lucene.index.ByteBlockPool$$$$$allocSlice,14702,74,0.000000,0.000000,0.125000,
4,330712533,org.apache.lucene.index.ByteBlockPool$$$$$allocSlice,14702,74,0.000000,0.000000,0.125000,
4,330712583,org.apache.lucene.index.ByteBlockPool$$$$$allocSlice,14702,74,0.000000,0.000000,0.125000,
4,330712591,org.apache.lucene.index.ByteBlockPool$$$$$allocSlice,14702,74,0.000000,0.000000,0.125000,
4,330712599,org.apache.lucene.index.FreqProxTermsWriterPerField$$$$$newTerm,14702,49,0.000000,0.000000,0.125000,
4,330712666,org.apache.lucene.index.FreqProxTermsWriterPerField$$$$$newTerm,14702,49,0.000000,0.000000,0.125000,
4,330712692,org.apache.lucene.index.TermsHashPerField$$$$$quickSort,14702,28,0.000000,0.000000,0.125000,
4,330712795,org.apache.lucene.document.Field$$$$$<init>,14702,76,0.000000,0.000000,0.125000,
4,330713030,org.apache.lucene.index.ByteBlockPool$$$$$allocSlice,14702,74,0.000000,0.000000,0.125000,
4,330713159,org.apache.lucene.analysis.TokenFilter$$$$$reset,14702,48,0.003417,0.000000,0.125000,
4,330713192,org.apache.lucene.index.ByteBlockPool$$$$$allocSlice,14702,74,0.000000,0.000000,0.125000,
4,330713279,org.apache.lucene.index.ByteBlockPool$$$$$allocSlice,14702,74,0.000000,0.000000,0.125000,
4,330713287,org.apache.lucene.index.ByteBlockPool$$$$$allocSlice,14702,74,0.000000,0.000000,0.125000,
4,330713303,org.apache.lucene.index.ByteBlockPool$$$$$allocSlice,14702,74,0.000000,0.000000,0.125000,
4,330713311,org.apache.lucene.index.ByteBlockPool$$$$$allocSlice,14702,74,0.000000,0.000000,0.125000,
4,330713454,org.apache.lucene.store.BufferedIndexOutput$$$$$writeBytes,14702,77,0.000000,0.000000,0.125000,
4,330713487,org.apache.lucene.store.BufferedIndexInput$$$$$readByte,14706,50,0.000000,0.000000,0.125000,
4,330713495,org.apache.lucene.store.BufferedIndexInput$$$$$readByte,14706,50,0.000000,0.000000,0.125000,
4,330713643,org.apache.lucene.store.BufferedIndexInput$$$$$readByte,14706,50,0.000000,0.000000,0.125000,
5,330713983,org.apache.lucene.index.FreqProxTermsWriterPerField$$$$$newTerm,14702,49,0.000000,0.000000,0.125000,
5,330714017,org.apache.lucene.index.FreqProxTermsWriterPerField$$$$$newTerm,14702,49,0.000000,0.000000,0.125000,
5,330714025,org.apache.lucene.index.ByteBlockPool$$$$$allocSlice,14702,74,0.000000,0.000000,0.125000,
5,330714034,org.apache.lucene.index.FreqProxTermsWriterPerField$$$$$newTerm,14702,49,0.000000,0.000000,0.125000,
5,330714042,org.apache.lucene.index.FreqProxTermsWriterPerField$$$$$newTerm,14702,49,0.000000,0.000000,0.125000,
5,330714050,org.apache.lucene.index.ByteBlockPool$$$$$allocSlice,14702,74,0.000000,0.000000,0.125000,
5,330714058,org.apache.lucene.index.FreqProxTermsWriterPerField$$$$$newTerm,14702,49,0.000000,0.000000,0.125000,
5,330714066,org.apache.lucene.index.ByteBlockPool$$$$$allocSlice,14702,74,0.000000,0.000000,0.125000,
5,330714074,org.apache.lucene.index.ByteBlockPool$$$$$allocSlice,14702,74,0.000000,0.000000,0.125000,
5,330714083,org.apache.lucene.index.ByteBlockPool$$$$$allocSlice,14702,74,0.000000,0.000000,0.125000,
5,330714190,org.apache.lucene.index.ByteBlockPool$$$$$allocSlice,14702,74,0.000000,0.000000,0.125000,
5,330714242,org.apache.lucene.index.ByteBlockPool$$$$$allocSlice,14702,74,0.000000,0.000000,0.125000,
5,330714250,org.apache.lucene.index.FreqProxTermsWriterPerField$$$$$newTerm,14702,49,0.000000,0.000000,0.125000,
5,330714259,org.apache.lucene.index.FreqProxTermsWriterPerField$$$$$newTerm,14702,49,0.000000,0.000000,0.125000,
5,330714268,org.apache.lucene.index.ByteBlockPool$$$$$allocSlice,14702,74,0.000000,0.000000,0.125000,
5,330714277,org.apache.lucene.index.ByteBlockPool$$$$$allocSlice,14702,74,0.000000,0.000000,0.125000,
5,330714310,org.apache.lucene.index.ByteSliceReader$$$$$init,14702,62,0.000000,0.000000,0.375000,
5,330714490,org.apache.lucene.analysis.Token$$$$$growTermBuffer,14702,40,0.000000,0.000000,0.125000,
5,330714506,org.apache.lucene.index.FreqProxTermsWriterPerField$$$$$newTerm,14702,49,0.000000,0.000000,0.125000,
5,330714558,org.apache.lucene.index.FreqProxTermsWriterPerField$$$$$newTerm,14702,49,0.006897,0.000000,0.125000,
5,330714565,org.apache.lucene.index.FreqProxTermsWriterPerField$$$$$newTerm,14702,49,0.000000,0.000000,0.125000,
5,330714592,org.apache.lucene.analysis.Token$$$$$growTermBuffer,14702,40,0.000000,0.000000,0.125000,
5,330714684,org.apache.lucene.index.FreqProxTermsWriterPerField$$$$$newTerm,14702,49,0.000000,0.000000,0.125000,
5,330714691,org.apache.lucene.index.FreqProxTermsWriterPerField$$$$$newTerm,14702,49,0.000000,0.000000,0.125000,
5,330714804,org.apache.lucene.index.FreqProxTermsWriterPerField$$$$$newTerm,14702,49,0.000000,0.000000,0.125000,
5,330714840,org.apache.lucene.index.TermsHashPerField$$$$$start,14702,36,0.000000,0.000000,0.125000,
5,330714869,org.apache.lucene.index.TermsHashPerField$$$$$start,14702,36,0.000000,0.000000,0.125000,
5,330714920,org.apache.lucene.index.TermsHashPerField$$$$$start,14702,36,0.000000,0.000000,0.125000,
5,330715016,org.apache.lucene.analysis.TokenFilter$$$$$reset,14702,48,0.000000,0.000000,0.125000,
5,330715045,org.apache.lucene.index.ByteSliceReader$$$$$init,14702,62,0.000000,0.000000,0.125000,
5,330715115,org.apache.lucene.store.BufferedIndexInput$$$$$readByte,14707,50,0.000000,0.000000,0.125000,
5,330715122,org.apache.lucene.index.SegmentMergeQueue$$$$$lessThan,14707,83,0.000000,0.000000,0.125000,
5,330715196,org.apache.lucene.store.BufferedIndexInput$$$$$readByte,14707,50,0.000000,0.000000,0.125000,
5,330715213,org.apache.lucene.index.SegmentTermPositions$$$$$nextPosition,14707,51,0.000000,0.000000,0.125000,
5,330715221,org.apache.lucene.index.MultiLevelSkipListWriter$$$$$writeSkip,14707,98,0.000000,0.000000,0.125000,
6,330715641,org.apache.lucene.index.FreqProxTermsWriterPerField$$$$$newTerm,14702,49,0.000000,0.000000,0.125000,
6,330715747,org.apache.lucene.index.FreqProxTermsWriterPerField$$$$$newTerm,14702,49,0.000000,0.000000,0.125000,
6,330715756,org.apache.lucene.index.FreqProxTermsWriterPerField$$$$$newTerm,14702,49,0.000000,0.000000,0.125000,
6,330715765,org.apache.lucene.index.FreqProxTermsWriterPerField$$$$$newTerm,14702,49,0.000000,0.000000,0.125000,
6,330715773,org.apache.lucene.index.FreqProxTermsWriterPerField$$$$$newTerm,14702,49,0.000000,0.000000,0.125000,
6,330715794,org.apache.lucene.index.FreqProxTermsWriterPerField$$$$$newTerm,14702,49,0.000000,0.000000,0.125000,
6,330715805,org.apache.lucene.index.FreqProxTermsWriterPerField$$$$$newTerm,14702,49,0.000000,0.000000,0.125000,
6,330715817,org.apache.lucene.index.FreqProxTermsWriterPerField$$$$$newTerm,14702,49,0.000000,0.000000,0.125000,
6,330715861,org.apache.lucene.index.FreqProxTermsWriterPerField$$$$$newTerm,14702,49,0.000000,0.000000,0.125000,
6,330715873,org.apache.lucene.index.FreqProxTermsWriterPerField$$$$$newTerm,14702,49,0.000000,0.000000,0.125000,
6,330716000,org.apache.lucene.index.FreqProxTermsWriterPerField$$$$$newTerm,14702,49,0.000000,0.000000,0.125000,
6,330716034,org.apache.lucene.index.FreqProxTermsWriterPerField$$$$$newTerm,14702,49,0.000000,0.000000,0.125000,
6,330716045,org.apache.lucene.index.FreqProxTermsWriterPerField$$$$$newTerm,14702,49,0.000000,0.000000,0.125000,
6,330716185,org.apache.lucene.index.FreqProxTermsWriterPerField$$$$$newTerm,14702,49,0.000000,0.000000,0.125000,
6,330716398,org.apache.lucene.index.FreqProxTermsWriterPerField$$$$$newTerm,14702,49,0.000000,0.000000,0.125000,
6,330716462,org.apache.lucene.analysis.standard.StandardTokenizerImpl$$$$$zzRefill,14702,104,0.034424,0.000000,0.375000,
6,330716527,org.apache.lucene.index.FieldInfo$$$$$update,14702,99,0.000000,0.000000,0.125000,
6,330716534,org.apache.lucene.analysis.TokenFilter$$$$$reset,14702,48,0.000000,0.000000,0.125000,
6,330716541,org.apache.lucene.index.FreqProxTermsWriterPerField$$$$$newTerm,14702,49,0.000000,0.000000,0.125000,
6,330716555,org.apache.lucene.analysis.standard.StandardTokenizerImpl$$$$$zzRefill,14702,104,0.000000,0.000000,0.125000,
6,330716562,org.apache.lucene.document.Field$$$$$<init>,14702,82,0.000000,0.000000,0.125000,
6,330716628,org.apache.lucene.index.TermsHashPerField$$$$$start,14702,36,0.000000,0.000000,0.125000,
6,330716725,org.apache.lucene.index.ByteSliceReader$$$$$nextSlice,14702,56,0.000000,0.000000,0.125000,
6,330716777,org.apache.lucene.store.BufferedIndexInput$$$$$readByte,14708,50,0.000000,0.000000,0.125000,
6,330716959,org.apache.lucene.store.BufferedIndexInput$$$$$readByte,14708,50,0.000000,0.000000,0.125000,
6,330716983,org.apache.lucene.store.BufferedIndexInput$$$$$readByte,14708,50,0.000000,0.000000,0.125000,
7,330717341,org.apache.lucene.index.FreqProxTermsWriterPerField$$$$$newTerm,14702,49,0.000000,0.000000,0.125000,
7,330717386,org.apache.lucene.index.FreqProxTermsWriterPerField$$$$$newTerm,14702,49,0.000000,0.000000,0.125000,
7,330717408,org.apache.lucene.index.FreqProxTermsWriterPerField$$$$$newTerm,14702,49,0.000000,0.000000,0.125000,
7,330717431,org.apache.lucene.index.FreqProxTermsWriterPerField$$$$$newTerm,14702,49,0.000000,0.000000,0.125000,
7,330717443,org.apache.lucene.index.FreqProxTermsWriterPerField$$$$$newTerm,14702,49,0.000000,0.000000,0.125000,
7,330717467,org.apache.lucene.index.FreqProxTermsWriterPerField$$$$$newTerm,14702,49,0.000000,0.000000,0.125000,
7,330717557,org.apache.lucene.index.FreqProxTermsWriterPerField$$$$$newTerm,14702,49,0.000000,0.000000,0.125000,
7,330717568,org.apache.lucene.document.Field$$$$$<init>,14702,82,0.000000,0.000000,0.125000,
7,330717634,org.apache.lucene.util.UnicodeUtil$$$$$UTF16toUTF8,14702,95,0.000000,0.000000,0.125000,
7,330717644,org.apache.lucene.store.BufferedIndexOutput$$$$$writeBytes,14702,77,0.000000,0.000000,0.125000,
7,330717698,org.apache.lucene.index.FreqProxTermsWriterPerField$$$$$newTerm,14702,49,0.000000,0.000000,0.125000,
7,330717732,org.apache.lucene.document.Field$$$$$<init>,14702,82,0.000000,0.000000,0.125000,
7,330717743,org.apache.lucene.index.FreqProxTermsWriterPerField$$$$$newTerm,14702,49,0.000000,0.000000,0.125000,
7,330717754,org.apache.lucene.index.FreqProxTermsWriterPerField$$$$$newTerm,14702,49,0.000000,0.000000,0.125000,
7,330717778,org.apache.lucene.document.Field$$$$$<init>,14702,82,0.000000,0.000000,0.125000,
7,330717813,org.apache.lucene.index.FieldInfo$$$$$update,14702,99,0.000000,0.000000,0.125000,
7,330717825,org.apache.lucene.index.FreqProxTermsWriterPerField$$$$$newTerm,14702,49,0.000000,0.000000,0.125000,
7,330717893,org.apache.lucene.analysis.Token$$$$$growTermBuffer,14702,40,0.000000,0.000000,0.125000,
7,330717926,org.apache.lucene.index.FieldInfo$$$$$update,14702,99,0.000000,0.000000,0.125000,
7,330717949,org.apache.lucene.index.FreqProxTermsWriterPerField$$$$$newTerm,14702,49,0.000000,0.000000,0.125000,
7,330717960,org.apache.lucene.index.FieldInfo$$$$$update,14702,99,0.000000,0.000000,0.125000,
7,330717982,org.apache.lucene.analysis.standard.StandardTokenizerImpl$$$$$zzRefill,14702,104,0.000000,0.000000,0.125000,
7,330717993,org.apache.lucene.index.FieldInfo$$$$$update,14702,99,0.000000,0.000000,0.125000,
7,330718118,org.apache.lucene.index.FreqProxTermsWriterPerField$$$$$newTerm,14702,49,0.000000,0.000000,0.125000,
7,330718228,org.apache.lucene.util.UnicodeUtil$$$$$UTF16toUTF8,14702,72,0.000000,0.000000,0.125000,
7,330718285,org.apache.lucene.index.FieldInfo$$$$$update,14702,99,0.000000,0.000000,0.125000,
7,330718371,org.apache.lucene.store.BufferedIndexInput$$$$$readByte,14709,50,0.000000,0.000000,0.125000,
7,330718394,org.apache.lucene.store.BufferedIndexInput$$$$$readByte,14709,50,0.000000,0.000000,0.125000,
7,330718541,org.apache.lucene.store.BufferedIndexInput$$$$$readByte,14709,50,0.000000,0.000000,0.125000,
8,330718934,org.apache.lucene.index.FieldInfo$$$$$update,14702,99,0.000000,0.000000,0.125000,
8,330718975,org.apache.lucene.index.FreqProxTermsWriterPerField$$$$$newTerm,14702,49,0.000000,0.000000,0.125000,
8,330718985,org.apache.lucene.index.FreqProxTermsWriterPerField$$$$$newTerm,14702,49,0.000000,0.000000,0.125000,
8,330719070,org.apache.lucene.index.FreqProxTermsWriterPerField$$$$$newTerm,14702,49,0.000000,0.000000,0.125000,
8,330719079,org.apache.lucene.index.FreqProxTermsWriterPerField$$$$$newTerm,14702,49,0.000000,0.000000,0.125000,
8,330719088,org.apache.lucene.index.FreqProxTermsWriterPerField$$$$$newTerm,14702,49,0.000000,0.000000,0.125000,
8,330719161,org.apache.lucene.analysis.TokenFilter$$$$$reset,14702,48,0.000000,0.000000,0.125000,
8,330719187,org.apache.lucene.index.FreqProxTermsWriterPerField$$$$$newTerm,14702,49,0.000000,0.000000,0.125000,
8,330719336,org.apache.lucene.index.TermsHashPerThread$$$$$finishDocument,14702,97,0.000000,0.000000,0.125000,
8,330719365,org.apache.lucene.index.FreqProxTermsWriterPerField$$$$$newTerm,14702,49,0.000000,0.000000,0.125000,
8,330719375,org.apache.lucene.analysis.standard.StandardTokenizerImpl$$$$$zzRefill,14702,104,0.000000,0.000000,0.125000,
8,330719394,org.apache.lucene.index.FieldInfo$$$$$update,14702,99,0.000000,0.000000,0.125000,
8,330719431,org.apache.lucene.store.RAMOutputStream$$$$$writeBytes,14702,96,0.000000,0.000000,0.125000,
8,330719469,org.apache.lucene.index.FieldInfo$$$$$update,14702,99,0.000000,0.000000,0.125000,
8,330719498,org.apache.lucene.index.FreqProxTermsWriterPerField$$$$$newTerm,14702,49,0.000000,0.000000,0.125000,
8,330719526,org.apache.lucene.index.StoredFieldsWriterPerField$$$$$processFields,14702,108,0.000000,0.000000,0.125000,
8,330719574,org.apache.lucene.index.FieldInfo$$$$$update,14702,99,0.000000,0.000000,0.125000,
8,330719582,org.apache.lucene.index.FreqProxTermsWriterPerField$$$$$newTerm,14702,49,0.000000,0.000000,0.125000,
8,330719591,org.apache.lucene.index.FreqProxTermsWriterPerField$$$$$newTerm,14702,49,0.000000,0.000000,0.125000,
8,330719600,org.apache.lucene.index.StoredFieldsWriterPerField$$$$$processFields,14702,108,0.000000,0.000000,0.125000,
8,330719609,org.apache.lucene.index.FreqProxTermsWriterPerField$$$$$newTerm,14702,49,0.000000,0.000000,0.125000,
8,330719674,org.apache.lucene.analysis.Token$$$$$growTermBuffer,14702,40,0.000000,0.000000,0.125000,
8,330719687,org.apache.lucene.index.FreqProxTermsWriterPerField$$$$$newTerm,14702,49,0.000000,0.000000,0.125000,
8,330719733,org.apache.lucene.index.FreqProxTermsWriterPerField$$$$$newTerm,14702,49,0.000000,0.000000,0.125000,
8,330719881,org.apache.lucene.index.MultiLevelSkipListWriter$$$$$writeSkip,14702,98,0.000000,0.000000,0.125000,
8,330720115,org.apache.lucene.index.SegmentTermPositions$$$$$nextPosition,14710,51,0.000000,0.000000,0.125000,
9,330720457,org.apache.lucene.index.FreqProxTermsWriterPerField$$$$$newTerm,14702,49,0.000000,0.000000,0.125000,
9,330720498,org.apache.lucene.index.FreqProxTermsWriterPerField$$$$$newTerm,14702,49,0.000000,0.000000,0.125000,
9,330720508,org.apache.lucene.index.FreqProxTermsWriterPerField$$$$$newTerm,14702,49,0.000000,0.000000,0.125000,
9,330720590,org.apache.lucene.index.FreqProxTermsWriterPerField$$$$$newTerm,14702,49,0.000000,0.000000,0.125000,
9,330720618,org.apache.lucene.index.FreqProxTermsWriterPerField$$$$$newTerm,14702,49,0.000000,0.000000,0.125000,
9,330720628,org.apache.lucene.index.FreqProxTermsWriterPerField$$$$$newTerm,14702,49,0.000000,0.000000,0.125000,
9,330720647,org.apache.lucene.index.FreqProxTermsWriterPerField$$$$$newTerm,14702,49,0.000000,0.000000,0.125000,
9,330720675,org.apache.lucene.index.FreqProxTermsWriterPerField$$$$$newTerm,14702,49,0.000000,0.000000,0.125000,
9,330720685,org.apache.lucene.index.FreqProxTermsWriterPerField$$$$$newTerm,14702,49,0.000000,0.000000,0.125000,
9,330720703,org.apache.lucene.index.FreqProxTermsWriterPerField$$$$$newTerm,14702,49,0.000000,0.000000,0.125000,
9,330720713,org.apache.lucene.index.FreqProxTermsWriterPerField$$$$$newTerm,14702,49,0.000000,0.000000,0.125000,
9,330720817,org.apache.lucene.index.FreqProxTermsWriterPerField$$$$$newTerm,14702,49,0.000000,0.000000,0.125000,
9,330720827,org.apache.lucene.analysis.standard.StandardTokenizerImpl$$$$$zzRefill,14702,104,0.000000,0.000000,0.125000,
9,330720846,org.apache.lucene.index.FreqProxTermsWriterPerField$$$$$newTerm,14702,49,0.000000,0.000000,0.125000,
9,330720892,org.apache.lucene.index.FreqProxTermsWriterPerField$$$$$newTerm,14702,49,0.000000,0.000000,0.125000,
9,330720911,org.apache.lucene.index.FieldInfo$$$$$update,14702,99,0.000000,0.000000,0.125000,
9,330720949,org.apache.lucene.analysis.standard.StandardAnalyzer$$$$$reusableTokenStream,14702,121,0.000000,0.000000,0.125000,
9,330720989,org.apache.lucene.index.FieldInfo$$$$$update,14702,99,0.000000,0.000000,0.125000,
9,330720997,org.apache.lucene.index.StoredFieldsWriterPerField$$$$$processFields,14702,108,0.000000,0.000000,0.125000,
9,330721006,org.apache.lucene.analysis.Token$$$$$growTermBuffer,14702,40,0.000000,0.000000,0.125000,
9,330721016,org.apache.lucene.index.FreqProxTermsWriterPerField$$$$$newTerm,14702,49,0.000000,0.000000,0.125000,
9,330721053,org.apache.lucene.index.FreqProxTermsWriterPerField$$$$$newTerm,14702,49,0.000000,0.000000,0.125000,
9,330721080,org.apache.lucene.index.FreqProxTermsWriterPerField$$$$$newTerm,14702,49,0.000000,0.000000,0.125000,
9,330721108,org.apache.lucene.index.StoredFieldsWriterPerField$$$$$processFields,14702,108,0.000000,0.000000,0.125000,
9,330721144,org.apache.lucene.analysis.Token$$$$$growTermBuffer,14702,40,0.000000,0.000000,0.125000,
9,330721190,org.apache.lucene.analysis.standard.StandardAnalyzer$$$$$reusableTokenStream,14702,121,0.000000,0.000000,0.125000,
9,330721199,org.apache.lucene.index.StoredFieldsWriterPerField$$$$$processFields,14702,108,0.000000,0.000000,0.125000,
9,330721217,org.apache.lucene.index.FreqProxTermsWriterPerField$$$$$newTerm,14702,49,0.000000,0.000000,0.125000,
9,330721264,org.apache.lucene.index.FieldInfo$$$$$update,14702,99,0.000000,0.000000,0.125000,
9,330721273,org.apache.lucene.store.RAMOutputStream$$$$$writeBytes,14702,96,0.000000,0.000000,0.125000,
9,330721367,org.apache.lucene.index.FreqProxTermsWriterPerField$$$$$newTerm,14702,49,0.000000,0.000000,0.125000,
9,330721386,org.apache.lucene.index.ByteSliceReader$$$$$nextSlice,14702,56,0.000000,0.000000,0.125000,
9,330721508,org.apache.lucene.store.BufferedIndexInput$$$$$readByte,14711,50,0.000000,0.000000,0.125000,
9,330721561,org.apache.lucene.index.SegmentTermPositions$$$$$nextPosition,14711,51,0.000000,0.000000,0.125000,
9,330721638,org.apache.lucene.store.BufferedIndexInput$$$$$readBytes,14711,109,0.000000,0.000000,0.125000,
9,330721672,org.apache.lucene.index.SegmentTermPositions$$$$$nextPosition,14711,51,0.037598,0.000000,0.375000,
10,330721946,org.apache.lucene.index.FreqProxTermsWriterPerField$$$$$newTerm,14702,49,0.000000,0.000000,0.125000,
10,330721977,org.apache.lucene.index.FreqProxTermsWriterPerField$$$$$newTerm,14702,49,0.000000,0.000000,0.125000,
10,330721987,org.apache.lucene.index.FreqProxTermsWriterPerField$$$$$newTerm,14702,49,0.000000,0.000000,0.125000,
10,330722084,org.apache.lucene.index.FreqProxTermsWriterPerField$$$$$newTerm,14702,49,0.000000,0.000000,0.125000,
10,330722131,org.apache.lucene.index.FreqProxTermsWriterPerField$$$$$newTerm,14702,49,0.000000,0.000000,0.125000,
10,330722149,org.apache.lucene.index.FreqProxTermsWriterPerField$$$$$newTerm,14702,49,0.000000,0.000000,0.125000,
10,330722158,org.apache.lucene.index.FreqProxTermsWriterPerField$$$$$newTerm,14702,49,0.000000,0.000000,0.125000,
10,330722167,org.apache.lucene.index.FreqProxTermsWriterPerField$$$$$newTerm,14702,49,0.000000,0.000000,0.125000,
10,330722186,org.apache.lucene.index.FreqProxTermsWriterPerField$$$$$newTerm,14702,49,0.000000,0.000000,0.125000,
10,330722213,org.apache.lucene.analysis.TokenFilter$$$$$reset,14702,48,0.000000,0.000000,0.125000,
10,330722275,org.apache.lucene.util.UnicodeUtil$$$$$UTF16toUTF8,14702,95,0.000000,0.000000,0.125000,
10,330722347,org.apache.lucene.index.StoredFieldsWriterPerField$$$$$processFields,14702,108,0.000000,0.000000,0.125000,
10,330722503,org.apache.lucene.analysis.standard.StandardTokenizerImpl$$$$$zzRefill,14702,104,0.000000,0.000000,0.125000,
10,330722529,org.dacapo.luindex.Index$$$$$indexDocs,14702,85,0.000000,0.000000,0.125000,
10,330722557,org.apache.lucene.index.FieldInfo$$$$$update,14702,99,0.000000,0.000000,0.125000,
10,330722613,org.apache.lucene.analysis.standard.StandardTokenizerImpl$$$$$zzRefill,14702,104,0.000000,0.000000,0.125000,
10,330722662,org.apache.lucene.index.FieldInfo$$$$$update,14702,99,0.000000,0.000000,0.125000,
10,330722671,org.apache.lucene.index.FieldInfo$$$$$update,14702,99,0.000000,0.000000,0.125000,
10,330722842,org.apache.lucene.index.FieldInfo$$$$$update,14702,99,0.000000,0.000000,0.125000,
10,330722943,org.apache.lucene.store.BufferedIndexInput$$$$$readByte,14712,50,0.000000,0.000000,0.125000,
10,330722988,org.apache.lucene.store.BufferedIndexInput$$$$$readByte,14712,50,0.044556,0.000000,0.250000,
10,330723027,org.apache.lucene.store.BufferedIndexInput$$$$$readByte,14712,50,0.000000,0.000000,0.125000,
10,330723084,org.apache.lucene.store.BufferedIndexInput$$$$$readByte,14712,50,0.000000,0.000000,0.125000,
10,330723149,org.apache.lucene.index.SegmentTermPositions$$$$$nextPosition,14712,51,0.000000,0.000000,0.125000,
11,330723522,org.apache.lucene.analysis.standard.StandardTokenizerImpl$$$$$zzRefill,14702,104,0.000000,0.000000,0.125000,
11,330723531,org.apache.lucene.analysis.standard.StandardTokenizerImpl$$$$$zzRefill,14702,104,0.000000,0.000000,0.125000,
11,330723543,org.apache.lucene.analysis.standard.StandardTokenizerImpl$$$$$zzRefill,14702,104,0.000000,0.000000,0.125000,
11,330723559,org.apache.lucene.demo.FileDocument$$$$$Document,14702,114,0.000000,0.000000,0.125000,
11,330723568,org.apache.lucene.analysis.standard.StandardTokenizerImpl$$$$$zzRefill,14702,104,0.000000,0.000000,0.125000,
11,330723585,org.apache.lucene.analysis.standard.StandardTokenizerImpl$$$$$zzRefill,14702,104,0.000000,0.000000,0.125000,
11,330723597,org.apache.lucene.analysis.standard.StandardTokenizerImpl$$$$$zzRefill,14702,104,0.000000,0.000000,0.125000,
11,330723659,org.apache.lucene.index.StoredFieldsWriterPerField$$$$$processFields,14702,108,0.000000,0.000000,0.125000,
11,330723678,org.apache.lucene.analysis.Token$$$$$growTermBuffer,14702,40,0.000000,0.000000,0.125000,
11,330723710,org.apache.lucene.analysis.standard.StandardTokenizerImpl$$$$$zzRefill,14702,104,0.000000,0.000000,0.125000,
11,330723717,org.apache.lucene.index.StoredFieldsWriterPerField$$$$$processFields,14702,108,0.000000,0.000000,0.125000,
11,330723735,org.apache.lucene.index.ByteSliceReader$$$$$nextSlice,14702,56,0.000000,0.000000,0.250000,
11,330723751,org.apache.lucene.util.UnicodeUtil$$$$$UTF16toUTF8,14702,95,0.000000,0.000000,0.125000,
11,330723896,org.apache.lucene.index.FieldsWriter$$$$$writeField,14702,116,0.000000,0.000000,0.125000,
11,330723945,org.apache.lucene.index.FieldInfo$$$$$update,14702,99,0.000000,0.000000,0.125000,
11,330724243,org.apache.lucene.index.FieldInfo$$$$$update,14702,99,0.000000,0.000000,0.125000,
11,330724309,org.apache.lucene.analysis.standard.StandardTokenizerImpl$$$$$zzRefill,14702,104,0.000000,0.000000,0.125000,
11,330724320,org.apache.lucene.index.FieldInfo$$$$$update,14702,99,0.000000,0.000000,0.125000,
11,330724569,org.apache.lucene.store.BufferedIndexInput$$$$$readByte,14713,50,0.000000,0.000000,0.125000,
12,330724960,org.apache.lucene.analysis.Token$$$$$growTermBuffer,14702,40,0.000000,0.000000,0.125000,
12,330724968,org.apache.lucene.util.UnicodeUtil$$$$$UTF16toUTF8,14702,72,0.000000,0.000000,0.125000,
12,330724979,org.apache.lucene.analysis.standard.StandardTokenizerImpl$$$$$zzRefill,14702,104,0.000000,0.000000,0.125000,
12,330725000,org.apache.lucene.analysis.Token$$$$$growTermBuffer,14702,40,0.000000,0.000000,0.125000,
12,330725007,org.apache.lucene.util.UnicodeUtil$$$$$UTF16toUTF8,14702,72,0.000000,0.000000,0.125000,
12,330725081,org.apache.lucene.analysis.Token$$$$$growTermBuffer,14702,40,0.000000,0.000000,0.125000,
12,330725113,org.apache.lucene.analysis.standard.StandardTokenizerImpl$$$$$zzRefill,14702,104,0.000000,0.000000,0.125000,
12,330725133,org.apache.lucene.analysis.standard.StandardTokenizerImpl$$$$$zzRefill,14702,104,0.000000,0.000000,0.125000,
12,330725171,org.apache.lucene.analysis.standard.StandardTokenizerImpl$$$$$zzRefill,14702,104,0.000000,0.000000,0.125000,
12,330725182,org.apache.lucene.analysis.standard.StandardTokenizerImpl$$$$$zzRefill,14702,104,0.000000,0.000000,0.125000,
12,330725279,org.dacapo.luindex.Index$$$$$indexDocs,14702,85,0.000000,0.000000,0.125000,
12,330725327,org.apache.lucene.index.FieldInfo$$$$$update,14702,99,0.000000,0.000000,0.125000,
12,330725372,org.apache.lucene.index.FieldInfo$$$$$update,14702,99,0.000000,0.000000,0.125000,
12,330725393,org.apache.lucene.analysis.standard.StandardTokenizerImpl$$$$$zzRefill,14702,104,0.000000,0.000000,0.125000,
12,330725473,org.apache.lucene.index.FieldInfo$$$$$update,14702,99,0.000000,0.000000,0.125000,
12,330725798,org.apache.lucene.index.StoredFieldsWriterPerField$$$$$processFields,14702,108,0.000000,0.000000,0.125000,
12,330725842,org.apache.lucene.util.UnicodeUtil$$$$$UTF16toUTF8,14702,95,0.000000,0.000000,0.125000,
12,330725915,org.apache.lucene.store.BufferedIndexInput$$$$$readByte,14714,50,0.000000,0.000000,0.125000,
12,330725996,org.apache.lucene.store.BufferedIndexInput$$$$$readByte,14714,50,0.000000,0.000000,0.125000,
12,330726045,org.apache.lucene.store.BufferedIndexInput$$$$$readByte,14714,50,0.000000,0.000000,0.125000,
12,330726061,org.apache.lucene.store.BufferedIndexInput$$$$$readByte,14714,50,0.000000,0.000000,0.125000,
12,330726069,org.apache.lucene.store.BufferedIndexInput$$$$$readByte,14714,50,0.000000,0.000000,0.125000,
13,330726433,org.apache.lucene.analysis.standard.StandardTokenizerImpl$$$$$zzRefill,14702,104,0.000000,0.000000,0.125000,
13,330726451,org.apache.lucene.index.StoredFieldsWriterPerField$$$$$processFields,14702,108,0.000000,0.000000,0.125000,
13,330726532,org.apache.lucene.analysis.Token$$$$$growTermBuffer,14702,40,0.000000,0.000000,0.125000,
13,330726559,org.apache.lucene.index.StoredFieldsWriterPerField$$$$$processFields,14702,108,0.006592,0.000000,0.125000,
13,330726581,org.apache.lucene.analysis.standard.StandardTokenizerImpl$$$$$zzRefill,14702,104,0.000000,0.000000,0.125000,
13,330726588,org.apache.lucene.analysis.standard.StandardTokenizerImpl$$$$$zzRefill,14702,104,0.000000,0.000000,0.125000,
13,330726606,org.apache.lucene.analysis.standard.StandardTokenizerImpl$$$$$zzRefill,14702,104,0.000000,0.000000,0.125000,
13,330726623,org.apache.lucene.analysis.standard.StandardTokenizerImpl$$$$$zzRefill,14702,104,0.000000,0.000000,0.125000,
13,330726641,org.apache.lucene.analysis.standard.StandardTokenizerImpl$$$$$zzRefill,14702,104,0.000000,0.000000,0.125000,
13,330726682,org.apache.lucene.analysis.standard.StandardTokenizerImpl$$$$$zzRefill,14702,104,0.000000,0.000000,0.125000,
13,330726688,org.apache.lucene.analysis.standard.StandardTokenizerImpl$$$$$zzRefill,14702,104,0.000000,0.000000,0.125000,
13,330726715,org.apache.lucene.index.TermInfosWriter$$$$$add,14702,80,0.000000,0.000000,0.250000,
13,330726911,org.apache.lucene.index.DocFieldProcessorPerThread$$$$$processDocument,14702,115,0.000000,0.000000,0.125000,
13,330726952,org.dacapo.harness.TeeOutputStream$$$$$write,14702,126,0.000000,0.000000,0.125000,
13,330726973,org.apache.lucene.analysis.standard.StandardTokenizerImpl$$$$$zzRefill,14702,104,0.000000,0.000000,0.125000,
13,330727084,org.dacapo.harness.TeeOutputStream$$$$$write,14702,126,0.000000,0.000000,0.125000,
13,330727095,org.apache.lucene.analysis.standard.StandardTokenizerImpl$$$$$zzRefill,14702,104,0.000000,0.000000,0.125000,
13,330727183,org.apache.lucene.index.DocFieldConsumersPerField$$$$$processFields,14702,127,0.000000,0.000000,0.125000,
13,330727260,org.apache.lucene.analysis.Token$$$$$growTermBuffer,14702,40,0.000000,0.000000,0.125000,
13,330727356,org.apache.lucene.index.DefaultSkipListWriter$$$$$writeSkipData,14702,107,0.000000,0.000000,0.125000,
13,330727472,org.apache.lucene.util.PriorityQueue$$$$$downHeap,14715,113,0.000000,0.000000,0.125000,
13,330727644,org.apache.lucene.store.BufferedIndexInput$$$$$readByte,14715,50,0.000000,0.000000,0.125000,
14,330727884,org.apache.lucene.analysis.CharArraySet$$$$$add,14702,125,0.067260,0.000000,2.750000,
14,330727922,org.apache.lucene.store.BufferedIndexInput$$$$$readByte,14702,50,0.000000,0.000000,0.625000,
14,330727944,org.apache.lucene.analysis.Token$$$$$growTermBuffer,14702,40,0.000000,0.000000,0.125000,
14,330727963,org.apache.lucene.analysis.standard.StandardTokenizerImpl$$$$$zzRefill,14702,104,0.000000,0.000000,0.125000,
14,330728005,org.apache.lucene.index.StoredFieldsWriterPerField$$$$$processFields,14702,108,0.000000,0.000000,0.125000,
14,330728008,org.apache.lucene.analysis.standard.StandardTokenizerImpl$$$$$zzRefill,14702,104,0.000000,0.000000,0.125000,
14,330728044,org.dacapo.harness.TeeOutputStream$$$$$write,14702,126,0.000000,0.000000,0.125000,
14,330728070,org.apache.lucene.index.CharBlockPool$$$$$nextBuffer,14702,129,0.000000,0.000000,0.125000,
14,330728105,org.apache.lucene.analysis.standard.StandardTokenizerImpl$$$$$zzRefill,14702,104,0.000000,0.000000,0.125000,
14,330728127,org.apache.lucene.analysis.standard.StandardTokenizerImpl$$$$$zzRefill,14702,104,0.000000,0.000000,0.125000,
14,330728166,org.apache.lucene.analysis.standard.StandardTokenizerImpl$$$$$zzRefill,14702,104,0.000000,0.000000,0.125000,
14,330728172,org.apache.lucene.analysis.standard.StandardTokenizerImpl$$$$$zzRefill,14702,104,0.000000,0.000000,0.125000,
14,330728221,org.apache.lucene.store.BufferedIndexOutput$$$$$writeBytes,14702,77,0.000000,0.000000,0.375000,
14,330728293,org.dacapo.harness.TeeOutputStream$$$$$write,14702,126,0.000000,0.000000,0.125000,
14,330728301,org.dacapo.harness.TeeOutputStream$$$$$write,14702,126,0.000000,0.000000,0.125000,
14,330728396,org.dacapo.harness.TeeOutputStream$$$$$write,14702,126,0.000000,0.000000,0.125000,
14,330728429,org.dacapo.harness.TeeOutputStream$$$$$write,14702,126,0.000000,0.000000,0.125000,
14,330728437,org.dacapo.harness.TeeOutputStream$$$$$write,14702,126,0.000000,0.000000,0.125000,
14,330728704,org.dacapo.harness.TeeOutputStream$$$$$write,14702,126,0.000000,0.000000,0.125000,
14,330728712,org.dacapo.harness.TeeOutputStream$$$$$write,14702,126,0.000000,0.000000,0.125000,
14,330728721,org.apache.lucene.analysis.Token$$$$$growTermBuffer,14702,40,0.000000,0.000000,0.125000,
14,330728737,org.dacapo.harness.TeeOutputStream$$$$$write,14702,126,0.000000,0.000000,0.125000,
14,330728746,org.apache.lucene.demo.FileDocument$$$$$Document,14702,114,0.000000,0.000000,0.125000,
14,330728754,org.apache.lucene.index.DocFieldConsumersPerField$$$$$processFields,14702,127,0.000000,0.000000,0.125000,
14,330728926,org.apache.lucene.index.SegmentTermPositions$$$$$nextPosition,14716,51,0.000000,0.000000,0.125000,
15,330729394,org.apache.lucene.index.CharBlockPool$$$$$nextBuffer,14702,129,0.000000,0.000000,0.125000,
15,330729426,org.apache.lucene.analysis.Token$$$$$growTermBuffer,14702,40,0.000000,0.000000,0.125000,
15,330729444,org.apache.lucene.analysis.standard.StandardTokenizerImpl$$$$$zzRefill,14702,104,0.000000,0.000000,0.125000,
15,330729458,org.apache.lucene.analysis.standard.StandardTokenizerImpl$$$$$zzRefill,14702,104,0.000000,0.000000,0.125000,
15,330729478,org.apache.lucene.analysis.standard.StandardTokenizerImpl$$$$$zzRefill,14702,104,0.000000,0.000000,0.125000,
15,330729502,org.apache.lucene.analysis.standard.StandardTokenizerImpl$$$$$zzRefill,14702,104,0.000000,0.000000,0.125000,
15,330729523,org.apache.lucene.index.CharBlockPool$$$$$nextBuffer,14702,129,0.000000,0.000000,0.125000,
15,330729546,org.apache.lucene.analysis.standard.StandardTokenizerImpl$$$$$zzRefill,14702,104,0.000000,0.000000,0.125000,
15,330729560,org.apache.lucene.analysis.Token$$$$$growTermBuffer,14702,40,0.000000,0.000000,0.125000,
15,330729575,org.dacapo.harness.TeeOutputStream$$$$$write,14702,126,0.000000,0.000000,0.125000,
15,330729598,org.apache.lucene.analysis.standard.StandardTokenizerImpl$$$$$zzRefill,14702,104,0.000000,0.000000,0.125000,
15,330729606,org.apache.lucene.analysis.standard.StandardTokenizerImpl$$$$$zzRefill,14702,104,0.000000,0.000000,0.125000,
15,330729620,org.apache.lucene.analysis.standard.StandardTokenizerImpl$$$$$zzRefill,14702,104,0.000000,0.000000,0.125000,
15,330729629,org.apache.lucene.analysis.Token$$$$$growTermBuffer,14702,40,0.000000,0.000000,0.125000,
15,330729644,org.apache.lucene.analysis.standard.StandardTokenizerImpl$$$$$zzRefill,14702,104,0.000000,0.000000,0.125000,
15,330729673,org.apache.lucene.index.TermInfosWriter$$$$$add,14702,80,0.000000,0.000000,0.375000,
15,330729680,org.apache.lucene.index.TermInfosWriter$$$$$add,14702,80,0.000000,0.000000,0.125000,
15,330729826,org.apache.lucene.index.StoredFieldsWriterPerField$$$$$processFields,14702,108,0.000000,0.000000,0.125000,
15,330729842,org.apache.lucene.analysis.standard.StandardTokenizerImpl$$$$$zzRefill,14702,104,0.000000,0.000000,0.125000,
15,330729857,org.apache.lucene.index.DocFieldConsumersPerField$$$$$processFields,14702,127,0.000000,0.000000,0.125000,
15,330730068,org.dacapo.harness.TeeOutputStream$$$$$write,14702,126,0.000000,0.000000,0.125000,
15,330730132,org.dacapo.harness.TeeOutputStream$$$$$write,14702,126,0.000000,0.000000,0.125000,
15,330730149,org.apache.lucene.analysis.Token$$$$$growTermBuffer,14702,40,0.000000,0.000000,0.125000,
15,330730207,org.apache.lucene.analysis.Token$$$$$growTermBuffer,14702,40,0.000000,0.000000,0.125000,
15,330730246,org.apache.lucene.index.DocFieldProcessorPerThread$$$$$processDocument,14702,115,0.000000,0.000000,0.125000,
15,330730374,org.apache.lucene.index.TermInfosWriter$$$$$add,14702,80,0.000000,0.000000,0.125000,
15,330730397,org.apache.lucene.store.BufferedIndexOutput$$$$$writeBytes,14702,77,0.000000,0.000000,0.125000,
15,330730468,org.apache.lucene.index.SegmentMergeInfo$$$$$getDocMap,14717,93,0.000000,0.000000,0.125000,
16,330730758,org.apache.lucene.analysis.CharArraySet$$$$$add,14702,125,0.057983,0.000000,2.500000,
16,330730788,org.dacapo.harness.TeeOutputStream$$$$$write,14702,126,0.000000,0.000000,0.375000,
16,330730820,org.apache.lucene.analysis.standard.StandardTokenizerImpl$$$$$zzRefill,14702,104,0.000000,0.000000,0.125000,
16,330730843,org.apache.lucene.analysis.standard.StandardTokenizerImpl$$$$$zzRefill,14702,104,0.000000,0.000000,0.125000,
16,330730862,org.apache.lucene.analysis.standard.StandardTokenizerImpl$$$$$zzRefill,14702,104,0.000000,0.000000,0.125000,
16,330730884,org.apache.lucene.analysis.standard.StandardTokenizerImpl$$$$$zzRefill,14702,104,0.000000,0.000000,0.125000,
16,330730899,org.dacapo.harness.TeeOutputStream$$$$$write,14702,126,0.000000,0.000000,0.125000,
16,330730918,org.apache.lucene.index.DocFieldConsumersPerField$$$$$processFields,14702,127,0.000000,0.000000,0.125000,
16,330730932,org.apache.lucene.index.StoredFieldsWriterPerField$$$$$processFields,14702,108,0.000000,0.000000,0.125000,
16,330730972,org.apache.lucene.analysis.standard.StandardTokenizerImpl$$$$$zzRefill,14702,104,0.000000,0.000000,0.125000,
16,330730997,org.apache.lucene.analysis.standard.StandardTokenizerImpl$$$$$zzRefill,14702,104,0.000000,0.000000,0.125000,
16,330731024,org.apache.lucene.analysis.standard.StandardTokenizerImpl$$$$$zzRefill,14702,104,0.000000,0.000000,0.125000,
16,330731045,org.apache.lucene.analysis.Token$$$$$growTermBuffer,14702,40,0.000000,0.000000,0.125000,
16,330731299,org.apache.lucene.index.StoredFieldsWriterPerField$$$$$processFields,14702,108,0.000000,0.000000,0.125000,
16,330731359,org.apache.lucene.index.StoredFieldsWriterPerField$$$$$processFields,14702,108,0.000000,0.000000,0.125000,
16,330731421,org.apache.lucene.store.RAMOutputStream$$$$$writeBytes,14702,96,0.000000,0.000000,0.125000,
16,330731502,org.dacapo.harness.TeeOutputStream$$$$$write,14702,126,0.000000,0.000000,0.125000,
16,330731547,org.dacapo.harness.TeeOutputStream$$$$$write,14702,126,0.000000,0.000000,0.125000,
16,330731592,org.apache.lucene.analysis.Token$$$$$growTermBuffer,14702,40,0.000000,0.000000,0.125000,
16,330731601,org.dacapo.harness.TeeOutputStream$$$$$write,14702,126,0.000000,0.000000,0.125000,
16,330731638,org.dacapo.harness.TeeOutputStream$$$$$write,14702,126,0.000000,0.000000,0.125000,
16,330731646,org.dacapo.harness.TeeOutputStream$$$$$write,14702,126,0.000000,0.000000,0.125000,
16,330731692,org.dacapo.harness.TeeOutputStream$$$$$write,14702,126,0.000000,0.000000,0.125000,
16,330731728,org.dacapo.harness.TeeOutputStream$$$$$write,14702,126,0.000000,0.000000,0.125000,
16,330731759,org.apache.lucene.index.DefaultSkipListWriter$$$$$writeSkipData,14702,107,0.000000,0.000000,0.250000,
16,330731814,org.apache.lucene.store.BufferedIndexInput$$$$$readBytes,14702,122,0.000000,0.000000,0.125000,
16,330731822,org.apache.lucene.util.UnicodeUtil$$$$$UTF8toUTF16,14718,106,0.000000,0.000000,0.125000,
17,330732495,org.apache.lucene.analysis.standard.StandardTokenizerImpl$$$$$zzRefill,14702,104,0.000000,0.000000,0.125000,
17,330732506,org.apache.lucene.analysis.standard.StandardTokenizerImpl$$$$$zzRefill,14702,104,0.000000,0.000000,0.125000,
17,330732525,org.apache.lucene.index.StoredFieldsWriterPerField$$$$$processFields,14702,108,0.000000,0.000000,0.125000,
17,330732535,org.apache.lucene.analysis.standard.StandardTokenizerImpl$$$$$zzRefill,14702,104,0.000000,0.000000,0.125000,
17,330732552,org.dacapo.harness.TeeOutputStream$$$$$write,14702,126,0.000000,0.000000,0.125000,
17,330732572,org.apache.lucene.analysis.standard.StandardTokenizerImpl$$$$$zzRefill,14702,104,0.000000,0.000000,0.125000,
17,330732593,org.apache.lucene.index.StoredFieldsWriterPerField$$$$$processFields,14702,108,0.000000,0.000000,0.125000,
17,330732626,org.apache.lucene.analysis.Token$$$$$growTermBuffer,14702,40,0.000000,0.000000,0.125000,
17,330732684,org.apache.lucene.analysis.standard.StandardTokenizerImpl$$$$$zzRefill,14702,104,0.000000,0.000000,0.125000,
17,330732705,org.apache.lucene.index.DocFieldProcessorPerThread$$$$$processDocument,14702,115,0.000000,0.000000,0.125000,
17,330732732,org.apache.lucene.index.StoredFieldsWriterPerField$$$$$processFields,14702,108,0.000000,0.000000,0.125000,
17,330732918,org.apache.lucene.index.TermsHashPerThread$$$$$startDocument,14702,135,0.000000,0.000000,0.125000,
17,330732926,org.apache.lucene.index.FieldsWriter$$$$$flushDocument,14702,103,0.000000,0.000000,0.125000,
17,330732954,org.apache.lucene.analysis.standard.StandardTokenizerImpl$$$$$zzRefill,14702,104,0.000000,0.000000,0.125000,
17,330733437,org.apache.lucene.index.DefaultSkipListWriter$$$$$writeSkipData,14702,107,0.000000,0.000000,0.125000,
17,330733446,org.apache.lucene.index.DefaultSkipListWriter$$$$$writeSkipData,14702,107,0.000000,0.000000,0.125000,
17,330733459,org.apache.lucene.index.DocumentsWriter$$$$$openFiles,14702,128,0.000000,0.000000,0.125000,
17,330733509,org.apache.lucene.store.IndexInput$$$$$readVLong,14719,52,0.000000,0.000000,0.125000,
17,330733565,org.apache.lucene.store.IndexInput$$$$$readVLong,14719,52,0.000000,0.000000,0.125000,
18,330733887,org.apache.lucene.analysis.standard.StandardTokenizerImpl$$$$$zzRefill,14702,104,0.000000,0.000000,0.125000,
18,330733952,org.apache.lucene.analysis.standard.StandardTokenizerImpl$$$$$zzRefill,14702,104,0.000000,0.000000,0.125000,
18,330733975,org.apache.lucene.analysis.standard.StandardTokenizerImpl$$$$$zzRefill,14702,104,0.000000,0.000000,0.125000,
18,330734008,org.apache.lucene.analysis.standard.StandardTokenizerImpl$$$$$zzRefill,14702,104,0.000000,0.000000,0.125000,
18,330734025,org.dacapo.harness.TeeOutputStream$$$$$write,14702,126,0.000000,0.000000,0.125000,
18,330734059,org.dacapo.harness.TeeOutputStream$$$$$write,14702,126,0.000000,0.000000,0.125000,
18,330734071,org.apache.lucene.analysis.standard.StandardTokenizerImpl$$$$$zzRefill,14702,104,0.000000,0.000000,0.125000,
18,330734095,org.apache.lucene.analysis.Token$$$$$growTermBuffer,14702,40,0.000000,0.000000,0.125000,
18,330734135,org.apache.lucene.analysis.standard.StandardTokenizerImpl$$$$$zzRefill,14702,104,0.000000,0.000000,0.125000,
18,330734178,org.apache.lucene.index.DefaultSkipListWriter$$$$$writeSkipData,14702,107,0.000000,0.000000,0.125000,
18,330734201,org.apache.lucene.index.DefaultSkipListWriter$$$$$writeSkipData,14702,107,0.000000,0.000000,0.125000,
18,330734260,org.apache.lucene.analysis.Token$$$$$growTermBuffer,14702,40,0.000000,0.000000,0.125000,
18,330734391,org.dacapo.harness.TeeOutputStream$$$$$write,14702,126,0.000000,0.000000,0.125000,
18,330734415,org.dacapo.harness.TeeOutputStream$$$$$write,14702,126,0.000000,0.000000,0.125000,
18,330734554,org.dacapo.harness.TeeOutputStream$$$$$write,14702,126,0.000000,0.000000,0.125000,
18,330734619,org.dacapo.harness.TeeOutputStream$$$$$write,14702,126,0.000000,0.000000,0.125000,
18,330734673,org.apache.lucene.analysis.Token$$$$$growTermBuffer,14702,40,0.000000,0.000000,0.125000,
18,330734738,org.dacapo.harness.TeeOutputStream$$$$$write,14702,126,0.000000,0.000000,0.125000,
18,330735043,org.apache.lucene.store.BufferedIndexInput$$$$$readBytes,14702,122,0.003540,0.000000,2.000000,
18,330735150,org.apache.lucene.store.IndexOutput$$$$$writeInt,14702,137,0.000000,0.000000,1.000000,
18,330735192,org.apache.lucene.store.IndexOutput$$$$$writeInt,14702,137,0.000000,0.000000,0.375000,
18,330734897,org.apache.lucene.index.FieldInfos$$$$$fieldInfo,14720,67,0.000000,0.000000,0.125000,
18,330734945,org.apache.lucene.util.PriorityQueue$$$$$downHeap,14720,113,0.000000,0.000000,0.125000,
18,330735010,org.apache.lucene.index.FieldInfos$$$$$fieldInfo,14720,67,0.000000,0.000000,0.125000,
19,330735234,org.apache.lucene.analysis.CharArraySet$$$$$add,14702,125,0.058716,0.000000,0.500000,
19,330735266,org.apache.lucene.store.IndexOutput$$$$$writeInt,14702,137,0.000000,0.000000,0.250000,
19,330735363,org.dacapo.harness.TeeOutputStream$$$$$write,14702,126,0.000000,0.000000,0.125000,
19,330735383,org.apache.lucene.analysis.Token$$$$$growTermBuffer,14702,40,0.000000,0.000000,0.125000,
19,330735430,org.apache.lucene.analysis.Token$$$$$growTermBuffer,14702,40,0.000000,0.000000,0.125000,
19,330735437,org.dacapo.harness.TeeOutputStream$$$$$write,14702,126,0.000000,0.000000,0.125000,
19,330735491,org.apache.lucene.analysis.standard.StandardTokenizerImpl$$$$$zzRefill,14702,104,0.000000,0.000000,0.125000,
19,330735583,org.apache.lucene.index.DefaultSkipListWriter$$$$$writeSkipData,14702,107,0.000000,0.000000,0.125000,
19,330735592,org.apache.lucene.index.DefaultSkipListWriter$$$$$writeSkipData,14702,107,0.000000,0.000000,0.125000,
19,330735601,org.apache.lucene.index.DefaultSkipListWriter$$$$$writeSkipData,14702,107,0.000000,0.000000,0.125000,
19,330735708,org.dacapo.harness.TeeOutputStream$$$$$write,14702,126,0.000000,0.000000,0.125000,
19,330735717,org.apache.lucene.analysis.Token$$$$$growTermBuffer,14702,40,0.000000,0.000000,0.125000,
19,330735798,org.apache.lucene.index.StoredFieldsWriterPerField$$$$$processFields,14702,108,0.000000,0.000000,0.125000,
19,330735843,org.apache.lucene.analysis.standard.StandardTokenizerImpl$$$$$zzRefill,14702,104,0.000000,0.000000,0.125000,
19,330735985,org.dacapo.harness.TeeOutputStream$$$$$write,14702,126,0.000000,0.000000,0.125000,
19,330735994,org.apache.lucene.analysis.standard.StandardTokenizerImpl$$$$$zzRefill,14702,104,0.000000,0.000000,0.125000,
19,330736057,org.dacapo.harness.TeeOutputStream$$$$$write,14702,126,0.000000,0.000000,0.125000,
19,330736305,org.apache.lucene.index.SegmentMergeInfo$$$$$getDocMap,14721,93,0.000000,0.000000,0.125000,
20,330736690,org.apache.lucene.analysis.Token$$$$$growTermBuffer,14702,40,0.000000,0.000000,0.125000,
20,330736705,org.apache.lucene.index.StoredFieldsWriterPerField$$$$$processFields,14702,108,0.000000,0.000000,0.125000,
20,330736714,org.apache.lucene.analysis.standard.StandardTokenizerImpl$$$$$zzRefill,14702,104,0.000000,0.000000,0.125000,
20,330736776,org.apache.lucene.analysis.standard.StandardTokenizerImpl$$$$$zzRefill,14702,104,0.000000,0.000000,0.125000,
20,330736789,org.apache.lucene.analysis.standard.StandardTokenizerImpl$$$$$zzRefill,14702,104,0.000000,0.000000,0.125000,
20,330736814,org.apache.lucene.index.StoredFieldsWriterPerField$$$$$processFields,14702,108,0.000000,0.000000,0.125000,
20,330736878,org.apache.lucene.index.StoredFieldsWriterPerField$$$$$processFields,14702,108,0.000000,0.000000,0.125000,
20,330736898,org.apache.lucene.analysis.Token$$$$$growTermBuffer,14702,40,0.000000,0.000000,0.125000,
20,330736918,org.apache.lucene.analysis.Token$$$$$growTermBuffer,14702,40,0.000000,0.000000,0.125000,
20,330736931,org.apache.lucene.analysis.standard.StandardTokenizerImpl$$$$$zzRefill,14702,104,0.000000,0.000000,0.125000,
20,330737019,org.apache.lucene.index.StoredFieldsWriterPerField$$$$$processFields,14702,108,0.000000,0.000000,0.125000,
20,330737107,org.apache.lucene.index.DocumentsWriter$WaitQueue$$$$$writeDocument,14702,133,0.000000,0.000000,0.125000,
20,330737289,org.apache.lucene.analysis.Token$$$$$growTermBuffer,14702,40,0.000000,0.000000,0.125000,
20,330737300,org.apache.lucene.analysis.Token$$$$$growTermBuffer,14702,40,0.000000,0.000000,0.125000,
20,330737473,org.apache.lucene.index.StoredFieldsWriterPerField$$$$$processFields,14702,108,0.000000,0.000000,0.125000,
20,330737485,org.apache.lucene.index.StoredFieldsWriterPerField$$$$$processFields,14702,108,0.000000,0.000000,0.125000,
20,330737567,org.apache.lucene.analysis.standard.StandardTokenizerImpl$$$$$zzRefill,14702,104,0.000000,0.000000,0.125000,
20,330737668,org.apache.lucene.store.BufferedIndexInput$$$$$readBytes,14702,122,0.000000,0.000000,0.125000,
20,330737819,org.apache.lucene.store.IndexOutput$$$$$writeInt,14702,137,0.000000,0.000000,2.000000,
20,330737819,org.apache.lucene.store.BufferedIndexInput$$$$$readBytes,14702,122,0.000000,0.000000,0.125000,
20,330737935,org.apache.lucene.store.IndexOutput$$$$$writeInt,14702,137,0.000000,0.000000,1.125000,
20,330737977,org.apache.lucene.store.IndexOutput$$$$$writeInt,14702,137,0.000000,0.000000,0.375000,
20,330737677,org.apache.lucene.index.SegmentMergeInfo$$$$$getDocMap,14722,93,0.000000,0.000000,0.125000,
