1,330564829,org.apache.lucene.index.FreqProxTermsWriterPerField$$$$$writeProx,14132,2,0.007385,0.000000,0.125000,
1,330564845,org.apache.lucene.analysis.Token$$$$$clear,14132,1,0.007385,0.000000,0.125000,
1,330564936,org.apache.lucene.index.FreqProxTermsWriterPerField$$$$$writeProx,14132,2,0.007202,0.000000,0.125000,
1,330564952,org.apache.lucene.analysis.Token$$$$$clear,14132,1,0.000000,0.000000,0.125000,
1,330565066,org.apache.lucene.analysis.Token$$$$$clear,14132,1,0.007325,0.000000,0.125000,
1,330565180,org.apache.lucene.analysis.Token$$$$$clear,14132,1,0.000000,0.000000,0.125000,
1,330565348,org.apache.lucene.analysis.Token$$$$$initTermBuffer,14132,10,0.007080,0.000000,0.125000,
1,330565593,org.apache.lucene.analysis.Token$$$$$initTermBuffer,14132,10,0.007324,0.000000,0.125000,
1,330565765,org.apache.lucene.index.TermsHashPerField$$$$$writeByte,14132,18,0.007324,0.000000,0.125000,
1,330565814,org.apache.lucene.analysis.CharArraySet$$$$$getSlot,14132,9,0.000000,0.000000,0.125000,
1,330565929,org.apache.lucene.analysis.Token$$$$$initTermBuffer,14132,10,0.007325,0.000000,0.125000,
1,330566063,org.apache.lucene.index.TermsHashPerField$$$$$writeByte,14132,18,0.000000,0.000000,0.125000,
1,330566177,org.apache.lucene.analysis.Token$$$$$initTermBuffer,14132,10,0.007324,0.000000,0.125000,
1,330566439,org.apache.lucene.store.BufferedIndexOutput$$$$$writeByte,14132,28,0.007325,0.000000,0.125000,
1,330566459,org.apache.lucene.store.IndexInput$$$$$readVInt,14133,21,0.007081,0.000000,0.125000,
1,330566533,org.apache.lucene.store.IndexInput$$$$$readVInt,14133,21,0.007324,0.000000,0.125000,
1,330566722,org.apache.lucene.index.TermInfosWriter$$$$$writeTerm,14133,25,0.000000,0.000000,0.125000,
1,330566791,org.apache.lucene.store.IndexInput$$$$$readVInt,14133,21,0.000000,0.000000,0.125000,
2,330567088,org.apache.lucene.store.BufferedIndexOutput$$$$$writeByte,14132,28,0.076355,0.000000,0.625000,
2,330567370,org.apache.lucene.index.TermsHashPerField$$$$$postingEquals,14132,12,0.007202,0.000000,0.125000,
2,330567460,org.apache.lucene.analysis.Token$$$$$initTermBuffer,14132,10,0.007202,0.000000,0.125000,
2,330567706,org.apache.lucene.analysis.Token$$$$$setStartOffset,14132,27,0.007324,0.000000,0.125000,
2,330567837,org.apache.lucene.analysis.CharArraySet$$$$$getHashCode,14132,7,0.007080,0.000000,0.125000,
2,330568355,org.apache.lucene.analysis.Token$$$$$getPositionIncrement,14132,60,0.007080,0.000000,0.125000,
2,330568419,org.apache.lucene.index.FreqProxFieldMergeState$$$$$nextDoc,14132,66,0.007324,0.000000,0.125000,
2,330568497,org.apache.lucene.store.BufferedIndexInput$$$$$readByte,14135,42,0.007324,0.000000,0.125000,
2,330568513,org.apache.lucene.store.BufferedIndexInput$$$$$readByte,14135,42,0.007080,0.000000,0.125000,
3,330569259,org.apache.lucene.index.TermsHashPerField$$$$$add,14132,4,0.007324,0.000000,0.125000,
3,330569364,org.apache.lucene.index.FreqProxTermsWriterPerField$$$$$addTerm,14132,23,0.007324,0.000000,0.125000,
3,330569746,org.apache.lucene.index.SegmentTermDocs$$$$$next,14137,67,0.007324,0.000000,0.125000,
4,330570166,org.apache.lucene.index.FreqProxTermsWriterPerField$$$$$newTerm,14132,34,0.007263,0.000000,0.125000,
4,330570183,org.apache.lucene.index.ByteBlockPool$$$$$allocSlice,14132,37,0.007324,0.000000,0.125000,
4,330570199,org.apache.lucene.index.ByteBlockPool$$$$$allocSlice,14132,37,0.000000,0.000000,0.125000,
4,330570272,org.apache.lucene.index.ByteBlockPool$$$$$allocSlice,14132,37,0.007324,0.000000,0.125000,
4,330570289,org.apache.lucene.index.FreqProxTermsWriterPerField$$$$$newTerm,14132,34,0.000000,0.000000,0.125000,
4,330570354,org.apache.lucene.index.ByteSliceReader$$$$$nextSlice,14132,63,0.007263,0.000000,0.125000,
4,330570506,org.apache.lucene.index.FreqProxTermsWriterPerField$$$$$newTerm,14132,34,0.007080,0.000000,0.125000,
4,330570567,org.apache.lucene.store.BufferedIndexOutput$$$$$writeBytes,14132,79,0.007324,0.000000,0.125000,
4,330570666,org.apache.lucene.store.BufferedIndexOutput$$$$$writeBytes,14132,79,0.011841,0.000000,0.125000,
4,330570673,org.apache.lucene.analysis.TokenFilter$$$$$reset,14132,38,0.007324,0.000000,0.125000,
4,330570710,org.dacapo.luindex.Index$$$$$indexDocs,14132,73,0.000000,0.000000,0.125000,
4,330570740,org.apache.lucene.index.ByteBlockPool$$$$$allocSlice,14132,37,0.007324,0.000000,0.125000,
5,330571161,org.apache.lucene.index.FreqProxTermsWriterPerField$$$$$newTerm,14132,34,0.011840,0.000000,0.125000,
5,330571177,org.apache.lucene.index.ByteBlockPool$$$$$allocSlice,14132,37,0.007080,0.000000,0.125000,
5,330571250,org.apache.lucene.index.ByteBlockPool$$$$$allocSlice,14132,37,0.007324,0.000000,0.125000,
5,330571267,org.apache.lucene.index.FreqProxTermsWriterPerField$$$$$newTerm,14132,34,0.011841,0.000000,0.125000,
5,330571303,org.apache.lucene.analysis.TokenFilter$$$$$reset,14132,38,0.007325,0.000000,0.125000,
5,330571356,org.apache.lucene.index.TermsHashPerField$$$$$initReader,14132,31,0.007325,0.000000,0.125000,
5,330571410,org.apache.lucene.index.FreqProxTermsWriterPerField$$$$$newTerm,14132,34,0.007080,0.000000,0.125000,
5,330571427,org.apache.lucene.index.FreqProxTermsWriterPerField$$$$$newTerm,14132,34,0.007324,0.000000,0.125000,
5,330571455,org.apache.lucene.index.DocInverterPerField$$$$$processFields,14132,24,0.007080,0.000000,0.125000,
5,330571472,org.apache.lucene.index.ByteBlockPool$$$$$allocSlice,14132,37,0.007324,0.000000,0.125000,
5,330571500,org.apache.lucene.index.ByteBlockPool$$$$$allocSlice,14132,37,0.007325,0.000000,0.125000,
5,330571533,org.apache.lucene.analysis.TokenFilter$$$$$reset,14132,38,0.007324,0.000000,0.125000,
5,330571561,org.apache.lucene.index.ByteBlockPool$$$$$allocSlice,14132,37,0.007080,0.000000,0.125000,
5,330571615,org.apache.lucene.index.ByteBlockPool$$$$$allocSlice,14132,37,0.007080,0.000000,0.125000,
5,330571640,org.apache.lucene.index.ByteBlockPool$$$$$allocSlice,14132,37,0.016541,0.000000,0.125000,
5,330571684,org.apache.lucene.analysis.TokenFilter$$$$$reset,14132,38,0.007081,0.000000,0.125000,
5,330571697,org.apache.lucene.index.ByteBlockPool$$$$$allocSlice,14132,37,0.007080,0.000000,0.125000,
5,330571820,org.apache.lucene.index.TermInfo$$$$$set,14143,81,0.007080,0.000000,0.125000,
6,330572222,org.apache.lucene.index.FreqProxTermsWriterPerField$$$$$newTerm,14132,34,0.007202,0.000000,0.125000,
6,330572255,org.apache.lucene.index.FreqProxTermsWriterPerField$$$$$newTerm,14132,34,0.007325,0.000000,0.125000,
6,330572262,org.apache.lucene.index.FreqProxTermsWriterPerField$$$$$newTerm,14132,34,0.007324,0.000000,0.125000,
6,330572289,org.apache.lucene.index.FreqProxTermsWriterPerField$$$$$newTerm,14132,34,0.007080,0.000000,0.125000,
6,330572298,org.apache.lucene.index.FreqProxTermsWriterPerField$$$$$newTerm,14132,34,0.014344,0.000000,0.125000,
6,330572309,org.apache.lucene.index.FreqProxTermsWriterPerField$$$$$newTerm,14132,34,0.007324,0.000000,0.125000,
6,330572316,org.apache.lucene.index.FreqProxTermsWriterPerField$$$$$newTerm,14132,34,0.007324,0.000000,0.125000,
6,330572337,org.apache.lucene.index.FreqProxTermsWriterPerField$$$$$newTerm,14132,34,0.007080,0.000000,0.125000,
6,330572371,org.apache.lucene.index.FreqProxTermsWriterPerField$$$$$newTerm,14132,34,0.007324,0.000000,0.125000,
6,330572378,org.apache.lucene.index.FreqProxTermsWriterPerField$$$$$newTerm,14132,34,0.007325,0.000000,0.125000,
6,330572398,org.apache.lucene.index.FreqProxTermsWriterPerField$$$$$newTerm,14132,34,0.007325,0.000000,0.125000,
6,330572411,org.apache.lucene.index.ByteSliceReader$$$$$init,14132,36,0.007324,0.000000,0.125000,
6,330572418,org.apache.lucene.util.UnicodeUtil$$$$$UTF16toUTF8,14132,57,0.007325,0.000000,0.125000,
6,330572443,org.apache.lucene.store.RAMOutputStream$$$$$writeTo,14132,56,0.007081,0.000000,0.125000,
6,330572460,org.apache.lucene.index.FreqProxTermsWriterPerField$$$$$newTerm,14132,34,0.007325,0.000000,0.125000,
6,330572473,org.apache.lucene.index.FreqProxTermsWriterPerField$$$$$newTerm,14132,34,0.000000,0.000000,0.125000,
6,330572501,org.apache.lucene.index.FreqProxTermsWriterPerField$$$$$newTerm,14132,34,0.007080,0.000000,0.125000,
6,330572530,org.apache.lucene.index.FreqProxTermsWriterPerField$$$$$newTerm,14132,34,0.007324,0.000000,0.125000,
6,330572662,org.apache.lucene.analysis.TokenFilter$$$$$reset,14132,38,0.007324,0.000000,0.125000,
6,330572762,org.apache.lucene.index.FreqProxTermsWriterPerField$$$$$newTerm,14132,34,0.007324,0.000000,0.125000,
6,330572789,org.apache.lucene.util.SmallFloat$$$$$floatToByte315,14132,40,0.007080,0.000000,0.125000,
6,330572796,org.apache.lucene.index.FreqProxTermsWriterPerField$$$$$newTerm,14132,34,0.007324,0.000000,0.125000,
6,330572816,org.apache.lucene.index.FreqProxTermsWriterPerField$$$$$newTerm,14132,34,0.007324,0.000000,0.125000,
6,330572856,org.apache.lucene.analysis.standard.StandardTokenizerImpl$$$$$zzRefill,14132,89,0.007324,0.000000,0.125000,
6,330573032,org.apache.lucene.index.SegmentTermDocs$$$$$seek,14144,92,0.007080,0.000000,0.125000,
6,330573073,org.apache.lucene.index.SegmentTermEnum$$$$$next,14144,59,0.007324,0.000000,0.125000,
7,330573351,org.apache.lucene.index.FreqProxTermsWriterPerField$$$$$newTerm,14132,34,0.007080,0.000000,0.125000,
7,330573401,org.apache.lucene.index.FreqProxTermsWriterPerField$$$$$newTerm,14132,34,0.000000,0.000000,0.125000,
7,330573418,org.apache.lucene.index.FreqProxTermsWriterPerField$$$$$newTerm,14132,34,0.007324,0.000000,0.125000,
7,330573441,org.apache.lucene.index.FreqProxTermsWriterPerField$$$$$newTerm,14132,34,0.007080,0.000000,0.125000,
7,330573458,org.apache.lucene.index.FreqProxTermsWriterPerField$$$$$newTerm,14132,34,0.007142,0.000000,0.125000,
7,330573560,org.apache.lucene.analysis.TokenFilter$$$$$reset,14132,38,0.007324,0.000000,0.125000,
7,330573635,org.apache.lucene.index.FreqProxTermsWriterPerField$$$$$newTerm,14132,34,0.007080,0.000000,0.125000,
7,330573652,org.apache.lucene.index.FreqProxTermsWriterPerField$$$$$newTerm,14132,34,0.007324,0.000000,0.125000,
7,330573691,org.apache.lucene.index.FreqProxTermsWriterPerField$$$$$newTerm,14132,34,0.007568,0.000000,0.125000,
7,330573752,org.apache.lucene.analysis.standard.StandardTokenizerImpl$$$$$zzRefill,14132,89,0.007324,0.000000,0.125000,
7,330573778,org.apache.lucene.util.SmallFloat$$$$$floatToByte315,14132,40,0.095948,0.000000,0.250000,
7,330573830,org.dacapo.luindex.Index$$$$$indexDocs,14132,73,0.007325,0.000000,0.125000,
7,330573880,org.apache.lucene.store.RAMOutputStream$$$$$getFilePointer,14132,76,0.007263,0.000000,0.125000,
7,330573973,org.apache.lucene.util.UnicodeUtil$$$$$UTF16toUTF8,14145,74,0.007081,0.000000,0.125000,
8,330574232,org.apache.lucene.analysis.standard.StandardTokenizerImpl$$$$$zzRefill,14132,89,0.007080,0.000000,0.125000,
8,330574287,org.apache.lucene.index.FreqProxTermsWriterPerField$$$$$newTerm,14132,34,0.007324,0.000000,0.125000,
8,330574304,org.apache.lucene.index.FreqProxTermsWriterPerField$$$$$newTerm,14132,34,0.007080,0.000000,0.125000,
8,330574365,org.apache.lucene.index.FreqProxTermsWriterPerField$$$$$newTerm,14132,34,0.007325,0.000000,0.125000,
8,330574382,org.apache.lucene.index.FreqProxTermsWriterPerField$$$$$newTerm,14132,34,0.007080,0.000000,0.125000,
8,330574399,org.apache.lucene.index.FreqProxTermsWriterPerField$$$$$newTerm,14132,34,0.007324,0.000000,0.125000,
8,330574405,org.apache.lucene.index.FreqProxTermsWriterPerField$$$$$newTerm,14132,34,0.007324,0.000000,0.125000,
8,330574462,org.apache.lucene.index.FreqProxTermsWriterPerField$$$$$newTerm,14132,34,0.007263,0.000000,0.125000,
8,330574485,org.apache.lucene.util.UnicodeUtil$$$$$UTF16toUTF8,14132,74,0.007324,0.000000,0.125000,
8,330574578,org.apache.lucene.analysis.standard.StandardTokenizerImpl$$$$$zzRefill,14132,89,0.007325,0.000000,0.125000,
8,330574596,org.apache.lucene.analysis.TokenFilter$$$$$reset,14132,38,0.007325,0.000000,0.125000,
8,330574767,org.apache.lucene.analysis.TokenFilter$$$$$reset,14132,38,0.007080,0.000000,0.125000,
8,330574938,org.apache.lucene.store.BufferedIndexOutput$$$$$getFilePointer,14146,98,0.007324,0.000000,0.125000,
9,330575236,org.apache.lucene.index.FreqProxTermsWriterPerField$$$$$newTerm,14132,34,0.007080,0.000000,0.125000,
9,330575262,org.apache.lucene.index.FreqProxTermsWriterPerField$$$$$newTerm,14132,34,0.007080,0.000000,0.125000,
9,330575271,org.apache.lucene.analysis.Token$$$$$setTermLength,14132,99,0.007324,0.000000,0.125000,
9,330575295,org.apache.lucene.index.FreqProxTermsWriterPerField$$$$$newTerm,14132,34,0.007325,0.000000,0.125000,
9,330575319,org.apache.lucene.analysis.Token$$$$$setTermLength,14132,99,0.007080,0.000000,0.125000,
9,330575328,org.apache.lucene.analysis.Token$$$$$setTermLength,14132,99,0.007080,0.000000,0.125000,
9,330575344,org.apache.lucene.analysis.standard.StandardTokenizerImpl$$$$$zzRefill,14132,89,0.007324,0.000000,0.125000,
9,330575385,org.apache.lucene.analysis.Token$$$$$setTermLength,14132,99,0.007324,0.000000,0.125000,
9,330575395,org.apache.lucene.analysis.Token$$$$$setTermLength,14132,99,0.007324,0.000000,0.125000,
9,330575410,org.apache.lucene.analysis.Token$$$$$setTermLength,14132,99,0.007324,0.000000,0.125000,
9,330575441,org.apache.lucene.store.BufferedIndexOutput$$$$$getFilePointer,14132,98,0.007324,0.000000,0.125000,
9,330575483,org.apache.lucene.analysis.Token$$$$$setTermLength,14132,99,0.007324,0.000000,0.125000,
9,330575524,org.apache.lucene.index.FreqProxTermsWriterPerField$$$$$newTerm,14132,34,0.007080,0.000000,0.125000,
9,330575603,org.apache.lucene.index.FreqProxTermsWriterPerField$$$$$newTerm,14132,34,0.007324,0.000000,0.125000,
9,330575691,org.apache.lucene.analysis.TokenFilter$$$$$reset,14132,38,0.007080,0.000000,0.125000,
9,330575708,org.apache.lucene.index.FreqProxTermsWriterPerField$$$$$newTerm,14132,34,0.007325,0.000000,0.125000,
9,330575724,org.apache.lucene.index.FreqProxTermsWriterPerField$$$$$newTerm,14132,34,0.007324,0.000000,0.125000,
9,330575775,org.apache.lucene.store.BufferedIndexOutput$$$$$writeBytes,14132,79,0.007325,0.000000,0.125000,
9,330575814,org.apache.lucene.store.BufferedIndexOutput$$$$$getFilePointer,14132,98,0.007081,0.000000,0.125000,
9,330575998,org.apache.lucene.store.BufferedIndexInput$$$$$seek,14147,95,0.007324,0.000000,0.125000,
10,330576278,org.apache.lucene.analysis.Token$$$$$setTermLength,14132,99,0.007080,0.000000,0.125000,
10,330576303,org.apache.lucene.index.FreqProxTermsWriterPerField$$$$$newTerm,14132,34,0.007324,0.000000,0.125000,
10,330576318,org.apache.lucene.index.FreqProxTermsWriterPerField$$$$$newTerm,14132,34,0.007080,0.000000,0.125000,
10,330576368,org.apache.lucene.index.FreqProxTermsWriterPerField$$$$$newTerm,14132,34,0.007324,0.000000,0.125000,
10,330576383,org.apache.lucene.index.FreqProxTermsWriterPerField$$$$$newTerm,14132,34,0.007081,0.000000,0.125000,
10,330576393,org.apache.lucene.analysis.Token$$$$$setTermLength,14132,99,0.007324,0.000000,0.125000,
10,330576409,org.apache.lucene.index.FreqProxTermsWriterPerField$$$$$newTerm,14132,34,0.007080,0.000000,0.125000,
10,330576424,org.apache.lucene.analysis.Token$$$$$setTermLength,14132,99,0.007080,0.000000,0.125000,
10,330576434,org.apache.lucene.index.FreqProxTermsWriterPerField$$$$$newTerm,14132,34,0.007325,0.000000,0.125000,
10,330576514,org.apache.lucene.index.FreqProxTermsWriterPerField$$$$$newTerm,14132,34,0.007080,0.000000,0.125000,
10,330576541,org.apache.lucene.index.FreqProxTermsWriterPerField$$$$$newTerm,14132,34,0.007324,0.000000,0.125000,
10,330576613,org.apache.lucene.index.NormsWriterPerField$$$$$finish,14132,101,0.007325,0.000000,0.125000,
10,330576659,org.apache.lucene.index.NormsWriterPerField$$$$$finish,14132,101,0.007324,0.000000,0.125000,
10,330576670,org.apache.lucene.index.FreqProxTermsWriterPerField$$$$$newTerm,14132,34,0.007325,0.000000,0.125000,
10,330576682,org.apache.lucene.index.FreqProxTermsWriterPerField$$$$$newTerm,14132,34,0.007324,0.000000,0.125000,
10,330576694,org.apache.lucene.index.NormsWriterPerField$$$$$finish,14132,101,0.007080,0.000000,0.125000,
10,330576740,org.apache.lucene.index.FreqProxTermsWriterPerField$$$$$newTerm,14132,34,0.007324,0.000000,0.125000,
10,330576802,org.apache.lucene.index.FreqProxTermsWriterPerField$$$$$newTerm,14132,34,0.007081,0.000000,0.125000,
10,330576827,org.apache.lucene.analysis.Token$$$$$setTermLength,14132,99,0.007324,0.000000,0.125000,
10,330576839,org.dacapo.luindex.Index$$$$$indexDocs,14132,73,0.000000,0.000000,0.125000,
10,330576884,org.apache.lucene.index.FreqProxTermsWriterPerField$$$$$newTerm,14132,34,0.007080,0.000000,0.125000,
10,330576903,org.apache.lucene.index.FreqProxTermsWriterPerField$$$$$newTerm,14132,34,0.007080,0.000000,0.125000,
10,330577037,org.apache.lucene.util.UnicodeUtil$$$$$UTF16toUTF8,14148,74,0.007080,0.000000,0.125000,
11,330577303,org.apache.lucene.analysis.Token$$$$$setTermLength,14132,99,0.011901,0.000000,0.125000,
11,330577335,org.apache.lucene.index.FreqProxTermsWriterPerField$$$$$newTerm,14132,34,0.000000,0.000000,0.125000,
11,330577352,org.apache.lucene.index.FreqProxTermsWriterPerField$$$$$newTerm,14132,34,0.007324,0.000000,0.125000,
11,330577377,org.apache.lucene.index.FreqProxTermsWriterPerField$$$$$newTerm,14132,34,0.007080,0.000000,0.125000,
11,330577418,org.apache.lucene.analysis.Token$$$$$setTermLength,14132,99,0.007325,0.000000,0.125000,
11,330577442,org.apache.lucene.analysis.Token$$$$$setTermLength,14132,99,0.007324,0.000000,0.125000,
11,330577478,org.apache.lucene.index.FreqProxFieldMergeState$$$$$nextTerm,14132,106,0.000000,0.000000,0.125000,
11,330577490,org.apache.lucene.analysis.TokenFilter$$$$$reset,14132,38,0.007324,0.000000,0.125000,
11,330577553,org.apache.lucene.analysis.Token$$$$$setTermLength,14132,99,0.007325,0.000000,0.125000,
11,330577593,org.apache.lucene.index.FreqProxTermsWriterPerField$$$$$newTerm,14132,34,0.007080,0.000000,0.125000,
11,330577610,org.apache.lucene.index.FreqProxTermsWriterPerField$$$$$newTerm,14132,34,0.007080,0.000000,0.125000,
11,330577622,org.apache.lucene.index.FreqProxTermsWriterPerField$$$$$newTerm,14132,34,0.007080,0.000000,0.125000,
11,330577639,org.apache.lucene.analysis.TokenFilter$$$$$reset,14132,38,0.007324,0.000000,0.125000,
11,330577666,org.apache.lucene.index.FreqProxTermsWriterPerField$$$$$newTerm,14132,34,0.165588,0.000000,0.375000,
11,330577727,org.apache.lucene.index.FreqProxTermsWriterPerField$$$$$newTerm,14132,34,0.007324,0.000000,0.125000,
11,330577739,org.apache.lucene.analysis.TokenFilter$$$$$reset,14132,38,0.007324,0.000000,0.125000,
11,330577838,org.apache.lucene.index.MultiLevelSkipListWriter$$$$$bufferSkip,14132,105,0.007324,0.000000,0.125000,
11,330577918,org.apache.lucene.index.SegmentTermDocs$$$$$doc,14149,97,0.007324,0.000000,0.125000,
12,330578288,org.apache.lucene.analysis.Token$$$$$setTermLength,14132,99,0.000000,0.000000,0.125000,
12,330578305,org.apache.lucene.index.FreqProxTermsWriterPerField$$$$$newTerm,14132,34,0.007325,0.000000,0.125000,
12,330578322,org.apache.lucene.index.FreqProxTermsWriterPerField$$$$$newTerm,14132,34,0.007080,0.000000,0.125000,
12,330578339,org.apache.lucene.index.FreqProxTermsWriterPerField$$$$$newTerm,14132,34,0.007325,0.000000,0.125000,
12,330578378,org.apache.lucene.analysis.Token$$$$$setTermLength,14132,99,0.007080,0.000000,0.125000,
12,330578395,org.apache.lucene.index.NormsWriterPerField$$$$$finish,14132,101,0.000000,0.000000,0.125000,
12,330578406,org.apache.lucene.util.UnicodeUtil$$$$$UTF16toUTF8,14132,57,0.039978,0.000000,0.125000,
12,330578474,org.apache.lucene.index.FreqProxTermsWriterPerField$$$$$newTerm,14132,34,0.007325,0.000000,0.125000,
12,330578518,org.apache.lucene.analysis.TokenFilter$$$$$reset,14132,38,0.007080,0.000000,0.125000,
12,330578584,org.apache.lucene.analysis.TokenFilter$$$$$reset,14132,38,0.007080,0.000000,0.125000,
12,330578626,org.apache.lucene.index.DocFieldProcessorPerThread$$$$$quickSort,14132,110,0.213990,0.000000,0.375000,
12,330578672,org.apache.lucene.index.NormsWriterPerField$$$$$finish,14132,101,0.007324,0.000000,0.125000,
12,330578688,org.apache.lucene.index.StoredFieldsWriter$$$$$finishDocument,14132,77,0.007324,0.000000,0.125000,
12,330578700,org.apache.lucene.analysis.standard.StandardTokenizerImpl$$$$$zzRefill,14132,89,0.007080,0.000000,0.125000,
13,330579287,org.apache.lucene.index.FreqProxTermsWriterPerField$$$$$newTerm,14132,34,0.007325,0.000000,0.125000,
13,330579318,org.apache.lucene.index.FreqProxTermsWriterPerField$$$$$newTerm,14132,34,0.007324,0.000000,0.125000,
13,330579359,org.apache.lucene.analysis.Token$$$$$setTermLength,14132,99,0.007324,0.000000,0.125000,
13,330579391,org.apache.lucene.index.TermInfosWriter$$$$$add,14132,90,0.007325,0.000000,0.125000,
13,330579413,org.apache.lucene.analysis.standard.StandardTokenizerImpl$$$$$zzRefill,14132,89,0.007080,0.000000,0.125000,
13,330579476,org.apache.lucene.analysis.standard.StandardTokenizerImpl$$$$$zzRefill,14132,89,0.007325,0.000000,0.125000,
13,330579482,org.apache.lucene.analysis.standard.StandardTokenizerImpl$$$$$zzRefill,14132,89,0.007081,0.000000,0.125000,
13,330579593,org.apache.lucene.analysis.Token$$$$$setTermLength,14132,99,0.007325,0.000000,0.125000,
13,330579678,org.apache.lucene.analysis.standard.StandardTokenizerImpl$$$$$zzRefill,14132,89,0.007325,0.000000,0.125000,
13,330579700,org.apache.lucene.util.SmallFloat$$$$$floatToByte315,14132,40,0.007324,0.000000,0.125000,
13,330580030,org.apache.lucene.util.UnicodeUtil$$$$$UTF16toUTF8,14132,74,0.355102,0.000000,2.125000,
13,330580062,org.apache.lucene.store.FSDirectory$FSIndexOutput$$$$$flushBuffer,14132,108,0.087525,0.000000,0.625000,
13,330579895,org.apache.lucene.store.BufferedIndexOutput$$$$$getFilePointer,14151,98,0.007324,0.000000,0.125000,
14,330580115,org.apache.lucene.store.FSDirectory$FSIndexOutput$$$$$flushBuffer,14132,108,0.380188,0.000000,1.000000,
14,330580119,org.apache.lucene.analysis.Token$$$$$setTermLength,14132,99,0.007324,0.000000,0.125000,
14,330580140,org.apache.lucene.analysis.Token$$$$$setTermLength,14132,99,0.007325,0.000000,0.125000,
14,330580153,org.apache.lucene.analysis.Token$$$$$setTermLength,14132,99,0.007081,0.000000,0.125000,
14,330580167,org.apache.lucene.analysis.Token$$$$$setTermLength,14132,99,0.007324,0.000000,0.125000,
14,330580180,org.apache.lucene.analysis.Token$$$$$setTermLength,14132,99,0.007263,0.000000,0.125000,
14,330580194,org.apache.lucene.analysis.Token$$$$$setTermLength,14132,99,0.007080,0.000000,0.125000,
14,330580201,org.apache.lucene.analysis.Token$$$$$setTermLength,14132,99,0.007325,0.000000,0.125000,
14,330580215,org.apache.lucene.analysis.Token$$$$$setTermLength,14132,99,0.007324,0.000000,0.125000,
14,330580228,org.apache.lucene.analysis.Token$$$$$setTermLength,14132,99,0.007324,0.000000,0.125000,
14,330580241,org.apache.lucene.analysis.Token$$$$$setTermLength,14132,99,0.007324,0.000000,0.125000,
14,330580248,org.apache.lucene.analysis.Token$$$$$setTermLength,14132,99,0.007325,0.000000,0.125000,
14,330580254,org.apache.lucene.analysis.Token$$$$$setTermLength,14132,99,0.007325,0.000000,0.125000,
14,330580295,org.apache.lucene.analysis.Token$$$$$setTermLength,14132,99,0.007324,0.000000,0.125000,
14,330580316,org.apache.lucene.analysis.Token$$$$$setTermLength,14132,99,0.007324,0.000000,0.125000,
14,330580322,org.apache.lucene.analysis.Token$$$$$setTermLength,14132,99,0.007324,0.000000,0.125000,
14,330580507,org.apache.lucene.util.SmallFloat$$$$$floatToByte315,14132,40,0.007324,0.000000,0.125000,
14,330580555,org.apache.lucene.index.NormsWriterPerField$$$$$finish,14132,101,0.007325,0.000000,0.125000,
14,330580562,org.apache.lucene.analysis.standard.StandardTokenizerImpl$$$$$zzRefill,14132,89,0.007325,0.000000,0.125000,
14,330580716,org.apache.lucene.index.NormsWriterPerField$$$$$finish,14132,101,0.007324,0.000000,0.125000,
14,330580834,org.apache.lucene.util.UnicodeUtil$$$$$UTF8toUTF16,14152,80,0.007080,0.000000,0.125000,
15,330581122,org.apache.lucene.store.FSDirectory$FSIndexOutput$$$$$flushBuffer,14132,108,0.146118,0.000000,0.875000,
15,330581149,org.apache.lucene.document.Field$$$$$<init>,14132,111,0.007324,0.000000,0.375000,
15,330581176,org.apache.lucene.analysis.Token$$$$$setTermLength,14132,99,0.007080,0.000000,0.125000,
15,330581190,org.apache.lucene.analysis.Token$$$$$setTermLength,14132,99,0.007325,0.000000,0.125000,
15,330581197,org.apache.lucene.analysis.Token$$$$$setTermLength,14132,99,0.007324,0.000000,0.125000,
15,330581211,org.apache.lucene.analysis.Token$$$$$setTermLength,14132,99,0.007324,0.000000,0.125000,
15,330581225,org.apache.lucene.analysis.Token$$$$$setTermLength,14132,99,0.007324,0.000000,0.125000,
15,330581246,org.apache.lucene.analysis.Token$$$$$setTermLength,14132,99,0.007325,0.000000,0.125000,
15,330581260,org.apache.lucene.analysis.Token$$$$$setTermLength,14132,99,0.007080,0.000000,0.125000,
15,330581274,org.apache.lucene.analysis.Token$$$$$setTermLength,14132,99,0.007080,0.000000,0.125000,
15,330581287,org.apache.lucene.analysis.Token$$$$$setTermLength,14132,99,0.007324,0.000000,0.125000,
15,330581294,org.apache.lucene.analysis.Token$$$$$setTermLength,14132,99,0.007324,0.000000,0.125000,
15,330581329,org.apache.lucene.analysis.Token$$$$$setTermLength,14132,99,0.007325,0.000000,0.125000,
15,330581342,org.apache.lucene.analysis.Token$$$$$setTermLength,14132,99,0.007324,0.000000,0.125000,
15,330581472,org.apache.lucene.analysis.standard.StandardTokenizerImpl$$$$$zzRefill,14132,89,0.007324,0.000000,0.125000,
15,330581593,org.apache.lucene.store.BufferedIndexOutput$$$$$getFilePointer,14132,98,0.007325,0.000000,0.125000,
15,330581635,org.apache.lucene.index.NormsWriterPerField$$$$$finish,14132,101,0.007324,0.000000,0.125000,
15,330581642,org.apache.lucene.analysis.Token$$$$$setTermLength,14132,99,0.007324,0.000000,0.125000,
15,330581679,org.apache.lucene.index.DocumentsWriter$$$$$finishDocument,14132,41,0.007324,0.000000,0.125000,
15,330581737,org.apache.lucene.analysis.TokenFilter$$$$$reset,14132,38,0.007324,0.000000,0.125000,
15,330581778,org.apache.lucene.document.Field$$$$$<init>,14132,111,0.007080,0.000000,0.125000,
15,330581928,org.apache.lucene.index.MultiLevelSkipListWriter$$$$$bufferSkip,14153,105,0.000000,0.000000,0.125000,
16,330582178,org.apache.lucene.analysis.Token$$$$$setTermLength,14132,99,0.007080,0.000000,0.125000,
16,330582193,org.apache.lucene.analysis.Token$$$$$setTermLength,14132,99,0.007324,0.000000,0.125000,
16,330582207,org.apache.lucene.analysis.Token$$$$$setTermLength,14132,99,0.007324,0.000000,0.125000,
16,330582214,org.apache.lucene.analysis.Token$$$$$setTermLength,14132,99,0.000000,0.000000,0.125000,
16,330582228,org.apache.lucene.analysis.Token$$$$$setTermLength,14132,99,0.007324,0.000000,0.125000,
16,330582256,org.apache.lucene.analysis.standard.StandardTokenizerImpl$$$$$zzRefill,14132,89,0.007141,0.000000,0.125000,
16,330582269,org.apache.lucene.analysis.Token$$$$$setTermLength,14132,99,0.007324,0.000000,0.125000,
16,330582282,org.apache.lucene.analysis.Token$$$$$setTermLength,14132,99,0.007325,0.000000,0.125000,
16,330582296,org.apache.lucene.analysis.Token$$$$$setTermLength,14132,99,0.007202,0.000000,0.125000,
16,330582308,org.apache.lucene.analysis.Token$$$$$setTermLength,14132,99,0.007324,0.000000,0.125000,
16,330582342,org.apache.lucene.analysis.Token$$$$$setTermLength,14132,99,0.007324,0.000000,0.125000,
16,330582395,org.apache.lucene.analysis.standard.StandardTokenizerImpl$$$$$zzRefill,14132,89,0.007080,0.000000,0.125000,
16,330582469,org.apache.lucene.analysis.standard.StandardTokenizerImpl$$$$$zzRefill,14132,89,0.007080,0.000000,0.125000,
16,330582476,org.apache.lucene.document.Field$$$$$<init>,14132,111,0.007325,0.000000,0.125000,
16,330582543,org.apache.lucene.document.Field$$$$$<init>,14132,111,0.007324,0.000000,0.125000,
16,330582582,org.apache.lucene.analysis.Token$$$$$setTermLength,14132,99,0.007507,0.000000,0.125000,
16,330582609,org.apache.lucene.index.NormsWriterPerField$$$$$finish,14132,101,0.007324,0.000000,0.125000,
16,330582724,org.apache.lucene.analysis.standard.StandardTokenizerImpl$$$$$zzRefill,14132,89,0.007080,0.000000,0.125000,
16,330582738,org.apache.lucene.index.DocFieldConsumersPerField$$$$$processFields,14132,114,0.007080,0.000000,0.125000,
16,330582804,org.apache.lucene.document.Field$$$$$<init>,14132,111,0.007080,0.000000,0.125000,
16,330582841,org.apache.lucene.store.BufferedIndexOutput$$$$$getFilePointer,14132,98,0.007324,0.000000,0.125000,
16,330582866,org.apache.lucene.index.SegmentMergeInfo$$$$$getDocMap,14154,85,0.007141,0.000000,0.125000,
16,330582943,org.apache.lucene.store.BufferedIndexOutput$$$$$getFilePointer,14154,98,0.007324,0.000000,0.125000,
17,330583155,org.apache.lucene.analysis.Token$$$$$setTermLength,14132,99,0.007081,0.000000,0.125000,
17,330583166,org.apache.lucene.analysis.Token$$$$$setTermLength,14132,99,0.007324,0.000000,0.125000,
17,330583177,org.apache.lucene.analysis.Token$$$$$setTermLength,14132,99,0.007324,0.000000,0.125000,
17,330583188,org.apache.lucene.analysis.Token$$$$$setTermLength,14132,99,0.007324,0.000000,0.125000,
17,330583228,org.apache.lucene.analysis.Token$$$$$setTermLength,14132,99,0.007080,0.000000,0.125000,
17,330583239,org.apache.lucene.analysis.Token$$$$$setTermLength,14132,99,0.011841,0.000000,0.125000,
17,330583263,org.apache.lucene.analysis.Token$$$$$setTermLength,14132,99,0.007202,0.000000,0.125000,
17,330583291,org.apache.lucene.analysis.Token$$$$$setTermLength,14132,99,0.000000,0.000000,0.125000,
17,330583302,org.apache.lucene.analysis.Token$$$$$setTermLength,14132,99,0.007141,0.000000,0.125000,
17,330583313,org.apache.lucene.analysis.Token$$$$$setTermLength,14132,99,0.007324,0.000000,0.125000,
17,330583590,org.apache.lucene.document.Field$$$$$<init>,14132,111,0.007324,0.000000,0.125000,
17,330583607,org.apache.lucene.analysis.Token$$$$$setTermLength,14132,99,0.007324,0.000000,0.125000,
17,330583618,org.apache.lucene.index.NormsWriterPerField$$$$$finish,14132,101,0.007324,0.000000,0.125000,
17,330583651,org.apache.lucene.document.Field$$$$$<init>,14132,111,0.007325,0.000000,0.125000,
17,330583784,org.apache.lucene.index.MultiLevelSkipListWriter$$$$$bufferSkip,14155,105,0.000000,0.000000,0.125000,
18,330584105,org.apache.lucene.analysis.Token$$$$$setTermLength,14132,99,0.007325,0.000000,0.125000,
18,330584120,org.apache.lucene.analysis.Token$$$$$setTermLength,14132,99,0.011841,0.000000,0.125000,
18,330584129,org.apache.lucene.analysis.Token$$$$$setTermLength,14132,99,0.011841,0.000000,0.125000,
18,330584134,org.apache.lucene.analysis.Token$$$$$setTermLength,14132,99,0.007324,0.000000,0.125000,
18,330584149,org.apache.lucene.analysis.Token$$$$$setTermLength,14132,99,0.007325,0.000000,0.125000,
18,330584171,org.apache.lucene.analysis.Token$$$$$setTermLength,14132,99,0.007325,0.000000,0.125000,
18,330584183,org.apache.lucene.analysis.Token$$$$$setTermLength,14132,99,0.007324,0.000000,0.125000,
18,330584194,org.apache.lucene.analysis.Token$$$$$setTermLength,14132,99,0.007324,0.000000,0.125000,
18,330584222,org.apache.lucene.analysis.Token$$$$$setTermLength,14132,99,0.007324,0.000000,0.125000,
18,330584234,org.apache.lucene.analysis.Token$$$$$setTermLength,14132,99,0.007324,0.000000,0.125000,
18,330584245,org.apache.lucene.analysis.Token$$$$$setTermLength,14132,99,0.007080,0.000000,0.125000,
18,330584256,org.apache.lucene.analysis.Token$$$$$setTermLength,14132,99,0.007080,0.000000,0.125000,
18,330584345,org.apache.lucene.index.NormsWriterPerField$$$$$finish,14132,101,0.007324,0.000000,0.125000,
18,330584526,org.apache.lucene.util.SmallFloat$$$$$floatToByte315,14132,40,0.007080,0.000000,0.125000,
18,330584581,org.apache.lucene.analysis.Token$$$$$setTermLength,14132,99,0.007325,0.000000,0.125000,
18,330584611,org.apache.lucene.analysis.Token$$$$$setTermLength,14132,99,0.007325,0.000000,0.125000,
18,330584646,org.apache.lucene.analysis.standard.StandardTokenizerImpl$$$$$zzRefill,14132,89,0.007324,0.000000,0.125000,
18,330584728,org.apache.lucene.store.FSDirectory$FSIndexOutput$$$$$flushBuffer,14132,108,0.007080,0.000000,0.125000,
18,330584756,org.apache.lucene.index.MultiLevelSkipListWriter$$$$$bufferSkip,14156,105,0.007080,0.000000,0.125000,
18,330584813,org.apache.lucene.store.BufferedIndexInput$$$$$readBytes,14156,93,0.007080,0.000000,0.125000,
19,330585032,org.apache.lucene.analysis.Token$$$$$setTermLength,14132,99,0.007324,0.000000,0.125000,
19,330585046,org.apache.lucene.analysis.Token$$$$$setTermLength,14132,99,0.007080,0.000000,0.125000,
19,330585056,org.apache.lucene.analysis.Token$$$$$setTermLength,14132,99,0.007080,0.000000,0.125000,
19,330585061,org.apache.lucene.analysis.Token$$$$$setTermLength,14132,99,0.007324,0.000000,0.125000,
19,330585070,org.apache.lucene.analysis.Token$$$$$setTermLength,14132,99,0.007324,0.000000,0.125000,
19,330585080,org.apache.lucene.analysis.Token$$$$$setTermLength,14132,99,0.007324,0.000000,0.125000,
19,330585085,org.apache.lucene.analysis.Token$$$$$setTermLength,14132,99,0.007080,0.000000,0.125000,
19,330585095,org.apache.lucene.analysis.standard.StandardTokenizerImpl$$$$$zzRefill,14132,89,0.007263,0.000000,0.125000,
19,330585104,org.apache.lucene.analysis.Token$$$$$setTermLength,14132,99,0.007081,0.000000,0.125000,
19,330585123,org.apache.lucene.analysis.standard.StandardTokenizerImpl$$$$$zzRefill,14132,89,0.007081,0.000000,0.125000,
19,330585148,org.apache.lucene.analysis.Token$$$$$setTermLength,14132,99,0.007324,0.000000,0.125000,
19,330585157,org.apache.lucene.analysis.Token$$$$$setTermLength,14132,99,0.007081,0.000000,0.125000,
19,330585163,org.apache.lucene.analysis.Token$$$$$setTermLength,14132,99,0.007325,0.000000,0.125000,
19,330585172,org.apache.lucene.analysis.Token$$$$$setTermLength,14132,99,0.007325,0.000000,0.125000,
19,330585183,org.apache.lucene.analysis.Token$$$$$setTermLength,14132,99,0.007324,0.000000,0.125000,
19,330585188,org.apache.lucene.analysis.Token$$$$$setTermLength,14132,99,0.007080,0.000000,0.125000,
19,330585197,org.apache.lucene.analysis.Token$$$$$setTermLength,14132,99,0.007080,0.000000,0.125000,
19,330585207,org.apache.lucene.analysis.Token$$$$$setTermLength,14132,99,0.007324,0.000000,0.125000,
19,330585222,org.apache.lucene.analysis.Token$$$$$setTermLength,14132,99,0.007324,0.000000,0.125000,
19,330585301,org.apache.lucene.analysis.Token$$$$$setTermLength,14132,99,0.007324,0.000000,0.125000,
19,330585311,org.apache.lucene.util.SmallFloat$$$$$floatToByte315,14132,40,0.007324,0.000000,0.125000,
19,330585351,org.apache.lucene.document.Field$$$$$<init>,14132,111,0.007324,0.000000,0.125000,
19,330585371,org.apache.lucene.document.Field$$$$$<init>,14132,111,0.007325,0.000000,0.125000,
19,330585381,org.apache.lucene.analysis.Token$$$$$setTermLength,14132,99,0.007324,0.000000,0.125000,
19,330585415,org.apache.lucene.index.DocumentsWriter$$$$$finishDocument,14132,41,0.007264,0.000000,0.125000,
19,330585425,org.apache.lucene.util.SmallFloat$$$$$floatToByte315,14132,40,0.007324,0.000000,0.125000,
19,330585469,org.apache.lucene.analysis.TokenFilter$$$$$reset,14132,38,0.007325,0.000000,0.125000,
19,330585489,org.apache.lucene.document.Field$$$$$<init>,14132,111,0.007080,0.000000,0.125000,
19,330585540,org.apache.lucene.document.DateTools$$$$$timeToString,14132,116,0.007324,0.000000,0.125000,
19,330585574,org.apache.lucene.analysis.standard.StandardTokenizerImpl$$$$$zzRefill,14132,89,0.007324,0.000000,0.125000,
19,330585646,org.apache.lucene.document.Field$$$$$<init>,14132,111,0.007080,0.000000,0.125000,
19,330585712,org.apache.lucene.store.BufferedIndexOutput$$$$$getFilePointer,14132,98,0.007324,0.000000,0.125000,
19,330585727,org.apache.lucene.store.BufferedIndexOutput$$$$$getFilePointer,14132,98,0.007324,0.000000,0.125000,
19,330585761,org.apache.lucene.util.UnicodeUtil$$$$$UTF8toUTF16,14157,80,0.007080,0.000000,0.125000,
19,330585808,org.apache.lucene.store.BufferedIndexOutput$$$$$getFilePointer,14157,98,0.007080,0.000000,0.125000,
20,330586074,org.apache.lucene.document.Field$$$$$<init>,14132,111,0.111633,0.000000,0.750000,
20,330586087,org.apache.lucene.analysis.Token$$$$$setTermLength,14132,99,0.007080,0.000000,0.125000,
20,330586092,org.apache.lucene.analysis.Token$$$$$setTermLength,14132,99,0.007080,0.000000,0.125000,
20,330586102,org.apache.lucene.analysis.Token$$$$$setTermLength,14132,99,0.007263,0.000000,0.125000,
20,330586112,org.apache.lucene.analysis.Token$$$$$setTermLength,14132,99,0.007324,0.000000,0.125000,
20,330586128,org.apache.lucene.analysis.Token$$$$$setTermLength,14132,99,0.007080,0.000000,0.125000,
20,330586139,org.apache.lucene.analysis.Token$$$$$setTermLength,14132,99,0.007141,0.000000,0.125000,
20,330586149,org.apache.lucene.analysis.Token$$$$$setTermLength,14132,99,0.007080,0.000000,0.125000,
20,330586154,org.apache.lucene.analysis.Token$$$$$setTermLength,14132,99,0.007324,0.000000,0.125000,
20,330586169,org.apache.lucene.analysis.Token$$$$$setTermLength,14132,99,0.011962,0.000000,0.125000,
20,330586178,org.apache.lucene.analysis.Token$$$$$setTermLength,14132,99,0.007080,0.000000,0.125000,
20,330586193,org.apache.lucene.analysis.Token$$$$$setTermLength,14132,99,0.007324,0.000000,0.125000,
20,330586203,org.apache.lucene.analysis.Token$$$$$setTermLength,14132,99,0.007324,0.000000,0.125000,
20,330586219,org.apache.lucene.analysis.Token$$$$$setTermLength,14132,99,0.007324,0.000000,0.125000,
20,330586229,org.apache.lucene.analysis.Token$$$$$setTermLength,14132,99,0.007324,0.000000,0.125000,
20,330586239,org.apache.lucene.analysis.Token$$$$$setTermLength,14132,99,0.007080,0.000000,0.125000,
20,330586249,org.apache.lucene.analysis.Token$$$$$setTermLength,14132,99,0.007324,0.000000,0.125000,
20,330586274,org.apache.lucene.analysis.Token$$$$$setTermLength,14132,99,0.007080,0.000000,0.125000,
20,330586284,org.apache.lucene.analysis.Token$$$$$setTermLength,14132,99,0.007324,0.000000,0.125000,
20,330586333,org.apache.lucene.document.DateTools$$$$$timeToString,14132,116,0.007324,0.000000,0.125000,
20,330586342,org.apache.lucene.document.Field$$$$$<init>,14132,111,0.007324,0.000000,0.125000,
20,330586378,org.apache.lucene.index.FieldsWriter$$$$$writeField,14132,113,0.007080,0.000000,0.125000,
20,330586444,org.apache.lucene.document.Field$$$$$<init>,14132,111,0.007080,0.000000,0.125000,
20,330586470,org.apache.lucene.analysis.Token$$$$$setTermLength,14132,99,0.007324,0.000000,0.125000,
20,330586567,org.apache.lucene.index.NormsWriterPerField$$$$$finish,14132,101,0.007080,0.000000,0.125000,
20,330586616,org.apache.lucene.document.Field$$$$$<init>,14132,111,0.007324,0.000000,0.125000,
20,330586736,org.apache.lucene.util.SmallFloat$$$$$floatToByte315,14132,40,0.011841,0.000000,0.125000,
20,330586771,org.apache.lucene.store.BufferedIndexOutput$$$$$getFilePointer,14132,98,0.007325,0.000000,0.125000,
20,330586795,org.apache.lucene.store.BufferedIndexOutput$$$$$getFilePointer,14132,98,0.000000,0.000000,0.125000,
20,330586845,org.apache.lucene.util.UnicodeUtil$$$$$UTF8toUTF16,14158,80,0.000000,0.000000,0.125000,
