1,330995589,org.apache.lucene.analysis.standard.StandardTokenizerImpl$$$$$getNextToken,15487,0,0.007325,0.000000,0.125000,
1,330995701,org.apache.lucene.analysis.Token$$$$$initTermBuffer,15487,3,0.007324,0.000000,0.125000,
1,330996207,org.apache.lucene.index.TermsHashPerField$$$$$add,15487,1,0.007080,0.000000,0.125000,
1,330996305,org.apache.lucene.analysis.StopFilter$$$$$next,15487,9,0.000000,0.000000,0.125000,
1,330996362,org.apache.lucene.analysis.Token$$$$$initTermBuffer,15487,3,0.007080,0.000000,0.125000,
1,330996519,org.apache.lucene.analysis.CharArraySet$$$$$contains,15487,13,0.007080,0.000000,0.125000,
1,330996606,org.apache.lucene.analysis.Token$$$$$initTermBuffer,15487,3,0.007080,0.000000,0.125000,
1,330996621,org.apache.lucene.analysis.Token$$$$$initTermBuffer,15487,3,0.007081,0.000000,0.125000,
1,330996847,org.apache.lucene.index.ByteSliceReader$$$$$readByte,15487,32,0.000000,0.000000,0.125000,
1,330997529,org.apache.lucene.store.BufferedIndexOutput$$$$$writeByte,15487,25,0.242798,0.000000,2.000000,
1,330997572,org.apache.lucene.store.BufferedIndexOutput$$$$$writeByte,15487,25,0.063415,0.000000,0.750000,
1,330997009,org.apache.lucene.store.IndexInput$$$$$readVInt,15488,26,0.014221,0.000000,0.125000,
1,330997114,org.apache.lucene.store.IndexInput$$$$$readVInt,15488,26,0.007080,0.000000,0.125000,
1,330997155,org.apache.lucene.store.IndexOutput$$$$$writeVInt,15488,30,0.007324,0.000000,0.125000,
1,330997229,org.apache.lucene.index.SegmentTermPositions$$$$$readDeltaPosition,15488,39,0.312988,0.000000,0.375000,
1,330997230,org.apache.lucene.index.SegmentTermPositions$$$$$readDeltaPosition,15488,39,0.016602,0.000000,0.125000,
2,330997623,org.apache.lucene.analysis.CharArraySet$$$$$getSlot,15487,6,0.469422,0.000000,0.875000,
2,330997701,org.apache.lucene.analysis.CharArraySet$$$$$getHashCode,15487,8,0.007263,0.000000,0.125000,
2,330997742,org.apache.lucene.analysis.Token$$$$$initTermBuffer,15487,3,0.000000,0.000000,0.125000,
2,330997996,org.apache.lucene.analysis.Token$$$$$initTermBuffer,15487,3,0.000000,0.000000,0.125000,
2,330998259,org.apache.lucene.analysis.standard.StandardTokenizerImpl$$$$$getNextToken,15487,0,0.000000,0.000000,0.125000,
2,330998283,org.apache.lucene.analysis.Token$$$$$setTermBuffer,15487,20,0.000000,0.000000,0.125000,
2,330998308,org.apache.lucene.index.TermsHashPerField$$$$$comparePostings,15487,24,0.000000,0.000000,0.125000,
2,330998342,org.apache.lucene.store.BufferedIndexOutput$$$$$writeByte,15487,25,0.007324,0.000000,0.125000,
2,330998357,org.apache.lucene.store.IndexOutput$$$$$writeVInt,15487,30,0.007202,0.000000,0.125000,
2,330998504,org.apache.lucene.index.FreqProxTermsWriterPerField$$$$$writeProx,15487,23,0.007324,0.000000,0.125000,
2,330998595,org.apache.lucene.index.FreqProxTermsWriterPerField$$$$$writeProx,15487,23,0.007324,0.000000,0.125000,
2,330999267,org.apache.lucene.util.UnicodeUtil$$$$$UTF16toUTF8,15487,57,1.508178,0.000000,4.375000,
2,330999373,org.apache.lucene.util.UnicodeUtil$$$$$UTF16toUTF8,15487,57,0.123597,0.000000,1.375000,
2,330999140,org.apache.lucene.index.SegmentTermPositions$$$$$skipPayload,15489,53,0.007324,0.000000,0.125000,
2,330999164,org.apache.lucene.util.UnicodeUtil$$$$$UTF16toUTF8,15489,57,0.007324,0.000000,0.125000,
2,330999245,org.apache.lucene.index.SegmentTermPositions$$$$$lazySkip,15489,36,0.007324,0.000000,0.125000,
3,330999501,org.apache.lucene.store.BufferedIndexInput$$$$$readByte,15487,37,0.145630,0.000000,1.000000,
3,330999658,org.apache.lucene.index.TermsHashPerField$$$$$add,15487,1,0.007385,0.000000,0.125000,
3,330999666,org.apache.lucene.index.TermsHashPerField$$$$$add,15487,1,0.007325,0.000000,0.125000,
3,330999739,org.apache.lucene.index.TermsHashPerField$$$$$add,15487,1,0.007080,0.000000,0.125000,
3,330999943,org.apache.lucene.index.TermsHashPerField$$$$$add,15487,1,0.000000,0.000000,0.125000,
3,330999968,org.apache.lucene.index.TermsHashPerField$$$$$add,15487,1,0.000000,0.000000,0.125000,
3,331000330,org.apache.lucene.index.FreqProxTermsWriterPerField$$$$$addTerm,15487,71,0.000000,0.000000,0.125000,
4,331000913,org.apache.lucene.index.FreqProxTermsWriterPerField$$$$$addTerm,15487,71,0.007080,0.000000,0.125000,
4,331000949,org.apache.lucene.index.FreqProxTermsWriterPerField$$$$$addTerm,15487,71,0.000000,0.000000,0.125000,
4,331001006,org.apache.lucene.analysis.Token$$$$$getPositionIncrement,15487,72,0.000000,0.000000,0.125000,
4,331001075,org.apache.lucene.analysis.Token$$$$$getPositionIncrement,15487,72,0.007080,0.000000,0.125000,
4,331001116,org.apache.lucene.index.TermInfosWriter$$$$$writeTerm,15487,70,0.007324,0.000000,0.125000,
4,331001405,org.apache.lucene.analysis.Token$$$$$getPositionIncrement,15487,72,0.000000,0.000000,0.125000,
4,331001535,org.apache.lucene.analysis.Token$$$$$getPositionIncrement,15487,72,0.000000,0.000000,0.125000,
4,331001543,org.apache.lucene.analysis.Token$$$$$getPositionIncrement,15487,72,0.000000,0.000000,0.125000,
4,331001628,org.apache.lucene.index.TermInfo$$$$$set,15487,42,0.000000,0.000000,0.125000,
4,331001689,org.apache.lucene.index.SegmentTermDocs$$$$$seek,15491,69,0.000000,0.000000,0.125000,
4,331001737,org.apache.lucene.index.SegmentTermDocs$$$$$seek,15491,69,0.000000,0.000000,0.125000,
5,331002159,org.apache.lucene.analysis.Token$$$$$getPositionIncrement,15487,72,0.007324,0.000000,0.125000,
5,331002167,org.apache.lucene.analysis.Token$$$$$getPositionIncrement,15487,72,0.007080,0.000000,0.125000,
5,331002207,org.apache.lucene.analysis.Token$$$$$getPositionIncrement,15487,72,0.007324,0.000000,0.125000,
5,331002276,org.apache.lucene.analysis.Token$$$$$getPositionIncrement,15487,72,0.007324,0.000000,0.125000,
5,331002399,org.apache.lucene.analysis.Token$$$$$getPositionIncrement,15487,72,0.007325,0.000000,0.125000,
5,331002439,org.apache.lucene.analysis.Token$$$$$getPositionIncrement,15487,72,0.007324,0.000000,0.125000,
5,331002593,org.apache.lucene.analysis.Token$$$$$getPositionIncrement,15487,72,0.007080,0.000000,0.125000,
5,331002789,org.apache.lucene.analysis.Token$$$$$getPositionIncrement,15487,72,0.000000,0.000000,0.125000,
5,331002825,org.apache.lucene.analysis.Token$$$$$getPositionIncrement,15487,72,0.007325,0.000000,0.125000,
5,331002898,org.apache.lucene.index.MultiLevelSkipListWriter$$$$$bufferSkip,15487,48,0.007324,0.000000,0.125000,
5,331002906,org.apache.lucene.index.TermsHashPerField$$$$$quickSort,15487,27,0.007325,0.000000,0.125000,
6,331003287,org.apache.lucene.index.FieldInfos$$$$$fieldInfo,15487,84,0.125183,0.000000,1.125000,
6,331003295,org.apache.lucene.analysis.Token$$$$$getPositionIncrement,15487,72,0.000000,0.000000,0.125000,
6,331003444,org.apache.lucene.index.FreqProxTermsWriter$PostingList$$$$$<init>,15487,82,0.000000,0.000000,0.125000,
6,331003453,org.apache.lucene.index.FreqProxTermsWriter$PostingList$$$$$<init>,15487,82,0.000000,0.000000,0.125000,
6,331003492,org.apache.lucene.index.FreqProxTermsWriter$PostingList$$$$$<init>,15487,82,0.000000,0.000000,0.125000,
6,331003575,org.apache.lucene.index.TermInfosWriter$$$$$add,15487,99,0.007324,0.000000,0.125000,
6,331003624,org.apache.lucene.analysis.Token$$$$$growTermBuffer,15487,14,0.007080,0.000000,0.125000,
6,331003703,org.dacapo.luindex.Index$$$$$indexDocs,15487,61,0.000000,0.000000,0.125000,
6,331003711,org.apache.lucene.analysis.Token$$$$$growTermBuffer,15487,14,0.000000,0.000000,0.125000,
6,331003744,org.apache.lucene.analysis.TokenFilter$$$$$close,15487,95,0.000000,0.000000,0.125000,
6,331003753,org.apache.lucene.index.TermsHashPerField$$$$$start,15487,83,0.000000,0.000000,0.125000,
6,331003821,org.apache.lucene.analysis.TokenFilter$$$$$close,15487,95,0.000000,0.000000,0.125000,
6,331003830,org.apache.lucene.index.TermsHashPerField$$$$$start,15487,83,0.000000,0.000000,0.125000,
6,331003931,org.apache.lucene.search.DefaultSimilarity$$$$$lengthNorm,15487,101,0.000000,0.000000,0.125000,
6,331003974,org.apache.lucene.search.DefaultSimilarity$$$$$lengthNorm,15487,101,0.000000,0.000000,0.125000,
6,331004048,org.dacapo.luindex.Index$$$$$indexDocs,15487,61,0.000000,0.000000,0.125000,
6,331004106,org.apache.lucene.analysis.TokenFilter$$$$$close,15487,95,0.000000,0.000000,0.125000,
6,331004114,org.apache.lucene.analysis.TokenFilter$$$$$close,15487,95,0.000000,0.000000,0.125000,
6,331004123,org.apache.lucene.analysis.TokenFilter$$$$$close,15487,95,0.000000,0.000000,0.125000,
6,331004207,org.apache.lucene.util.UnicodeUtil$UTF16Result$$$$$setLength,15493,44,0.000000,0.000000,0.125000,
6,331004284,org.apache.lucene.store.RAMOutputStream$$$$$flush,15493,76,0.000000,0.000000,0.125000,
6,331004308,org.apache.lucene.util.PriorityQueue$$$$$downHeap,15493,93,0.000000,0.000000,0.125000,
7,331004563,org.apache.lucene.index.FreqProxTermsWriter$PostingList$$$$$<init>,15487,82,0.007324,0.000000,0.125000,
7,331004614,org.apache.lucene.index.FreqProxTermsWriter$PostingList$$$$$<init>,15487,82,0.000000,0.000000,0.125000,
7,331004645,org.apache.lucene.index.FreqProxTermsWriter$PostingList$$$$$<init>,15487,82,0.000000,0.000000,0.125000,
7,331004671,org.apache.lucene.index.FreqProxTermsWriter$PostingList$$$$$<init>,15487,82,0.000000,0.000000,0.125000,
7,331004688,org.apache.lucene.index.FreqProxTermsWriter$PostingList$$$$$<init>,15487,82,0.000000,0.000000,0.125000,
7,331004860,org.apache.lucene.analysis.TokenFilter$$$$$close,15487,95,0.007080,0.000000,0.125000,
7,331004872,org.apache.lucene.analysis.TokenFilter$$$$$close,15487,95,0.007080,0.000000,0.125000,
7,331004896,org.apache.lucene.index.TermsHashPerField$$$$$start,15487,83,0.007080,0.000000,0.125000,
7,331004920,org.apache.lucene.document.Field$$$$$stringValue,15487,86,0.007080,0.000000,0.125000,
7,331004932,org.apache.lucene.index.TermsHashPerField$$$$$start,15487,83,0.007080,0.000000,0.125000,
7,331004962,org.apache.lucene.document.AbstractField$$$$$isTokenized,15487,103,0.007141,0.000000,0.125000,
7,331005039,org.apache.lucene.analysis.Token$$$$$growTermBuffer,15487,14,0.007080,0.000000,0.125000,
7,331005063,org.apache.lucene.index.DocumentsWriter$$$$$finishDocument,15487,106,0.007080,0.000000,0.125000,
7,331005129,org.apache.lucene.analysis.TokenFilter$$$$$close,15487,95,0.007324,0.000000,0.125000,
7,331005172,org.apache.lucene.index.DocFieldConsumersPerThread$$$$$startDocument,15487,96,0.007324,0.000000,0.125000,
7,331005199,org.apache.lucene.index.ByteSliceReader$$$$$init,15487,73,0.043396,0.000000,0.125000,
8,331005615,org.apache.lucene.index.FreqProxTermsWriter$PostingList$$$$$<init>,15487,82,0.007324,0.000000,0.125000,
8,331005700,org.apache.lucene.index.FreqProxTermsWriter$PostingList$$$$$<init>,15487,82,0.007324,0.000000,0.125000,
8,331005721,org.apache.lucene.index.FreqProxTermsWriter$PostingList$$$$$<init>,15487,82,0.007324,0.000000,0.125000,
8,331005740,org.apache.lucene.index.FreqProxTermsWriter$PostingList$$$$$<init>,15487,82,0.007080,0.000000,0.125000,
8,331005783,org.apache.lucene.index.FreqProxTermsWriter$PostingList$$$$$<init>,15487,82,0.007324,0.000000,0.125000,
8,331005793,org.apache.lucene.analysis.TokenFilter$$$$$close,15487,95,0.028565,0.000000,0.125000,
8,331005857,org.apache.lucene.document.AbstractField$$$$$isTokenized,15487,103,0.007080,0.000000,0.125000,
8,331005881,org.apache.lucene.document.AbstractField$$$$$isTokenized,15487,103,0.007324,0.000000,0.125000,
8,331005905,org.apache.lucene.index.DocFieldConsumersPerThread$$$$$startDocument,15487,96,0.007324,0.000000,0.125000,
8,331005917,org.apache.lucene.analysis.TokenFilter$$$$$close,15487,95,0.007325,0.000000,0.125000,
8,331005935,org.apache.lucene.analysis.TokenFilter$$$$$close,15487,95,0.007325,0.000000,0.125000,
8,331006013,org.apache.lucene.analysis.TokenFilter$$$$$close,15487,95,0.007324,0.000000,0.125000,
8,331006102,org.apache.lucene.analysis.TokenFilter$$$$$close,15487,95,0.007324,0.000000,0.125000,
8,331006222,org.apache.lucene.store.BufferedIndexOutput$$$$$getFilePointer,15495,75,0.006775,0.000000,0.125000,
9,331006608,org.apache.lucene.index.FreqProxTermsWriter$PostingList$$$$$<init>,15487,82,0.007385,0.000000,0.125000,
9,331006617,org.apache.lucene.index.FreqProxTermsWriter$PostingList$$$$$<init>,15487,82,0.007080,0.000000,0.125000,
9,331006657,org.apache.lucene.index.FreqProxTermsWriter$PostingList$$$$$<init>,15487,82,0.000000,0.000000,0.125000,
9,331006665,org.apache.lucene.index.FreqProxTermsWriter$PostingList$$$$$<init>,15487,82,0.007324,0.000000,0.125000,
9,331006949,org.apache.lucene.index.DocFieldConsumersPerThread$$$$$startDocument,15487,96,0.007080,0.000000,0.125000,
9,331006961,org.apache.lucene.analysis.TokenFilter$$$$$close,15487,95,0.007324,0.000000,0.125000,
9,331007022,org.apache.lucene.analysis.TokenFilter$$$$$close,15487,95,0.007324,0.000000,0.125000,
9,331007083,org.apache.lucene.document.Field$$$$$stringValue,15487,86,0.007324,0.000000,0.125000,
9,331007120,org.apache.lucene.analysis.TokenFilter$$$$$close,15487,95,0.007324,0.000000,0.125000,
9,331007169,org.apache.lucene.document.Field$$$$$stringValue,15487,86,0.007324,0.000000,0.125000,
9,331007178,org.apache.lucene.store.RAMOutputStream$$$$$writeBytes,15487,102,0.007324,0.000000,0.125000,
9,331007280,org.apache.lucene.index.SegmentMergeInfo$$$$$getDocMap,15496,74,0.000000,0.000000,0.125000,
10,331007652,org.apache.lucene.index.FreqProxTermsWriter$PostingList$$$$$<init>,15487,82,0.007080,0.000000,0.125000,
10,331007663,org.apache.lucene.index.FreqProxTermsWriter$PostingList$$$$$<init>,15487,82,0.007080,0.000000,0.125000,
10,331007816,org.apache.lucene.index.FreqProxTermsWriter$PostingList$$$$$<init>,15487,82,0.000000,0.000000,0.125000,
10,331007903,org.apache.lucene.analysis.TokenFilter$$$$$close,15487,95,0.007080,0.000000,0.125000,
10,331008029,org.apache.lucene.analysis.standard.StandardTokenizerImpl$$$$$zzRefill,15487,110,0.000000,0.000000,0.125000,
10,331008110,org.apache.lucene.util.UnicodeUtil$$$$$UTF16toUTF8,15487,57,0.007080,0.000000,0.125000,
10,331008217,org.apache.lucene.document.Field$$$$$stringValue,15487,86,0.007324,0.000000,0.125000,
10,331008225,org.apache.lucene.analysis.standard.StandardTokenizerImpl$$$$$zzRefill,15487,110,0.007324,0.000000,0.125000,
10,331008233,org.apache.lucene.document.AbstractField$$$$$isTokenized,15487,103,0.007325,0.000000,0.125000,
10,331008240,org.apache.lucene.analysis.TokenFilter$$$$$close,15487,95,0.007081,0.000000,0.125000,
10,331008339,org.apache.lucene.index.SegmentTermDocs$$$$$seek,15497,91,0.007324,0.000000,0.125000,
10,331008393,org.apache.lucene.store.BufferedIndexInput$$$$$readBytes,15497,64,0.007324,0.000000,0.125000,
10,331008425,org.apache.lucene.store.BufferedIndexOutput$$$$$getFilePointer,15497,75,0.007325,0.000000,0.125000,
11,331008858,org.apache.lucene.index.FreqProxTermsWriter$PostingList$$$$$<init>,15487,82,0.007324,0.000000,0.125000,
11,331008919,org.apache.lucene.store.RAMOutputStream$$$$$writeBytes,15487,102,0.007324,0.000000,0.125000,
11,331009009,org.apache.lucene.analysis.standard.StandardTokenizerImpl$$$$$zzRefill,15487,110,0.007324,0.000000,0.125000,
11,331009026,org.apache.lucene.analysis.TokenFilter$$$$$close,15487,95,0.007324,0.000000,0.125000,
11,331009049,org.apache.lucene.document.Field$$$$$stringValue,15487,86,0.007324,0.000000,0.125000,
11,331009127,org.apache.lucene.analysis.TokenFilter$$$$$close,15487,95,0.007324,0.000000,0.125000,
11,331009156,org.apache.lucene.analysis.TokenFilter$$$$$close,15487,95,0.007080,0.000000,0.125000,
11,331009198,org.apache.lucene.analysis.Token$$$$$growTermBuffer,15487,14,0.007324,0.000000,0.125000,
11,331009210,org.apache.lucene.analysis.standard.StandardAnalyzer$$$$$reusableTokenStream,15487,109,0.007324,0.000000,0.125000,
11,331009322,org.apache.lucene.analysis.TokenFilter$$$$$close,15487,95,0.007263,0.000000,0.125000,
11,331009329,org.apache.lucene.index.FreqProxTermsWriterPerField$$$$$start,15487,115,0.000000,0.000000,0.125000,
12,331009762,org.apache.lucene.index.FreqProxTermsWriter$PostingList$$$$$<init>,15487,82,0.000000,0.000000,0.125000,
12,331009805,org.apache.lucene.index.FreqProxTermsWriterPerField$$$$$start,15487,115,0.000000,0.000000,0.125000,
12,331009837,org.apache.lucene.index.FreqProxTermsWriter$PostingList$$$$$<init>,15487,82,0.000000,0.000000,0.125000,
12,331009970,org.apache.lucene.index.FreqProxTermsWriterPerField$$$$$newTerm,15487,116,0.000000,0.000000,0.125000,
12,331010054,org.apache.lucene.document.AbstractField$$$$$isTokenized,15487,103,0.000000,0.000000,0.125000,
12,331010177,org.apache.lucene.document.AbstractField$$$$$isTokenized,15487,103,0.000000,0.000000,0.125000,
12,331010288,org.apache.lucene.demo.FileDocument$$$$$Document,15487,118,0.000000,0.000000,0.125000,
12,331010341,org.apache.lucene.search.DefaultSimilarity$$$$$lengthNorm,15487,101,0.000000,0.000000,0.125000,
12,331010634,org.apache.lucene.util.UnicodeUtil$UTF8Result$$$$$<init>,15487,117,0.014465,0.000000,1.375000,
13,331010732,org.apache.lucene.util.UnicodeUtil$UTF8Result$$$$$<init>,15487,117,0.207459,0.000000,1.250000,
13,331010807,org.apache.lucene.index.FreqProxTermsWriterPerField$$$$$newTerm,15487,116,0.000000,0.000000,0.125000,
13,331010938,org.apache.lucene.index.FreqProxTermsWriterPerField$$$$$newTerm,15487,116,0.000000,0.000000,0.125000,
13,331011275,org.apache.lucene.index.FreqProxTermsWriterPerField$$$$$newTerm,15487,116,0.000000,0.000000,0.125000,
13,331011291,org.apache.lucene.analysis.standard.StandardTokenizerImpl$$$$$zzRefill,15487,110,0.000000,0.000000,0.125000,
13,331011315,org.apache.lucene.index.FreqProxTermsWriterPerField$$$$$newTerm,15487,116,0.000000,0.000000,0.125000,
13,331011381,org.apache.lucene.store.BufferedIndexOutput$$$$$getFilePointer,15487,75,0.000000,0.000000,0.125000,
13,331011396,org.apache.lucene.util.PriorityQueue$$$$$downHeap,15501,93,0.000000,0.000000,0.125000,
13,331011404,org.apache.lucene.store.BufferedIndexOutput$$$$$getFilePointer,15501,75,0.000000,0.000000,0.125000,
13,331011445,org.apache.lucene.util.UnicodeUtil$UTF16Result$$$$$setLength,15501,44,0.000000,0.000000,0.125000,
13,331011486,org.apache.lucene.store.BufferedIndexOutput$$$$$writeBytes,15501,56,0.000000,0.000000,0.125000,
14,331011792,org.apache.lucene.index.FreqProxTermsWriterPerField$$$$$newTerm,15487,116,0.000000,0.000000,0.125000,
14,331011816,org.apache.lucene.index.FreqProxTermsWriterPerField$$$$$newTerm,15487,116,0.000000,0.000000,0.125000,
14,331011842,org.apache.lucene.index.FreqProxTermsWriterPerField$$$$$newTerm,15487,116,0.000000,0.000000,0.125000,
14,331011866,org.apache.lucene.index.FreqProxTermsWriterPerField$$$$$newTerm,15487,116,0.000000,0.000000,0.125000,
14,331011885,org.apache.lucene.index.FreqProxTermsWriterPerField$$$$$newTerm,15487,116,0.000000,0.000000,0.125000,
14,331011903,org.apache.lucene.index.FreqProxTermsWriterPerField$$$$$newTerm,15487,116,0.000000,0.000000,0.125000,
14,331011927,org.apache.lucene.index.FreqProxTermsWriterPerField$$$$$newTerm,15487,116,0.000000,0.000000,0.125000,
14,331011970,org.apache.lucene.index.FreqProxTermsWriterPerField$$$$$newTerm,15487,116,0.000000,0.000000,0.125000,
14,331011989,org.apache.lucene.index.FreqProxTermsWriterPerField$$$$$newTerm,15487,116,0.000000,0.000000,0.125000,
14,331012147,org.apache.lucene.search.DefaultSimilarity$$$$$lengthNorm,15487,101,0.000000,0.000000,0.125000,
14,331012220,org.apache.lucene.analysis.Token$$$$$growTermBuffer,15487,14,0.007080,0.000000,0.125000,
14,331012231,org.apache.lucene.search.DefaultSimilarity$$$$$lengthNorm,15487,101,0.007324,0.000000,0.125000,
14,331012260,org.apache.lucene.store.RAMOutputStream$$$$$writeTo,15487,123,0.007080,0.000000,0.125000,
14,331012276,org.apache.lucene.search.DefaultSimilarity$$$$$lengthNorm,15487,101,0.007324,0.000000,0.125000,
14,331012293,org.apache.lucene.document.AbstractField$$$$$isTokenized,15487,103,0.007080,0.000000,0.125000,
14,331012397,org.apache.lucene.document.AbstractField$$$$$isTokenized,15487,103,0.007080,0.000000,0.125000,
14,331012414,org.apache.lucene.search.DefaultSimilarity$$$$$lengthNorm,15487,101,0.007324,0.000000,0.125000,
14,331012441,org.apache.lucene.index.MultiLevelSkipListWriter$$$$$bufferSkip,15487,48,0.007324,0.000000,0.125000,
14,331012700,org.apache.lucene.util.UnicodeUtil$$$$$UTF16toUTF8,15487,57,0.000000,0.000000,1.750000,
14,331012477,org.apache.lucene.store.BufferedIndexInput$$$$$readBytes,15502,94,0.000000,0.000000,0.125000,
14,331012519,org.apache.lucene.util.PriorityQueue$$$$$downHeap,15502,93,0.000000,0.000000,0.125000,
14,331012576,org.apache.lucene.store.BufferedIndexInput$$$$$readBytes,15502,94,0.000000,0.000000,0.125000,
15,331012787,org.dacapo.parser.Config$$$$$preprocessArgs,15487,113,0.339783,0.000000,1.750000,
15,331012817,org.apache.lucene.util.UnicodeUtil$UTF8Result$$$$$<init>,15487,117,0.076416,0.000000,0.500000,
15,331012819,org.apache.lucene.index.FreqProxTermsWriter$PostingList$$$$$<init>,15487,82,0.007080,0.000000,0.125000,
15,331012938,org.apache.lucene.index.FreqProxTermsWriter$PostingList$$$$$<init>,15487,82,0.007324,0.000000,0.125000,
15,331013058,org.apache.lucene.document.AbstractField$$$$$<init>,15487,122,0.007325,0.000000,0.125000,
15,331013076,org.apache.lucene.search.DefaultSimilarity$$$$$lengthNorm,15487,101,0.007324,0.000000,0.125000,
15,331013100,org.apache.lucene.search.DefaultSimilarity$$$$$lengthNorm,15487,101,0.007325,0.000000,0.125000,
15,331013164,org.apache.lucene.index.DocFieldConsumersPerThread$$$$$startDocument,15487,96,0.007080,0.000000,0.125000,
15,331013193,org.apache.lucene.document.AbstractField$$$$$setStoreTermVector,15487,125,0.007324,0.000000,0.125000,
15,331013210,org.apache.lucene.search.DefaultSimilarity$$$$$lengthNorm,15487,101,0.007324,0.000000,0.125000,
15,331013287,org.apache.lucene.search.DefaultSimilarity$$$$$lengthNorm,15487,101,0.007325,0.000000,0.125000,
15,331013317,org.apache.lucene.search.DefaultSimilarity$$$$$lengthNorm,15487,101,0.007324,0.000000,0.125000,
15,331013357,org.apache.lucene.document.AbstractField$$$$$setStoreTermVector,15487,125,0.007202,0.000000,0.125000,
15,331013369,org.apache.lucene.search.DefaultSimilarity$$$$$lengthNorm,15487,101,0.007324,0.000000,0.125000,
15,331013469,org.apache.lucene.util.UnicodeUtil$$$$$UTF16toUTF8,15503,57,0.000000,0.000000,0.125000,
16,331013840,org.apache.lucene.index.FreqProxTermsWriter$PostingList$$$$$<init>,15487,82,0.007080,0.000000,0.125000,
16,331013911,org.apache.lucene.index.FreqProxTermsWriter$PostingList$$$$$<init>,15487,82,0.007080,0.000000,0.125000,
16,331014000,org.apache.lucene.index.FreqProxTermsWriter$PostingList$$$$$<init>,15487,82,0.007325,0.000000,0.125000,
16,331014092,org.apache.lucene.util.SmallFloat$$$$$floatToByte315,15487,121,0.007080,0.000000,0.125000,
16,331014125,org.apache.lucene.document.AbstractField$$$$$setStoreTermVector,15487,125,0.007324,0.000000,0.125000,
16,331014153,org.apache.lucene.document.AbstractField$$$$$<init>,15487,122,0.007324,0.000000,0.125000,
16,331014181,org.apache.lucene.analysis.standard.StandardTokenizerImpl$$$$$zzRefill,15487,110,0.007080,0.000000,0.125000,
16,331014209,org.apache.lucene.store.RAMOutputStream$$$$$writeTo,15487,123,0.007081,0.000000,0.125000,
16,331014262,org.apache.lucene.analysis.standard.StandardTokenizerImpl$$$$$zzRefill,15487,110,0.007325,0.000000,0.125000,
16,331014302,org.apache.lucene.index.FreqProxTermsWriterPerField$$$$$start,15487,115,0.007080,0.000000,0.125000,
16,331014331,org.apache.lucene.util.UnicodeUtil$$$$$UTF16toUTF8,15487,57,0.007080,0.000000,0.125000,
17,331014868,org.apache.lucene.index.FreqProxTermsWriter$PostingList$$$$$<init>,15487,82,0.000000,0.000000,0.125000,
17,331014877,org.apache.lucene.index.FreqProxTermsWriter$PostingList$$$$$<init>,15487,82,0.000000,0.000000,0.125000,
17,331014886,org.apache.lucene.index.FreqProxTermsWriter$PostingList$$$$$<init>,15487,82,0.000000,0.000000,0.125000,
17,331014947,org.apache.lucene.index.FreqProxTermsWriter$PostingList$$$$$<init>,15487,82,0.000000,0.000000,0.125000,
17,331014972,org.apache.lucene.index.FreqProxTermsWriter$PostingList$$$$$<init>,15487,82,0.000000,0.000000,0.125000,
17,331015040,org.apache.lucene.index.TermInfosWriter$$$$$add,15487,99,0.000000,0.000000,0.250000,
17,331015066,org.apache.lucene.analysis.standard.StandardTokenizerImpl$$$$$zzRefill,15487,110,0.000000,0.000000,0.125000,
17,331015080,org.apache.lucene.analysis.standard.StandardTokenizer$$$$$reset,15487,111,0.000000,0.000000,0.125000,
17,331015093,org.apache.lucene.analysis.TokenFilter$$$$$close,15487,95,0.000000,0.000000,0.125000,
17,331015113,org.apache.lucene.analysis.TokenFilter$$$$$close,15487,95,0.000000,0.000000,0.125000,
17,331015174,org.apache.lucene.document.AbstractField$$$$$isTokenized,15487,103,0.000000,0.000000,0.125000,
17,331015219,org.apache.lucene.analysis.TokenFilter$$$$$close,15487,95,0.000000,0.000000,0.125000,
17,331015322,org.apache.lucene.document.AbstractField$$$$$<init>,15487,122,0.000000,0.000000,0.125000,
17,331015338,org.apache.lucene.analysis.standard.StandardTokenizerImpl$$$$$zzRefill,15487,110,0.000000,0.000000,0.125000,
17,331015390,org.apache.lucene.analysis.TokenFilter$$$$$close,15487,95,0.016540,0.000000,0.125000,
17,331015624,org.apache.lucene.store.IndexOutput$$$$$writeInt,15487,129,0.074646,0.000000,2.125000,
17,331015736,org.apache.lucene.store.IndexOutput$$$$$writeInt,15487,129,0.051880,0.000000,1.375000,
17,331015779,org.apache.lucene.store.IndexOutput$$$$$writeInt,15487,129,0.014587,0.000000,0.375000,
18,331015834,org.dacapo.parser.Config$$$$$preprocessArgs,15487,113,0.147095,0.000000,0.875000,
18,331015865,org.apache.lucene.store.IndexOutput$$$$$writeInt,15487,129,0.000000,0.000000,0.375000,
18,331016098,org.apache.lucene.index.FreqProxTermsWriter$PostingList$$$$$<init>,15487,82,0.000000,0.000000,0.125000,
18,331016169,org.apache.lucene.util.CloseableThreadLocal$$$$$get,15487,124,0.000000,0.000000,0.125000,
18,331016259,org.apache.lucene.store.RAMOutputStream$$$$$writeBytes,15487,102,0.000000,0.000000,0.125000,
18,331016266,org.apache.lucene.document.DateTools$$$$$timeToString,15487,131,0.000000,0.000000,0.125000,
18,331016274,org.apache.lucene.store.RAMOutputStream$$$$$writeTo,15487,123,0.000000,0.000000,0.125000,
18,331016283,org.apache.lucene.analysis.TokenFilter$$$$$close,15487,95,0.000000,0.000000,0.125000,
18,331016451,org.apache.lucene.analysis.standard.StandardTokenizerImpl$$$$$zzRefill,15487,110,0.000000,0.000000,0.125000,
18,331016504,org.apache.lucene.util.UnicodeUtil$$$$$UTF16toUTF8,15487,49,0.000000,0.000000,0.125000,
18,331016512,org.apache.lucene.util.UnicodeUtil$$$$$UTF16toUTF8,15487,49,0.000000,0.000000,0.125000,
19,331017006,org.apache.lucene.index.FreqProxTermsWriter$PostingList$$$$$<init>,15487,82,0.000000,0.000000,0.125000,
19,331017086,org.apache.lucene.index.FreqProxTermsWriter$PostingList$$$$$<init>,15487,82,0.000000,0.000000,0.125000,
19,331017114,org.apache.lucene.index.FreqProxTermsWriter$PostingList$$$$$<init>,15487,82,0.000000,0.000000,0.125000,
19,331017128,org.apache.lucene.index.FreqProxTermsWriter$PostingList$$$$$<init>,15487,82,0.000000,0.000000,0.125000,
19,331017179,org.apache.lucene.index.TermInfosWriter$$$$$add,15487,99,0.000000,0.000000,0.125000,
19,331017225,org.apache.lucene.document.DateTools$$$$$timeToString,15487,131,0.000000,0.000000,0.125000,
19,331017283,org.apache.lucene.analysis.TokenFilter$$$$$close,15487,95,0.007080,0.000000,0.125000,
19,331017317,org.apache.lucene.analysis.TokenFilter$$$$$close,15487,95,0.007324,0.000000,0.125000,
19,331017329,org.apache.lucene.search.DefaultSimilarity$$$$$lengthNorm,15487,101,0.007324,0.000000,0.125000,
19,331017340,org.apache.lucene.analysis.standard.StandardAnalyzer$$$$$reusableTokenStream,15487,109,0.007325,0.000000,0.125000,
19,331017406,org.apache.lucene.analysis.TokenFilter$$$$$close,15487,95,0.007324,0.000000,0.125000,
19,331017435,org.apache.lucene.analysis.standard.StandardTokenizerImpl$$$$$zzRefill,15487,110,0.007324,0.000000,0.125000,
19,331017459,org.apache.lucene.analysis.TokenFilter$$$$$close,15487,95,0.007324,0.000000,0.125000,
19,331017631,org.apache.lucene.index.SegmentMergeInfo$$$$$getDocMap,15507,74,0.007324,0.000000,0.125000,
20,331018036,org.apache.lucene.index.FreqProxTermsWriter$PostingList$$$$$<init>,15487,82,0.007324,0.000000,0.125000,
20,331018043,org.apache.lucene.index.FreqProxTermsWriter$PostingList$$$$$<init>,15487,82,0.007080,0.000000,0.125000,
20,331018093,org.apache.lucene.index.FreqProxTermsWriter$PostingList$$$$$<init>,15487,82,0.007325,0.000000,0.125000,
20,331018101,org.apache.lucene.index.FreqProxTermsWriter$PostingList$$$$$<init>,15487,82,0.007141,0.000000,0.125000,
20,331018132,org.apache.lucene.index.FreqProxTermsWriter$PostingList$$$$$<init>,15487,82,0.007080,0.000000,0.125000,
20,331018143,org.apache.lucene.index.FreqProxTermsWriter$PostingList$$$$$<init>,15487,82,0.014405,0.000000,0.125000,
20,331018159,org.apache.lucene.index.FreqProxTermsWriter$PostingList$$$$$<init>,15487,82,0.007080,0.000000,0.125000,
20,331018211,org.apache.lucene.index.TermInfosWriter$$$$$add,15487,99,0.029297,0.000000,0.250000,
20,331018249,org.apache.lucene.analysis.TokenFilter$$$$$close,15487,95,0.007080,0.000000,0.125000,
20,331018272,org.apache.lucene.index.DocFieldConsumersPerThread$$$$$startDocument,15487,96,0.007080,0.000000,0.125000,
20,331018294,org.apache.lucene.analysis.TokenFilter$$$$$close,15487,95,0.007324,0.000000,0.125000,
20,331018339,org.apache.lucene.analysis.TokenFilter$$$$$close,15487,95,0.007080,0.000000,0.125000,
20,331018407,org.apache.lucene.index.FreqProxTermsWriterPerField$$$$$start,15487,115,0.007081,0.000000,0.125000,
20,331018532,org.apache.lucene.analysis.TokenFilter$$$$$close,15487,95,0.007324,0.000000,0.125000,
20,331018561,org.apache.lucene.store.RAMOutputStream$$$$$writeBytes,15487,102,0.007080,0.000000,0.125000,
20,331018900,org.apache.lucene.store.IndexOutput$$$$$writeInt,15487,129,0.023804,0.000000,1.250000,
20,331018942,org.apache.lucene.store.IndexOutput$$$$$writeInt,15487,129,0.007324,0.000000,0.500000,
20,331018682,org.apache.lucene.util.UnicodeUtil$$$$$UTF16toUTF8,15508,57,0.000000,0.000000,0.125000,
