./gnu/classpath/tools/getopt/Messages.java
./gnu/classpath/tools/getopt/FileArgumentCallback.java
./gnu/classpath/tools/getopt/OptionGroup.java
./gnu/classpath/tools/getopt/Parser.java
./gnu/classpath/tools/getopt/Option.java
./gnu/classpath/tools/getopt/OptionException.java
./gnu/classpath/tools/orbd/Messages.java
./gnu/classpath/tools/orbd/Main.java
./gnu/classpath/tools/orbd/PersistentContextMap.java
./gnu/classpath/tools/orbd/PersistentMap.java
./gnu/classpath/tools/orbd/PersistentContext.java
./gnu/classpath/tools/keytool/ListCmd.java
./gnu/classpath/tools/keytool/IdentityDBCmd.java
./gnu/classpath/tools/keytool/Messages.java
./gnu/classpath/tools/keytool/KeyCloneCmd.java
./gnu/classpath/tools/keytool/ExportCmd.java
./gnu/classpath/tools/keytool/GenKeyCmd.java
./gnu/classpath/tools/keytool/Main.java
./gnu/classpath/tools/keytool/CertReqCmd.java
./gnu/classpath/tools/keytool/Command.java
./gnu/classpath/tools/keytool/StorePasswdCmd.java
./gnu/classpath/tools/keytool/PrintCertCmd.java
./gnu/classpath/tools/keytool/KeyPasswdCmd.java
./gnu/classpath/tools/keytool/DeleteCmd.java
./gnu/classpath/tools/keytool/CACertCmd.java
./gnu/classpath/tools/keytool/ImportCmd.java
./gnu/classpath/tools/keytool/SelfCertCmd.java
./gnu/classpath/tools/java2xhtml/Java2xhtml.java
./gnu/classpath/tools/FileSystemClassLoader.java
./gnu/classpath/tools/serialver/Messages.java
./gnu/classpath/tools/serialver/SerialVer.java
./gnu/classpath/tools/StringToolkit.java
./gnu/classpath/tools/rmiregistry/Messages.java
./gnu/classpath/tools/rmiregistry/Main.java
./gnu/classpath/tools/rmiregistry/RegistryImpl_Skel.java
./gnu/classpath/tools/rmiregistry/PersistentHashTable.java
./gnu/classpath/tools/rmiregistry/RegistryImpl.java
./gnu/classpath/tools/rmiregistry/RegistryImpl_Stub.java
./gnu/classpath/tools/rmic/Messages.java
./gnu/classpath/tools/rmic/AbstractMethodGenerator.java
./gnu/classpath/tools/rmic/Main.java
./gnu/classpath/tools/rmic/ClassRmicCompiler.java
./gnu/classpath/tools/rmic/Variables.java
./gnu/classpath/tools/rmic/RMICException.java
./gnu/classpath/tools/rmic/WrapUnWrapper.java
./gnu/classpath/tools/rmic/Generator.java
./gnu/classpath/tools/rmic/RmiMethodGenerator.java
./gnu/classpath/tools/rmic/MethodGenerator.java
./gnu/classpath/tools/rmic/RmicBackend.java
./gnu/classpath/tools/rmic/GiopIo.java
./gnu/classpath/tools/rmic/CompilationError.java
./gnu/classpath/tools/rmic/SourceGiopRmicCompiler.java
./gnu/classpath/tools/rmic/SourceRmicCompiler.java
./gnu/classpath/tools/rmic/HashFinder.java
./gnu/classpath/tools/jarsigner/Messages.java
./gnu/classpath/tools/jarsigner/Main.java
./gnu/classpath/tools/jarsigner/SFHelper.java
./gnu/classpath/tools/jarsigner/JarVerifier.java
./gnu/classpath/tools/jarsigner/JarSigner.java
./gnu/classpath/tools/jarsigner/HashUtils.java
./gnu/classpath/tools/native2ascii/Messages.java
./gnu/classpath/tools/native2ascii/Native2ASCII.java
./gnu/classpath/tools/javah/Keywords.java
./gnu/classpath/tools/javah/Printer.java
./gnu/classpath/tools/javah/Main.java
./gnu/classpath/tools/javah/PathOptionGroup.java
./gnu/classpath/tools/javah/MethodHelper.java
./gnu/classpath/tools/javah/FieldHelper.java
./gnu/classpath/tools/javah/Text.java
./gnu/classpath/tools/javah/JniPrintStream.java
./gnu/classpath/tools/javah/GcjhMain.java
./gnu/classpath/tools/javah/CniIncludePrinter.java
./gnu/classpath/tools/javah/ClassWrapper.java
./gnu/classpath/tools/javah/JniIncludePrinter.java
./gnu/classpath/tools/javah/JniHelper.java
./gnu/classpath/tools/javah/CniStubPrinter.java
./gnu/classpath/tools/javah/PackageWrapper.java
./gnu/classpath/tools/javah/JniStubPrinter.java
./gnu/classpath/tools/javah/CniPrintStream.java
./gnu/classpath/tools/appletviewer/PluginAppletContext.java
./gnu/classpath/tools/appletviewer/Messages.java
./gnu/classpath/tools/appletviewer/Main.java
./gnu/classpath/tools/appletviewer/PluginAppletViewer.java
./gnu/classpath/tools/appletviewer/AppletSecurityManager.java
./gnu/classpath/tools/appletviewer/CommonAppletStub.java
./gnu/classpath/tools/appletviewer/StandaloneAppletContext.java
./gnu/classpath/tools/appletviewer/TagParser.java
./gnu/classpath/tools/appletviewer/StandaloneAppletWindow.java
./gnu/classpath/tools/appletviewer/AppletClassLoader.java
./gnu/classpath/tools/appletviewer/StandaloneAppletViewer.java
./gnu/classpath/tools/appletviewer/PluginAppletWindow.java
./gnu/classpath/tools/appletviewer/CommonAppletContext.java
./gnu/classpath/tools/appletviewer/ErrorApplet.java
./gnu/classpath/tools/appletviewer/AppletTag.java
./gnu/classpath/tools/MalformedInputListener.java
./gnu/classpath/tools/rmid/Messages.java
./gnu/classpath/tools/rmid/Main.java
./gnu/classpath/tools/rmid/PersistentBidiHashTable.java
./gnu/classpath/tools/rmid/ActivationSystemImpl.java
./gnu/classpath/tools/rmid/ActivationSystemImpl_Stub.java
./gnu/classpath/tools/IOToolkit.java
./gnu/classpath/tools/MalformedInputEvent.java
./gnu/classpath/tools/common/Persistent.java
./gnu/classpath/tools/common/Messages.java
./gnu/classpath/tools/common/ProviderUtil.java
./gnu/classpath/tools/common/CallbackUtil.java
./gnu/classpath/tools/common/ClasspathToolParser.java
./gnu/classpath/tools/common/SecurityProviderInfo.java
./gnu/classpath/tools/tnameserv/Messages.java
./gnu/classpath/tools/tnameserv/Main.java
./gnu/classpath/tools/NotifyingInputStreamReader.java
./gnu/classpath/tools/jar/Updater.java
./gnu/classpath/tools/jar/Messages.java
./gnu/classpath/tools/jar/Main.java
./gnu/classpath/tools/jar/Action.java
./gnu/classpath/tools/jar/Entry.java
./gnu/classpath/tools/jar/Extractor.java
./gnu/classpath/tools/jar/WorkSet.java
./gnu/classpath/tools/jar/Indexer.java
./gnu/classpath/tools/jar/Lister.java
./gnu/classpath/tools/jar/Creator.java
./com/sun/tools/javac/Messages.java
./com/sun/tools/javac/Main.java
./com/sun/tools/javah/Main.java
./sun/rmi/rmic/Messages.java
./sun/rmi/rmic/Main.java
./external/asm/org/objectweb/asm/MethodVisitor.java
./external/asm/org/objectweb/asm/Attribute.java
./external/asm/org/objectweb/asm/FieldVisitor.java
./external/asm/org/objectweb/asm/MethodWriter.java
./external/asm/org/objectweb/asm/xml/SAXAdapter.java
./external/asm/org/objectweb/asm/xml/SAXCodeAdapter.java
./external/asm/org/objectweb/asm/xml/SAXClassAdapter.java
./external/asm/org/objectweb/asm/xml/SAXFieldAdapter.java
./external/asm/org/objectweb/asm/xml/Processor.java
./external/asm/org/objectweb/asm/xml/SAXAnnotationAdapter.java
./external/asm/org/objectweb/asm/xml/ASMContentHandler.java
./external/asm/org/objectweb/asm/ByteVector.java
./external/asm/org/objectweb/asm/Item.java
./external/asm/org/objectweb/asm/attrs/StackMapAttribute.java
./external/asm/org/objectweb/asm/attrs/StackMapType.java
./external/asm/org/objectweb/asm/attrs/StackMapFrame.java
./external/asm/org/objectweb/asm/attrs/StackMapTableAttribute.java
./external/asm/org/objectweb/asm/FieldWriter.java
./external/asm/org/objectweb/asm/ClassWriter.java
./external/asm/org/objectweb/asm/optimizer/MethodOptimizer.java
./external/asm/org/objectweb/asm/optimizer/ConstantPool.java
./external/asm/org/objectweb/asm/optimizer/JarOptimizer.java
./external/asm/org/objectweb/asm/optimizer/NameMapping.java
./external/asm/org/objectweb/asm/optimizer/ClassOptimizer.java
./external/asm/org/objectweb/asm/optimizer/Constant.java
./external/asm/org/objectweb/asm/optimizer/ClassConstantsCollector.java
./external/asm/org/objectweb/asm/optimizer/MethodConstantsCollector.java
./external/asm/org/objectweb/asm/optimizer/Shrinker.java
./external/asm/org/objectweb/asm/optimizer/FieldConstantsCollector.java
./external/asm/org/objectweb/asm/optimizer/AnnotationConstantsCollector.java
./external/asm/org/objectweb/asm/AnnotationVisitor.java
./external/asm/org/objectweb/asm/AnnotationWriter.java
./external/asm/org/objectweb/asm/commons/GeneratorAdapter.java
./external/asm/org/objectweb/asm/commons/LocalVariablesSorter.java
./external/asm/org/objectweb/asm/commons/Method.java
./external/asm/org/objectweb/asm/commons/TableSwitchGenerator.java
./external/asm/org/objectweb/asm/commons/SerialVersionUIDAdder.java
./external/asm/org/objectweb/asm/commons/StaticInitMerger.java
./external/asm/org/objectweb/asm/commons/AdviceAdapter.java
./external/asm/org/objectweb/asm/commons/EmptyVisitor.java
./external/asm/org/objectweb/asm/util/TraceClassVisitor.java
./external/asm/org/objectweb/asm/util/ASMifierAbstractVisitor.java
./external/asm/org/objectweb/asm/util/AbstractVisitor.java
./external/asm/org/objectweb/asm/util/CheckMethodAdapter.java
./external/asm/org/objectweb/asm/util/CheckAnnotationAdapter.java
./external/asm/org/objectweb/asm/util/attrs/ASMStackMapTableAttribute.java
./external/asm/org/objectweb/asm/util/attrs/Traceable.java
./external/asm/org/objectweb/asm/util/attrs/ASMifiable.java
./external/asm/org/objectweb/asm/util/attrs/ASMStackMapAttribute.java
./external/asm/org/objectweb/asm/util/ASMifierAnnotationVisitor.java
./external/asm/org/objectweb/asm/util/TraceMethodVisitor.java
./external/asm/org/objectweb/asm/util/TraceAnnotationVisitor.java
./external/asm/org/objectweb/asm/util/CheckClassAdapter.java
./external/asm/org/objectweb/asm/util/ASMifierClassVisitor.java
./external/asm/org/objectweb/asm/util/ASMifierFieldVisitor.java
./external/asm/org/objectweb/asm/util/TraceAbstractVisitor.java
./external/asm/org/objectweb/asm/util/TraceFieldVisitor.java
./external/asm/org/objectweb/asm/util/TraceSignatureVisitor.java
./external/asm/org/objectweb/asm/util/CheckFieldAdapter.java
./external/asm/org/objectweb/asm/util/ASMifierMethodVisitor.java
./external/asm/org/objectweb/asm/ClassAdapter.java
./external/asm/org/objectweb/asm/Label.java
./external/asm/org/objectweb/asm/tree/MemberNode.java
./external/asm/org/objectweb/asm/tree/AnnotationNode.java
./external/asm/org/objectweb/asm/tree/InnerClassNode.java
./external/asm/org/objectweb/asm/tree/ClassNode.java
./external/asm/org/objectweb/asm/tree/IntInsnNode.java
./external/asm/org/objectweb/asm/tree/LookupSwitchInsnNode.java
./external/asm/org/objectweb/asm/tree/LocalVariableNode.java
./external/asm/org/objectweb/asm/tree/MethodInsnNode.java
./external/asm/org/objectweb/asm/tree/LineNumberNode.java
./external/asm/org/objectweb/asm/tree/FieldNode.java
./external/asm/org/objectweb/asm/tree/VarInsnNode.java
./external/asm/org/objectweb/asm/tree/InsnNode.java
./external/asm/org/objectweb/asm/tree/LdcInsnNode.java
./external/asm/org/objectweb/asm/tree/TypeInsnNode.java
./external/asm/org/objectweb/asm/tree/IincInsnNode.java
./external/asm/org/objectweb/asm/tree/JumpInsnNode.java
./external/asm/org/objectweb/asm/tree/LabelNode.java
./external/asm/org/objectweb/asm/tree/MethodNode.java
./external/asm/org/objectweb/asm/tree/analysis/Interpreter.java
./external/asm/org/objectweb/asm/tree/analysis/DataflowInterpreter.java
./external/asm/org/objectweb/asm/tree/analysis/Subroutine.java
./external/asm/org/objectweb/asm/tree/analysis/BasicVerifier.java
./external/asm/org/objectweb/asm/tree/analysis/Value.java
./external/asm/org/objectweb/asm/tree/analysis/BasicInterpreter.java
./external/asm/org/objectweb/asm/tree/analysis/Analyzer.java
./external/asm/org/objectweb/asm/tree/analysis/IntMap.java
./external/asm/org/objectweb/asm/tree/analysis/DataflowValue.java
./external/asm/org/objectweb/asm/tree/analysis/BasicValue.java
./external/asm/org/objectweb/asm/tree/analysis/AnalyzerException.java
./external/asm/org/objectweb/asm/tree/analysis/SmallSet.java
./external/asm/org/objectweb/asm/tree/analysis/SimpleVerifier.java
./external/asm/org/objectweb/asm/tree/analysis/Frame.java
./external/asm/org/objectweb/asm/tree/TableSwitchInsnNode.java
./external/asm/org/objectweb/asm/tree/AbstractInsnNode.java
./external/asm/org/objectweb/asm/tree/FieldInsnNode.java
./external/asm/org/objectweb/asm/tree/MultiANewArrayInsnNode.java
./external/asm/org/objectweb/asm/tree/TryCatchBlockNode.java
./external/asm/org/objectweb/asm/MethodAdapter.java
./external/asm/org/objectweb/asm/Type.java
./external/asm/org/objectweb/asm/ClassVisitor.java
./external/asm/org/objectweb/asm/Handler.java
./external/asm/org/objectweb/asm/signature/SignatureVisitor.java
./external/asm/org/objectweb/asm/signature/SignatureWriter.java
./external/asm/org/objectweb/asm/signature/SignatureReader.java
./external/asm/org/objectweb/asm/ClassReader.java
./external/asm/org/objectweb/asm/Edge.java
./external/asm/org/objectweb/asm/Opcodes.java
