1,322004876,org.apache.fop.layout.FontState$$$$$mapChar,27142,2,0.000000,0.000000,0.018921,
1,322004877,org.apache.fop.layout.FontState$$$$$mapChar,27142,2,0.006836,0.000000,0.018738,
1,322004878,org.apache.fop.layout.FontState$$$$$mapChar,27142,2,0.003418,0.000000,0.019409,
1,322004879,org.apache.fop.layout.FontState$$$$$mapChar,27142,2,0.000000,0.000000,0.017395,
1,322004880,org.apache.fop.layout.FontState$$$$$mapChar,27142,2,0.000000,0.000000,0.018982,
1,322004881,org.apache.fop.layout.FontState$$$$$mapChar,27142,2,0.000000,0.000000,0.017212,
1,322004882,org.apache.fop.layout.FontState$$$$$mapChar,27142,2,0.000000,0.000000,0.019653,
1,322004883,org.apache.fop.layout.FontState$$$$$mapChar,27142,2,0.000000,0.000000,0.019837,
1,322004884,org.apache.fop.layout.FontState$$$$$mapChar,27142,2,0.000000,0.000000,0.017090,
1,322004885,org.apache.fop.layout.FontState$$$$$mapChar,27142,2,0.000000,0.000000,0.018676,
1,322004886,org.apache.fop.layout.FontState$$$$$mapChar,27142,2,0.000000,0.000000,0.018372,
1,322004887,org.apache.fop.layout.FontState$$$$$mapChar,27142,2,0.000000,0.000000,0.018066,
1,322004903,org.apache.fop.fo.PropertyListBuilder$$$$$getShorthand,27142,9,0.000000,0.000000,0.017151,
1,322004919,org.apache.fop.fo.PropertyListBuilder$$$$$findMaker,27142,4,0.000000,0.000000,0.015320,
1,322004948,org.apache.fop.layout.FontState$$$$$mapChar,27142,2,0.000000,0.000000,0.012879,
1,322004949,org.apache.fop.layout.FontState$$$$$mapChar,27142,2,0.000000,0.000000,0.013671,
1,322004950,org.apache.fop.layout.FontState$$$$$mapChar,27142,2,0.000000,0.000000,0.014893,
1,322004951,org.apache.fop.layout.FontState$$$$$mapChar,27142,2,0.000000,0.000000,0.013306,
1,322004954,org.apache.fop.layout.FontState$$$$$mapChar,27142,2,0.000000,0.000000,0.026733,
1,322004969,org.apache.fop.layout.FontState$$$$$mapChar,27142,2,0.000000,0.000000,0.013122,
1,322004970,org.apache.fop.layout.FontState$$$$$mapChar,27142,2,0.000000,0.000000,0.014161,
1,322005005,org.apache.fop.fo.PropertyListBuilder$$$$$findMaker,27142,0,0.000000,0.000000,0.012940,
1,322005043,org.apache.fop.fo.PropertyListBuilder$$$$$isCorrespondingForced,27142,1,0.000000,0.000000,0.013488,
1,322005084,org.apache.fop.fo.Property$Maker$$$$$compute,27142,7,0.000000,0.000000,0.014832,
1,322005100,org.apache.fop.layout.FontState$$$$$mapChar,27142,2,0.000000,0.000000,0.016724,
1,322005125,org.apache.fop.fo.PropertyListBuilder$$$$$findMaker,27142,4,0.000000,0.000000,0.018677,
1,322005145,org.apache.fop.fo.PropertyListBuilder$$$$$findMaker,27142,0,0.000000,0.000000,0.016480,
1,322005170,org.apache.fop.fo.Property$Maker$$$$$compute,27142,7,0.000000,0.000000,0.017028,
1,322005191,org.apache.fop.layout.FontState$$$$$mapChar,27142,2,0.000000,0.000000,0.016662,
1,322005231,org.apache.fop.fo.PropertyListBuilder$$$$$getShorthand,27142,9,0.000000,0.000000,0.016357,
1,322005244,org.apache.fop.layout.FontState$$$$$mapChar,27142,2,0.000000,0.000000,0.016174,
1,322005245,org.apache.fop.layout.FontState$$$$$mapChar,27142,2,0.000000,0.000000,0.016114,
1,322005297,org.apache.fop.fo.PropertyListBuilder$$$$$findMaker,27142,0,0.000000,0.000000,0.015686,
1,322005321,org.apache.fop.fo.PropertyListBuilder$$$$$findMaker,27142,0,0.000000,0.000000,0.014832,
1,322005342,org.apache.fop.layout.FontState$$$$$mapChar,27142,2,0.000000,0.000000,0.017029,
1,322005343,org.apache.fop.layout.FontState$$$$$mapChar,27142,2,0.000000,0.000000,0.017395,
1,322005359,org.apache.fop.layout.FontState$$$$$mapChar,27142,2,0.000000,0.000000,0.014893,
1,322005392,org.apache.fop.fo.PropertyListBuilder$$$$$findMaker,27142,0,0.000000,0.000000,0.016784,
1,322005453,org.apache.fop.fo.PropertyListBuilder$$$$$getShorthand,27142,9,0.000000,0.000000,0.017395,
1,322005482,org.apache.fop.fo.PropertyListBuilder$$$$$getShorthand,27142,9,0.000000,0.000000,0.015931,
1,322005580,org.apache.fop.layout.FontState$$$$$mapChar,27142,2,0.000000,0.000000,0.013916,
1,322005581,org.apache.fop.layout.FontState$$$$$mapChar,27142,2,0.000000,0.000000,0.016602,
1,322005617,org.apache.fop.fo.PropertyListBuilder$$$$$findMaker,27142,4,0.000000,0.000000,0.016357,
1,322005629,org.apache.fop.layout.FontState$$$$$mapChar,27142,2,0.000000,0.000000,0.014587,
1,322005654,org.apache.fop.fo.PropertyListBuilder$$$$$findMaker,27142,4,0.000000,0.000000,0.015869,
1,322005720,org.apache.fop.layout.FontState$$$$$mapChar,27142,2,0.000000,0.000000,0.015686,
1,322005721,org.apache.fop.layout.FontState$$$$$mapChar,27142,2,0.000000,0.000000,0.013001,
1,322005722,org.apache.fop.layout.FontState$$$$$mapChar,27142,2,0.000000,0.000000,0.014343,
1,322005723,org.apache.fop.layout.FontState$$$$$mapChar,27142,2,0.000000,0.000000,0.014343,
1,322005732,org.apache.fop.fo.PropertyListBuilder$$$$$findMaker,27142,4,0.000000,0.000000,0.013855,
2,322005803,org.apache.xerces.impl.XMLEntityScanner$$$$$scanChar,27142,12,0.010620,0.000000,0.466308,
2,322005842,org.apache.fop.fo.PropertyListBuilder$$$$$findMaker,27142,4,0.000000,0.000000,0.018188,
2,322005874,org.apache.fop.fo.PropertyList$$$$$findProperty,27142,13,0.000000,0.000000,0.020263,
2,322005882,org.apache.fop.fo.PropertyListBuilder$$$$$findMaker,27142,4,0.000000,0.000000,0.019776,
2,322005890,org.apache.fop.fo.Property$Maker$$$$$make,27142,25,0.006958,0.000000,0.018127,
2,322005914,org.apache.fop.fo.Property$Maker$$$$$make,27142,25,0.000000,0.000000,0.016845,
2,322005963,org.apache.fop.fo.Property$Maker$$$$$make,27142,25,0.000000,0.000000,0.018433,
2,322005971,org.apache.fop.fo.FObj$$$$$generatesReferenceAreas,27142,3,0.000000,0.000000,0.018981,
2,322005980,org.apache.fop.render.ps.PSStream$$$$$write,27142,17,0.007324,0.000000,0.019470,
2,322006081,org.apache.fop.fo.PropertyListBuilder$$$$$findMaker,27142,4,0.007324,0.000000,0.022766,
2,322006166,org.apache.fop.fo.PropertyListBuilder$$$$$getShorthand,27142,9,0.007080,0.000000,0.022400,
2,322006190,org.apache.fop.fo.PropertyListBuilder$$$$$findMaker,27142,4,0.007324,0.000000,0.020996,
2,322006247,org.apache.fop.fo.PropertyListBuilder$$$$$makeProperty,27142,21,0.007324,0.000000,0.021667,
2,322006275,org.apache.fop.layout.FontState$$$$$mapChar,27142,2,0.007324,0.000000,0.020569,
2,322006276,org.apache.fop.layout.FontState$$$$$mapChar,27142,2,0.007080,0.000000,0.022155,
2,322006371,org.apache.fop.layout.FontState$$$$$mapChar,27142,2,0.007263,0.000000,0.018005,
2,322006372,org.apache.fop.layout.FontState$$$$$mapChar,27142,2,0.007202,0.000000,0.021424,
2,322006394,org.apache.fop.fo.PropertyManager$$$$$formatPadding,27142,5,0.007080,0.000000,0.023498,
2,322006410,org.apache.fop.fo.PropertyList$$$$$getParentFObj,27142,16,0.007324,0.000000,0.020936,
2,322006439,org.apache.fop.fo.PropertyListBuilder$$$$$findMaker,27142,4,0.007324,0.000000,0.021484,
2,322006452,org.apache.fop.render.ps.PSRenderer$$$$$movetoCurrPosition,27142,18,0.007324,0.000000,0.020020,
2,322006459,org.apache.fop.render.ps.PSRenderer$$$$$movetoCurrPosition,27142,18,0.007325,0.000000,0.021118,
2,322006460,org.apache.fop.layout.FontState$$$$$mapChar,27142,2,0.007080,0.000000,0.022827,
2,322006541,org.apache.fop.fo.PropertyListBuilder$$$$$findMaker,27142,0,0.007324,0.000000,0.022278,
2,322006594,org.apache.fop.layout.FontState$$$$$mapChar,27142,2,0.007324,0.000000,0.021789,
2,322006595,org.apache.fop.layout.FontState$$$$$mapChar,27142,2,0.007324,0.000000,0.020874,
2,322006656,org.apache.fop.fo.PropertyList$$$$$findProperty,27142,13,0.007324,0.000000,0.021850,
2,322006734,org.apache.fop.fo.PropertyListBuilder$$$$$findMaker,27142,0,0.000000,0.000000,0.023438,
2,322006755,org.apache.fop.layout.FontState$$$$$mapChar,27142,2,0.007080,0.000000,0.023194,
2,322006791,org.apache.fop.fo.PropertyManager$$$$$formatPadding,27142,5,0.000000,0.000000,0.021728,
2,322006824,org.apache.fop.fo.PropertyListBuilder$$$$$findMaker,27142,0,0.007324,0.000000,0.021790,
2,322006893,org.apache.fop.fo.PropertyListBuilder$$$$$findMaker,27142,4,0.007324,0.000000,0.021911,
2,322006988,org.apache.fop.fo.PropertyListBuilder$$$$$getShorthand,27142,9,0.000000,0.000000,0.021729,
3,322007021,org.apache.fop.fo.PropertyListBuilder$$$$$findMaker,27142,4,0.007324,0.000000,0.021545,
3,322007037,org.apache.fop.fo.PropertyListBuilder$$$$$findMaker,27142,0,0.007324,0.000000,0.021790,
3,322007131,org.apache.xerces.impl.XMLEntityScanner$$$$$scanChar,27142,12,0.007325,0.000000,0.021667,
3,322007147,org.apache.fop.fo.PropertyListBuilder$$$$$isCorrespondingForced,27142,1,0.007325,0.000000,0.022216,
3,322007212,org.apache.fop.fo.PropertyListBuilder$$$$$findMaker,27142,4,0.007325,0.000000,0.020080,
3,322007225,org.apache.fop.render.ps.PSRenderer$$$$$useColor,27142,37,0.007324,0.000000,0.019470,
3,322007265,org.apache.fop.fo.PropertyListBuilder$$$$$computeProperty,27142,39,0.007325,0.000000,0.019958,
3,322007380,org.apache.fop.fo.PropertyListBuilder$$$$$isInherited,27142,27,0.007324,0.000000,0.022095,
3,322007425,org.apache.fop.layout.BorderAndPadding$$$$$getPadding,27142,15,0.007324,0.000000,0.021606,
3,322007478,org.apache.fop.layout.FontState$$$$$mapChar,27142,2,0.007325,0.000000,0.019836,
3,322007479,org.apache.fop.render.ps.PSStream$$$$$write,27142,17,0.007080,0.000000,0.022034,
3,322007499,org.apache.fop.layout.FontState$$$$$mapChar,27142,2,0.007080,0.000000,0.022766,
3,322007523,org.apache.fop.layout.FontState$$$$$mapChar,27142,2,0.000000,0.000000,0.018432,
3,322007652,org.apache.fop.layout.FontState$$$$$mapChar,27142,2,0.016174,0.000000,0.020325,
3,322007744,org.apache.fop.layout.FontState$$$$$mapChar,27142,2,0.007324,0.000000,0.020080,
3,322007752,org.apache.fop.fo.PropertyListBuilder$$$$$getShorthand,27142,9,0.007324,0.000000,0.020813,
3,322007789,org.apache.fop.render.pdf.fonts.TimesRoman$$$$$mapChar,27142,44,0.007080,0.000000,0.021607,
3,322007813,org.apache.fop.fo.PropertyListBuilder$$$$$findMaker,27142,4,0.007141,0.000000,0.022217,
3,322007953,org.apache.fop.fo.PropertyListBuilder$$$$$findMaker,27142,4,0.000000,0.000000,0.023193,
3,322008006,org.apache.fop.fo.PropertyListBuilder$$$$$findMaker,27142,0,0.007324,0.000000,0.018860,
3,322008031,org.apache.fop.render.ps.PSStream$$$$$write,27142,17,0.007325,0.000000,0.019836,
3,322008047,org.apache.fop.fo.Property$Maker$$$$$compute,27142,7,0.000000,0.000000,0.020081,
3,322008055,org.apache.fop.fo.PropertyListBuilder$$$$$findMaker,27142,0,0.007324,0.000000,0.020385,
3,322008067,org.apache.fop.fo.PropertyList$$$$$getExplicitBaseProp,27142,45,0.007324,0.000000,0.019715,
3,322008092,org.apache.fop.fo.PropertyListBuilder$$$$$findMaker,27142,4,0.007324,0.000000,0.020264,
3,322008104,org.apache.fop.fo.PropertyListBuilder$$$$$computeProperty,27142,39,0.007324,0.000000,0.019104,
3,322008129,org.apache.fop.render.ps.PSStream$$$$$write,27142,17,0.012085,0.000000,0.021240,
4,322008198,org.apache.fop.fo.PropertyListBuilder$$$$$getShorthand,27142,9,0.007080,0.000000,0.020996,
4,322008248,org.apache.fop.fo.PropertyListBuilder$$$$$findMaker,27142,4,0.000000,0.000000,0.022156,
4,322008530,org.apache.fop.fo.PropertyListBuilder$$$$$isCorrespondingForced,27142,1,0.007080,0.000000,0.021972,
4,322008559,org.apache.fop.layout.FontState$$$$$getCharWidth,27142,36,0.007080,0.000000,0.022644,
4,322008605,org.apache.fop.layout.FontState$$$$$mapChar,27142,2,0.007324,0.000000,0.020691,
4,322008634,org.apache.fop.render.ps.PSStream$$$$$write,27142,17,0.007324,0.000000,0.019837,
4,322008695,org.apache.fop.fo.PropertyListBuilder$$$$$findMaker,27142,4,0.007324,0.000000,0.021423,
4,322008703,org.apache.fop.fo.PropertyListBuilder$$$$$getShorthand,27142,9,0.007324,0.000000,0.021362,
4,322008744,org.apache.fop.render.pdf.fonts.TimesRoman$$$$$mapChar,27142,44,0.000000,0.000000,0.021973,
4,322008756,org.apache.fop.layout.FontState$$$$$getCharWidth,27142,36,0.007080,0.000000,0.023194,
4,322008875,org.apache.fop.fo.PropertyListBuilder$$$$$findMaker,27142,4,0.007325,0.000000,0.022217,
4,322008883,org.apache.fop.fo.PropertyList$$$$$getExplicitBaseProp,27142,45,0.007324,0.000000,0.021851,
4,322008897,org.apache.fop.render.pdf.fonts.TimesRoman$$$$$mapChar,27142,44,0.007080,0.000000,0.022339,
4,322008933,org.apache.fop.fo.PropertyListBuilder$$$$$findMaker,27142,0,0.007324,0.000000,0.020691,
4,322008962,org.apache.fop.fo.PropertyListBuilder$$$$$findMaker,27142,0,0.007324,0.000000,0.022399,
4,322008970,org.apache.fop.fo.PropertyListBuilder$$$$$findMaker,27142,4,0.000000,0.000000,0.023621,
4,322009007,org.apache.fop.render.pdf.fonts.TimesRoman$$$$$mapChar,27142,44,0.007325,0.000000,0.020691,
4,322009093,org.apache.fop.fo.PropertyListBuilder$$$$$findMaker,27142,0,0.007142,0.000000,0.022522,
4,322009138,org.apache.fop.fo.PropertyListBuilder$$$$$findMaker,27142,4,0.007324,0.000000,0.020935,
4,322009146,org.apache.fop.fo.PropertyListBuilder$$$$$findMaker,27142,4,0.000000,0.000000,0.023498,
4,322009179,org.apache.fop.layout.FontState$$$$$mapChar,27142,2,0.007080,0.000000,0.024109,
4,322009262,org.apache.fop.layout.FontState$$$$$mapChar,27142,2,0.007324,0.000000,0.021057,
4,322009286,org.apache.fop.fo.PropertyListBuilder$$$$$computeProperty,27142,39,0.007080,0.000000,0.022706,
4,322009323,org.apache.fop.render.ps.PSStream$$$$$write,27142,17,0.007080,0.000000,0.025085,
5,322009386,org.apache.fop.fo.PropertyListBuilder$$$$$getShorthand,27142,9,0.007324,0.000000,0.017090,
5,322009396,org.apache.fop.fo.PropertyListBuilder$$$$$isInherited,27142,27,0.007080,0.000000,0.019043,
5,322009404,org.apache.fop.fo.PropertyListBuilder$$$$$findMaker,27142,4,0.007080,0.000000,0.019104,
5,322009429,org.apache.fop.fo.PropertyListBuilder$$$$$isInherited,27142,27,0.000000,0.000000,0.019348,
5,322009453,org.apache.fop.fo.PropertyList$$$$$findProperty,27142,13,0.007080,0.000000,0.019470,
5,322009478,org.apache.fop.fo.PropertyListBuilder$$$$$findMaker,27142,4,0.007324,0.000000,0.018249,
5,322009486,org.apache.fop.fo.PropertyListBuilder$$$$$findMaker,27142,4,0.000000,0.000000,0.019165,
5,322009494,org.apache.fop.fo.PropertyListBuilder$$$$$findMaker,27142,0,0.007202,0.000000,0.017883,
5,322009545,org.apache.fop.render.ps.PSStream$$$$$write,27142,17,0.007324,0.000000,0.018250,
5,322009581,org.apache.fop.fo.PropertyListBuilder$$$$$findMaker,27142,0,0.007080,0.000000,0.021118,
5,322009589,org.apache.fop.fo.PropertyList$$$$$getExplicit,27142,62,0.007325,0.000000,0.019226,
5,322009687,org.apache.fop.fo.PropertyListBuilder$$$$$findMaker,27142,4,0.000000,0.000000,0.018188,
5,322009708,org.apache.fop.layout.FontState$$$$$mapChar,27142,2,0.007324,0.000000,0.018433,
5,322009732,org.apache.fop.fo.PropertyList$$$$$getParentFObj,27142,16,0.007324,0.000000,0.019593,
5,322009745,org.apache.fop.layout.FontState$$$$$mapChar,27142,2,0.007325,0.000000,0.019348,
5,322009761,org.apache.fop.layout.FontState$$$$$getCharWidth,27142,36,0.007080,0.000000,0.019348,
5,322009794,org.apache.fop.render.pdf.fonts.TimesRoman$$$$$mapChar,27142,44,0.007325,0.000000,0.018921,
5,322009814,org.apache.fop.fo.PropertyListBuilder$$$$$isCorrespondingForced,27142,1,0.007080,0.000000,0.021118,
5,322009855,org.apache.fop.layout.FontState$$$$$mapChar,27142,2,0.007080,0.000000,0.019897,
5,322009901,org.apache.fop.fo.PropertyListBuilder$$$$$findMaker,27142,4,0.007324,0.000000,0.018982,
5,322010060,org.apache.fop.fo.PropertyListBuilder$$$$$findMaker,27142,4,0.007324,0.000000,0.018981,
5,322010085,org.apache.fop.fo.PropertyListBuilder$$$$$findMaker,27142,4,0.007080,0.000000,0.018554,
5,322010237,org.apache.fop.fo.PropertyListBuilder$$$$$computeProperty,27142,39,0.007324,0.000000,0.021789,
5,322010306,org.apache.fop.fo.PropertyList$$$$$get,27142,51,0.015991,0.000000,0.020874,
5,322010384,org.apache.fop.render.ps.PSStream$$$$$write,27142,17,0.007080,0.000000,0.024475,
5,322010385,org.apache.fop.render.ps.PSStream$$$$$write,27142,17,0.007324,0.000000,0.024597,
5,322010487,org.apache.fop.render.ps.PSRenderer$$$$$useColor,27142,37,0.007325,0.000000,0.022583,
5,322010523,org.apache.fop.fo.PropertyList$$$$$get,27142,51,0.007080,0.000000,0.021484,
6,322010682,org.apache.fop.layout.FontInfo$$$$$createFontKey,27142,66,0.000000,0.000000,0.015503,
6,322010683,org.apache.fop.render.ps.PSStream$$$$$write,27142,17,0.000000,0.000000,0.014892,
6,322010684,org.apache.fop.render.ps.PSStream$$$$$write,27142,17,0.000000,0.000000,0.015503,
6,322010685,org.apache.fop.render.ps.PSStream$$$$$write,27142,17,0.000000,0.000000,0.017029,
6,322010686,org.apache.fop.render.ps.PSStream$$$$$write,27142,17,0.000000,0.000000,0.017090,
6,322010698,org.apache.xerces.util.SymbolTable$$$$$addSymbol,27142,26,0.000000,0.000000,0.016724,
6,322010715,org.apache.fop.fo.PropertyList$$$$$wmRelToAbs,27142,19,0.007324,0.000000,0.019776,
6,322010731,org.apache.fop.fo.PropertyManager$$$$$formatPadding,27142,5,0.007324,0.000000,0.020752,
6,322010748,org.apache.fop.fo.PropertyList$$$$$getExplicitOrShorthand,27142,23,0.000000,0.000000,0.015930,
6,322010764,org.apache.xerces.impl.XMLDocumentFragmentScannerImpl$ElementStack$$$$$pushElement,27142,64,0.000000,0.000000,0.016419,
6,322010772,org.apache.fop.fo.PropertyList$$$$$get,27142,51,0.000000,0.000000,0.016846,
6,322010805,org.apache.xerces.impl.XMLEntityScanner$$$$$scanChar,27142,12,0.000000,0.000000,0.015930,
6,322010830,org.apache.fop.fo.PropertyList$$$$$getExplicitOrShorthand,27142,23,0.000000,0.000000,0.016479,
6,322010867,org.apache.fop.render.ps.PSStream$$$$$write,27142,17,0.007324,0.000000,0.016846,
6,322010879,org.apache.fop.fo.PropertyManager$$$$$getHyphenationProps,27142,41,0.007080,0.000000,0.019958,
6,322011002,org.apache.fop.fo.PropertyManager$$$$$initBorderInfo,27142,80,0.007324,0.000000,0.020568,
6,322011043,org.apache.fop.fo.PropertyList$$$$$getExplicit,27142,62,0.007080,0.000000,0.022400,
6,322011101,org.apache.fop.render.ps.PSRenderer$$$$$renderWordArea,27142,52,0.007324,0.000000,0.019897,
6,322011117,org.apache.fop.fo.PropertyList$$$$$get,27142,51,0.007325,0.000000,0.019715,
6,322011133,org.apache.fop.fo.PropertyList$$$$$getExplicit,27142,62,0.007080,0.000000,0.021668,
6,322011175,org.apache.fop.fo.PropertyList$$$$$getExplicit,27142,62,0.007324,0.000000,0.019897,
6,322011265,org.apache.fop.layout.FontState$$$$$getCharWidth,27142,36,0.007324,0.000000,0.021301,
6,322011294,org.apache.fop.render.ps.PSRenderer$$$$$renderLineArea,27142,11,0.007324,0.000000,0.019836,
6,322011295,org.apache.fop.render.ps.PSStream$$$$$write,27142,17,0.007324,0.000000,0.020447,
6,322011356,org.apache.fop.render.ps.PSRenderer$$$$$renderWordArea,27142,52,0.007324,0.000000,0.021118,
6,322011372,org.apache.fop.render.ps.PSRenderer$$$$$useColor,27142,37,0.007080,0.000000,0.022461,
6,322011373,org.apache.fop.render.ps.PSStream$$$$$write,27142,17,0.007325,0.000000,0.019653,
6,322011393,org.apache.fop.render.ps.PSStream$$$$$write,27142,17,0.007324,0.000000,0.020325,
6,322011429,org.apache.fop.fo.PropertyList$$$$$getExplicitOrShorthand,27142,23,0.007324,0.000000,0.020996,
7,322011647,org.apache.fop.fo.PropertyList$$$$$get,27142,51,0.007324,0.000000,0.021180,
7,322011663,org.apache.xerces.impl.XMLEntityScanner$$$$$scanQName,27142,38,0.007325,0.000000,0.020752,
7,322011704,org.apache.fop.fo.expr.PropertyParser$$$$$<init>,27142,46,0.007080,0.000000,0.022461,
7,322011763,org.apache.fop.fo.PropertyListBuilder$$$$$makeList,27142,49,0.015381,0.000000,0.018494,
7,322011770,org.apache.xerces.impl.XMLEntityScanner$$$$$scanQName,27142,38,0.007324,0.000000,0.016907,
7,322011892,org.apache.fop.fo.PropertyList$$$$$getParentFObj,27142,16,0.000000,0.000000,0.022950,
7,322011925,org.apache.fop.fo.properties.BorderEndStyleMaker$$$$$isCorrespondingForced,27142,91,0.007202,0.000000,0.017395,
7,322011937,org.apache.fop.render.ps.PSRenderer$$$$$useColor,27142,37,0.007324,0.000000,0.018005,
7,322011940,org.apache.fop.render.ps.PSRenderer$$$$$useColor,27142,37,0.007324,0.000000,0.018371,
7,322011982,org.apache.fop.layout.FontState$$$$$getCharWidth,27142,36,0.007324,0.000000,0.017090,
7,322012031,org.apache.fop.layout.BorderAndPadding$$$$$getBorderBottomWidth,27142,74,0.007080,0.000000,0.019227,
7,322012032,org.apache.fop.layout.BorderAndPadding$$$$$getBorderBottomWidth,27142,74,0.000000,0.000000,0.018554,
7,322012033,org.apache.fop.layout.Area$$$$$getBorderTopWidth,27142,67,0.007324,0.000000,0.016968,
7,322012034,org.apache.fop.layout.BorderAndPadding$$$$$getBorderBottomWidth,27142,74,0.007324,0.000000,0.017639,
7,322012059,org.apache.fop.fo.Property$Maker$$$$$make,27142,25,0.007324,0.000000,0.017456,
7,322012126,org.apache.fop.render.ps.PSRenderer$$$$$useColor,27142,37,0.007324,0.000000,0.017517,
7,322012281,org.apache.fop.layout.LineArea$$$$$isSpace,27142,95,0.007325,0.000000,0.017395,
7,322012295,org.apache.fop.render.ps.PSRenderer$$$$$useColor,27142,37,0.007324,0.000000,0.019470,
7,322012296,org.apache.fop.render.ps.PSRenderer$$$$$useColor,27142,37,0.007080,0.000000,0.019776,
7,322012304,org.apache.fop.render.ps.PSRenderer$$$$$useColor,27142,37,0.007325,0.000000,0.018432,
7,322012327,org.apache.fop.render.ps.PSRenderer$$$$$useColor,27142,37,0.007324,0.000000,0.016541,
7,322012487,org.apache.fop.render.ps.PSRenderer$$$$$renderWordArea,27142,52,0.007324,0.000000,0.018432,
7,322012488,org.apache.fop.render.ps.PSRenderer$$$$$renderWordArea,27142,52,0.007202,0.000000,0.019349,
7,322012512,org.apache.fop.render.ps.PSRenderer$$$$$renderLineArea,27142,11,0.007325,0.000000,0.018066,
7,322012513,org.apache.fop.render.ps.PSRenderer$$$$$useColor,27142,37,0.007324,0.000000,0.017090,
7,322012576,org.apache.fop.fo.properties.GenericPadding$$$$$getShorthand,27142,33,0.011963,0.000000,0.019287,
7,322012592,org.apache.fop.fo.PropertyManager$$$$$formatPadding,27142,5,0.007080,0.000000,0.020996,
7,322012637,org.apache.fop.render.ps.PSRenderer$$$$$useColor,27142,37,0.007080,0.000000,0.020874,
7,322012638,org.apache.fop.render.ps.PSRenderer$$$$$useColor,27142,37,0.007324,0.000000,0.019532,
7,322012639,org.apache.fop.render.ps.PSRenderer$$$$$useColor,27142,37,0.007081,0.000000,0.020752,
7,322012682,org.apache.fop.fo.PropertyList$$$$$getExplicit,27142,62,0.007080,0.000000,0.020935,
8,322012695,org.apache.xerces.impl.XMLEntityScanner$$$$$scanContent,27142,55,0.007324,0.000000,0.020690,
8,322012718,org.apache.xerces.util.SymbolTable$$$$$hash,27142,73,0.007324,0.000000,0.021789,
8,322012754,org.apache.xerces.util.SymbolTable$$$$$addSymbol,27142,26,0.007324,0.000000,0.022339,
8,322012763,org.apache.fop.datatypes.Space$$$$$setComponent,27142,89,0.007324,0.000000,0.021972,
8,322012824,org.apache.fop.layout.FontState$$$$$getCharWidth,27142,36,0.007080,0.000000,0.022217,
8,322012925,org.apache.fop.fo.properties.StartIndentMaker$$$$$isCorrespondingForced,27142,32,0.000000,0.000000,0.020325,
8,322013085,org.apache.fop.layout.BorderAndPadding$$$$$getBorderBottomWidth,27142,74,0.007080,0.000000,0.023315,
8,322013137,org.apache.fop.render.pdf.CodePointMapping$$$$$mapChar,27142,99,0.007081,0.000000,0.023438,
8,322013162,org.apache.fop.fo.properties.EndIndentMaker$$$$$compute,27142,54,0.007324,0.000000,0.020508,
8,322013214,org.apache.fop.render.ps.PSRenderer$$$$$renderInlineSpace,27142,100,0.007080,0.000000,0.021667,
8,322013238,org.apache.fop.layout.LineArea$$$$$addSpacedWord,27142,96,0.007324,0.000000,0.021607,
8,322013254,org.apache.fop.fo.properties.EndIndentMaker$$$$$compute,27142,54,0.007142,0.000000,0.023071,
8,322013287,org.apache.fop.layout.BorderAndPadding$$$$$getBorderBottomWidth,27142,74,0.007080,0.000000,0.021729,
8,322013359,org.apache.fop.fo.properties.BorderEndStyleMaker$$$$$isCorrespondingForced,27142,91,0.007324,0.000000,0.019715,
8,322013368,org.apache.fop.layout.BorderAndPadding$$$$$getBorderBottomWidth,27142,74,0.007325,0.000000,0.020630,
8,322013369,org.apache.fop.render.ps.PSRenderer$$$$$useColor,27142,37,0.007324,0.000000,0.021911,
8,322013421,org.apache.fop.layout.FontState$$$$$getCharWidth,27142,36,0.007080,0.000000,0.022400,
8,322013474,org.apache.fop.render.ps.PSRenderer$$$$$renderInlineSpace,27142,100,0.007324,0.000000,0.022400,
8,322013475,org.apache.fop.render.ps.PSRenderer$$$$$renderWordArea,27142,52,0.007324,0.000000,0.020935,
8,322013498,org.apache.fop.render.pdf.CodePointMapping$$$$$mapChar,27142,99,0.007080,0.000000,0.022095,
8,322013514,org.apache.fop.datatypes.Space$$$$$getComponent,27142,77,0.007324,0.000000,0.021118,
9,322013668,org.apache.xerces.impl.XMLEntityScanner$$$$$scanChar,27142,12,0.007080,0.000000,0.023743,
9,322013719,org.apache.fop.layout.LineArea$$$$$isSpace,27142,95,0.011841,0.000000,0.018798,
9,322013720,org.apache.fop.layout.FontState$$$$$getCharWidth,27142,36,0.011841,0.000000,0.020936,
9,322013751,org.apache.fop.render.ps.PSRenderer$$$$$renderInlineSpace,27142,100,0.007325,0.000000,0.020874,
9,322013752,org.apache.fop.render.ps.PSRenderer$$$$$renderWordArea,27142,52,0.007080,0.000000,0.021728,
9,322013782,org.apache.fop.datatypes.Space$$$$$getComponent,27142,77,0.000000,0.000000,0.021301,
9,322013876,org.apache.fop.layout.BorderAndPadding$$$$$getBorderBottomWidth,27142,74,0.007080,0.000000,0.023255,
9,322013888,org.apache.fop.render.pdf.CodePointMapping$$$$$mapChar,27142,99,0.000000,0.000000,0.022888,
9,322013908,org.apache.fop.render.ps.PSRenderer$$$$$useColor,27142,37,0.007324,0.000000,0.022217,
9,322013924,org.apache.fop.fo.properties.StartIndentMaker$$$$$isCorrespondingForced,27142,32,0.007325,0.000000,0.023682,
9,322014033,org.apache.fop.render.pdf.CodePointMapping$$$$$mapChar,27142,99,0.007324,0.000000,0.020691,
9,322014034,org.apache.fop.render.ps.PSRenderer$$$$$renderLineArea,27142,11,0.007324,0.000000,0.021790,
9,322014059,org.apache.fop.render.ps.PSRenderer$$$$$useColor,27142,37,0.007080,0.000000,0.022461,
9,322014060,org.apache.fop.render.ps.PSRenderer$$$$$useColor,27142,37,0.007080,0.000000,0.021484,
9,322014107,org.apache.fop.layout.BorderAndPadding$$$$$getBorderBottomWidth,27142,74,0.007324,0.000000,0.021301,
9,322014184,org.apache.fop.render.AbstractRenderer$$$$$renderBlockArea,27142,107,0.007324,0.000000,0.021546,
9,322014197,org.apache.fop.render.ps.PSRenderer$$$$$useColor,27142,37,0.007080,0.000000,0.021728,
9,322014198,org.apache.fop.render.pdf.CodePointMapping$$$$$mapChar,27142,99,0.007324,0.000000,0.021424,
9,322014245,org.apache.fop.layout.Area$$$$$addDisplaySpace,27142,30,0.007325,0.000000,0.021179,
9,322014277,org.apache.fop.layout.FontState$$$$$getCharWidth,27142,36,0.007080,0.000000,0.021789,
9,322014326,org.apache.fop.render.ps.PSRenderer$$$$$useColor,27142,37,0.007324,0.000000,0.021057,
9,322014327,org.apache.fop.render.ps.PSRenderer$$$$$useColor,27142,37,0.000000,0.000000,0.020264,
9,322014354,org.apache.fop.fo.properties.EndIndentMaker$$$$$compute,27142,54,0.000000,0.000000,0.022400,
9,322014436,org.apache.fop.layout.Area$$$$$addChild,27142,102,0.007080,0.000000,0.023864,
9,322014493,org.apache.fop.layout.FontState$$$$$getCharWidth,27142,36,0.007325,0.000000,0.021729,
10,322014522,org.apache.xerces.parsers.AbstractSAXParser$$$$$characters,27142,94,0.012085,0.000000,0.021423,
10,322014541,org.apache.xerces.impl.XMLEntityScanner$$$$$scanLiteral,27142,43,0.007080,0.000000,0.023071,
10,322014574,org.apache.fop.fo.properties.BorderEndStyleMaker$$$$$isCorrespondingForced,27142,91,0.000000,0.000000,0.021423,
10,322014582,org.apache.fop.fo.properties.StartIndentMaker$$$$$isInherited,27142,56,0.007324,0.000000,0.020630,
10,322014643,org.apache.xerces.impl.XMLEntityScanner$$$$$scanLiteral,27142,43,0.012085,0.000000,0.024292,
10,322014688,org.apache.fop.render.ps.PSRenderer$$$$$useColor,27142,37,0.000000,0.000000,0.024292,
10,322014705,org.apache.fop.fo.expr.PropertyParser$$$$$parsePrimaryExpr,27142,81,0.011841,0.000000,0.025940,
10,322014746,org.apache.fop.layout.FontState$$$$$getCharWidth,27142,36,0.011902,0.000000,0.025391,
10,322014832,org.apache.fop.layout.LineArea$$$$$isSpace,27142,95,0.012024,0.000000,0.020813,
10,322014904,org.apache.fop.fo.PropertyList$$$$$get,27142,110,0.000000,0.000000,0.016724,
10,322014926,org.apache.fop.render.ps.PSRenderer$$$$$useColor,27142,37,0.007324,0.000000,0.016602,
10,322014926,org.apache.fop.render.ps.PSRenderer$$$$$useColor,27142,37,0.007324,0.000000,0.017273,
10,322014928,org.apache.fop.layout.BorderAndPadding$$$$$getBorderBottomWidth,27142,74,0.007080,0.000000,0.019226,
10,322014929,org.apache.fop.render.ps.PSRenderer$$$$$useColor,27142,37,0.007080,0.000000,0.018554,
10,322014929,org.apache.fop.render.ps.PSRenderer$$$$$useColor,27142,37,0.007324,0.000000,0.016968,
10,322014931,org.apache.fop.render.ps.PSRenderer$$$$$useColor,27142,37,0.007325,0.000000,0.017639,
10,322014961,org.apache.fop.render.ps.PSRenderer$$$$$useFont,27142,116,0.007080,0.000000,0.018493,
10,322015035,org.apache.fop.fo.PropertyList$$$$$get,27142,110,0.007324,0.000000,0.017150,
10,322015059,org.apache.fop.fo.PropertyList$$$$$get,27142,110,0.007324,0.000000,0.016174,
10,322015278,org.apache.fop.render.ps.PSRenderer$$$$$useColor,27142,37,0.007325,0.000000,0.016419,
10,322015279,org.apache.fop.render.ps.PSRenderer$$$$$renderInlineSpace,27142,100,0.007080,0.000000,0.018554,
10,322015294,org.apache.fop.render.ps.PSRenderer$$$$$useColor,27142,37,0.007325,0.000000,0.017517,
10,322015295,org.apache.fop.render.pdf.CodePointMapping$$$$$mapChar,27142,99,0.000000,0.000000,0.017883,
10,322015315,org.apache.fop.render.ps.PSRenderer$$$$$useColor,27142,37,0.007324,0.000000,0.016784,
10,322015364,org.apache.fop.layout.FontState$$$$$getCharWidth,27142,36,0.000000,0.000000,0.017029,
10,322015408,org.apache.fop.render.ps.PSRenderer$$$$$useColor,27142,37,0.007325,0.000000,0.016052,
10,322015489,org.apache.fop.layout.FontState$$$$$getCharWidth,27142,36,0.000000,0.000000,0.016053,
10,322015522,org.apache.fop.layout.FontState$$$$$getCharWidth,27142,36,0.000000,0.000000,0.015442,
10,322015530,org.apache.fop.render.pdf.CodePointMapping$$$$$mapChar,27142,99,0.000000,0.000000,0.015137,
10,322015543,org.apache.fop.render.ps.PSRenderer$$$$$useFont,27142,116,0.000000,0.000000,0.015991,
10,322015544,org.apache.fop.render.ps.PSRenderer$$$$$useColor,27142,37,0.000000,0.000000,0.014832,
10,322015563,org.apache.fop.render.ps.PSRenderer$$$$$useFont,27142,116,0.000000,0.000000,0.016968,
10,322015564,org.apache.fop.render.ps.PSRenderer$$$$$useColor,27142,37,0.000000,0.000000,0.015747,
11,322015588,org.apache.xerces.impl.XMLEntityScanner$$$$$scanContent,27142,55,0.007324,0.000000,0.017578,
11,322015612,org.apache.xerces.impl.XMLEntityScanner$$$$$skipChar,27142,113,0.000000,0.000000,0.018615,
11,322015628,org.apache.fop.fo.FObj$$$$$setWritingMode,27142,88,0.007324,0.000000,0.019836,
11,322015674,org.apache.fop.fo.expr.PropertyParser$$$$$parse,27142,111,0.007080,0.000000,0.020752,
11,322015682,org.apache.xerces.impl.XMLEntityScanner$$$$$scanLiteral,27142,43,0.007080,0.000000,0.020569,
11,322015715,org.apache.fop.layout.FontState$$$$$getCharWidth,27142,36,0.000000,0.000000,0.021240,
11,322015768,org.apache.fop.fo.properties.StartIndentMaker$$$$$compute,27142,87,0.007080,0.000000,0.021606,
11,322015789,org.apache.fop.render.ps.PSRenderer$$$$$renderInlineSpace,27142,100,0.007324,0.000000,0.020141,
11,322015801,org.apache.fop.render.ps.PSRenderer$$$$$useFont,27142,116,0.007324,0.000000,0.018798,
11,322015802,org.apache.fop.render.ps.PSRenderer$$$$$useColor,27142,37,0.007324,0.000000,0.020325,
11,322015896,org.apache.fop.render.ps.PSRenderer$$$$$useColor,27142,37,0.007080,0.000000,0.025146,
11,322015897,org.apache.fop.render.pdf.CodePointMapping$$$$$mapChar,27142,99,0.000000,0.000000,0.020569,
11,322015945,org.apache.fop.render.ps.PSRenderer$$$$$useFont,27142,116,0.007325,0.000000,0.019531,
11,322015966,org.apache.fop.render.ps.PSRenderer$$$$$renderInlineSpace,27142,100,0.007325,0.000000,0.018189,
11,322015967,org.apache.fop.render.ps.PSRenderer$$$$$renderInlineSpace,27142,100,0.007324,0.000000,0.016540,
11,322015967,org.apache.fop.render.pdf.CodePointMapping$$$$$mapChar,27142,99,0.007324,0.000000,0.016236,
11,322015982,org.apache.fop.render.pdf.CodePointMapping$$$$$mapChar,27142,99,0.000000,0.000000,0.015320,
11,322016011,org.apache.fop.fo.PropertyManager$$$$$getBackgroundProps,27142,119,0.000000,0.000000,0.015564,
11,322016027,org.apache.fop.fo.PropertyList$$$$$get,27142,110,0.007080,0.000000,0.018128,
11,322016060,org.apache.fop.layout.Area$$$$$addChild,27142,102,0.007324,0.000000,0.015442,
11,322016175,org.apache.fop.render.pdf.CodePointMapping$$$$$mapChar,27142,99,0.007203,0.000000,0.016052,
11,322016220,org.apache.fop.fo.PropertyList$$$$$get,27142,110,0.000000,0.000000,0.014709,
11,322016228,org.apache.fop.render.pdf.CodePointMapping$$$$$mapChar,27142,99,0.000000,0.000000,0.014832,
11,322016229,org.apache.fop.render.ps.PSRenderer$$$$$renderInlineSpace,27142,100,0.000000,0.000000,0.014709,
11,322016262,org.apache.fop.render.ps.PSRenderer$$$$$useFont,27142,116,0.000000,0.000000,0.015503,
11,322016262,org.apache.fop.render.ps.PSRenderer$$$$$useColor,27142,37,0.000000,0.000000,0.014039,
11,322016278,org.apache.fop.fo.properties.MarginLeftMaker$$$$$getShorthand,27142,8,0.000000,0.000000,0.015625,
11,322016294,org.apache.fop.layout.BlockArea$$$$$<init>,27142,118,0.000000,0.000000,0.016052,
11,322016356,org.apache.fop.layout.Area$$$$$addChild,27142,102,0.007325,0.000000,0.015992,
12,322016492,org.apache.xerces.impl.XMLEntityScanner$$$$$skipChar,27142,113,0.000000,0.000000,0.014404,
12,322016573,org.apache.xerces.util.XMLAttributesImpl$$$$$addAttributeNS,27142,42,0.000000,0.000000,0.014039,
12,322016574,org.apache.xerces.impl.XMLEntityScanner$$$$$scanContent,27142,55,0.015625,0.000000,0.017944,
12,322016575,org.apache.xerces.util.XMLAttributesImpl$$$$$addAttributeNS,27142,42,0.012085,0.000000,0.015747,
12,322016576,org.apache.xerces.impl.XMLEntityScanner$$$$$skipChar,27142,113,0.011841,0.000000,0.016907,
12,322016577,org.apache.xerces.impl.XMLEntityScanner$$$$$peekChar,27142,117,0.000000,0.000000,0.017639,
12,322016585,org.apache.xerces.impl.XMLEntityScanner$$$$$skipChar,27142,113,0.000000,0.000000,0.013916,
12,322016593,org.apache.fop.fo.PropertyList$$$$$get,27142,110,0.000000,0.000000,0.014282,
12,322016601,org.apache.fop.fo.FObj$$$$$setWritingMode,27142,88,0.000000,0.000000,0.014405,
12,322016610,org.apache.xerces.impl.XMLEntityScanner$$$$$scanQName,27142,38,0.000000,0.000000,0.016113,
12,322016618,org.apache.xerces.impl.XMLEntityScanner$$$$$skipChar,27142,113,0.000000,0.000000,0.015381,
12,322016635,org.apache.fop.fo.PropertyList$$$$$get,27142,110,0.007080,0.000000,0.020935,
12,322016642,org.apache.fop.fo.FObj$$$$$setWritingMode,27142,88,0.007324,0.000000,0.019348,
12,322016812,org.apache.fop.fo.properties.BorderAfterStyleMaker$$$$$compute,27142,93,0.012085,0.000000,0.019897,
12,322016845,org.apache.fop.render.ps.PSRenderer$$$$$useFont,27142,116,0.007080,0.000000,0.022339,
12,322016847,org.apache.fop.render.ps.PSRenderer$$$$$useColor,27142,37,0.007203,0.000000,0.021301,
12,322016881,org.apache.fop.render.pdf.CodePointMapping$$$$$mapChar,27142,99,0.016358,0.000000,0.021179,
12,322016902,org.apache.fop.fo.expr.PropertyParser$$$$$parsePrimaryExpr,27142,81,0.011719,0.000000,0.023620,
12,322016918,org.apache.fop.fo.properties.GenericPadding$$$$$getShorthand,27142,33,0.007080,0.000000,0.019775,
12,322016992,org.apache.fop.layout.FontState$$$$$getCharWidth,27142,36,0.000000,0.000000,0.015808,
12,322017021,org.apache.fop.render.pdf.CodePointMapping$$$$$mapChar,27142,99,0.000000,0.000000,0.014526,
12,322017022,org.apache.fop.render.ps.PSRenderer$$$$$renderInlineSpace,27142,100,0.000000,0.000000,0.015747,
12,322017070,org.apache.fop.fo.properties.EndIndentMaker$$$$$compute,27142,54,0.000000,0.000000,0.016175,
12,322017082,org.apache.fop.layout.LineArea$$$$$isSpace,27142,95,0.000000,0.000000,0.016540,
12,322017213,org.apache.fop.fo.properties.GenericCondLength$$$$$make,27142,129,0.000000,0.000000,0.016846,
12,322017267,org.apache.fop.render.ps.PSRenderer$$$$$renderInlineSpace,27142,100,0.000000,0.000000,0.014099,
12,322017268,org.apache.fop.render.ps.PSRenderer$$$$$useFont,27142,116,0.000000,0.000000,0.016845,
12,322017269,org.apache.fop.render.ps.PSRenderer$$$$$useFont,27142,116,0.000000,0.000000,0.016114,
12,322017287,org.apache.fop.layout.FontState$$$$$getCharWidth,27142,36,0.007325,0.000000,0.016540,
12,322017309,org.apache.fop.render.ps.PSRenderer$$$$$useFont,27142,116,0.000000,0.000000,0.014954,
12,322017324,org.apache.fop.layout.FontState$$$$$getCharWidth,27142,36,0.000000,0.000000,0.016418,
12,322017430,org.apache.fop.fo.properties.BorderAfterStyleMaker$$$$$compute,27142,93,0.000000,0.000000,0.014588,
12,322017447,org.apache.fop.render.ps.PSRenderer$$$$$renderDisplaySpace,27142,112,0.000000,0.000000,0.022400,
12,322017471,org.apache.fop.render.ps.PSRenderer$$$$$useFont,27142,116,0.007080,0.000000,0.023682,
12,322017472,org.apache.fop.render.ps.PSRenderer$$$$$useFont,27142,116,0.007141,0.000000,0.023376,
12,322017473,org.apache.fop.render.ps.PSRenderer$$$$$useFont,27142,116,0.007080,0.000000,0.023560,
12,322017474,org.apache.fop.render.ps.PSRenderer$$$$$useFont,27142,116,0.007080,0.000000,0.024841,
12,322017532,org.apache.fop.fo.PropertyList$$$$$get,27142,110,0.000000,0.000000,0.017334,
12,322017590,org.apache.fop.fo.PropertyManager$$$$$getBackgroundProps,27142,119,0.000000,0.000000,0.014527,
12,322017591,org.apache.fop.fo.PropertyList$$$$$get,27142,110,0.007080,0.000000,0.013733,
12,322017647,org.apache.fop.fo.properties.FontWeightMaker$$$$$make,27142,136,0.000000,0.000000,0.014770,
12,322017680,org.apache.fop.fo.PropertyList$$$$$get,27142,110,0.000000,0.000000,0.016785,
13,322017689,org.apache.xerces.impl.XMLEntityScanner$$$$$skipChar,27142,113,0.000000,0.000000,0.015258,
13,322017721,org.apache.xerces.impl.XMLEntityScanner$$$$$skipChar,27142,113,0.000000,0.000000,0.014954,
13,322017733,org.apache.fop.fo.LengthProperty$Maker$$$$$isAutoLengthAllowed,27142,86,0.000000,0.000000,0.016785,
13,322017766,org.apache.xerces.impl.XMLScanner$$$$$isValidNameStartChar,27142,127,0.000000,0.000000,0.014710,
13,322017774,org.apache.fop.fo.PropertyManager$$$$$getBorderAndPadding,27142,69,0.000000,0.000000,0.014771,
13,322017911,org.apache.fop.render.ps.PSRenderer$$$$$renderLineArea,27142,11,0.000000,0.000000,0.015015,
13,322017935,org.apache.fop.render.pdf.CodePointMapping$$$$$mapChar,27142,99,0.000000,0.000000,0.015503,
13,322017956,org.apache.fop.render.pdf.CodePointMapping$$$$$mapChar,27142,99,0.000000,0.000000,0.017151,
13,322017976,org.apache.fop.render.pdf.CodePointMapping$$$$$mapChar,27142,99,0.000000,0.000000,0.015137,
13,322017990,org.apache.fop.render.pdf.CodePointMapping$$$$$mapChar,27142,99,0.000000,0.000000,0.017029,
13,322018111,org.apache.fop.layout.FontState$$$$$getCharWidth,27142,36,0.000000,0.000000,0.015075,
13,322018127,org.apache.fop.layout.LineArea$$$$$isSpace,27142,95,0.000000,0.000000,0.015075,
13,322018162,org.apache.fop.render.ps.PSRenderer$$$$$renderInlineSpace,27142,100,0.000000,0.000000,0.016663,
13,322018202,org.apache.fop.layout.FontState$$$$$getCharWidth,27142,36,0.000000,0.000000,0.015381,
13,322018255,org.apache.fop.fo.PropertyList$$$$$get,27142,110,0.000000,0.000000,0.015015,
13,322018386,org.apache.fop.layout.Area$$$$$increaseHeight,27142,75,0.000000,0.000000,0.016540,
13,322018452,org.apache.fop.render.ps.PSRenderer$$$$$renderInlineSpace,27142,100,0.000000,0.000000,0.016419,
13,322018453,org.apache.fop.render.ps.PSRenderer$$$$$renderInlineSpace,27142,100,0.000000,0.000000,0.014648,
13,322018454,org.apache.fop.render.ps.PSRenderer$$$$$renderInlineSpace,27142,100,0.000000,0.000000,0.015930,
13,322018455,org.apache.fop.render.ps.PSRenderer$$$$$renderInlineSpace,27142,100,0.000000,0.000000,0.015320,
13,322018456,org.apache.fop.render.ps.PSRenderer$$$$$renderInlineSpace,27142,100,0.000000,0.000000,0.014709,
13,322018480,org.apache.fop.render.ps.PSRenderer$$$$$renderInlineSpace,27142,100,0.000000,0.000000,0.013550,
13,322018482,org.apache.fop.render.ps.PSRenderer$$$$$renderInlineSpace,27142,100,0.000000,0.000000,0.014648,
13,322018547,org.apache.fop.render.ps.PSRenderer$$$$$renderDisplaySpace,27142,112,0.000000,0.000000,0.017212,
13,322018548,org.apache.fop.render.AbstractRenderer$$$$$renderBlockArea,27142,107,0.007325,0.000000,0.019409,
13,322018563,org.apache.fop.render.ps.PSRenderer$$$$$renderInlineSpace,27142,100,0.007080,0.000000,0.025208,
13,322018564,org.apache.fop.layout.BlockArea$$$$$end,27142,31,0.007324,0.000000,0.022461,
13,322018573,org.apache.fop.render.ps.PSRenderer$$$$$renderInlineSpace,27142,100,0.007325,0.000000,0.022399,
14,322018661,org.apache.xerces.impl.XMLEntityScanner$$$$$skipChar,27142,113,0.007080,0.000000,0.020813,
14,322018694,org.apache.xerces.impl.XMLScanner$$$$$isUnchangedByNormalization,27142,105,0.007080,0.000000,0.023010,
14,322018760,org.apache.fop.render.ps.PSRenderer$$$$$renderInlineSpace,27142,100,0.007324,0.000000,0.021546,
14,322018761,org.apache.fop.render.ps.PSRenderer$$$$$renderInlineSpace,27142,100,0.007324,0.000000,0.021240,
14,322018762,org.apache.fop.render.ps.PSRenderer$$$$$renderInlineSpace,27142,100,0.007263,0.000000,0.021789,
14,322018763,org.apache.fop.render.ps.PSRenderer$$$$$renderInlineSpace,27142,100,0.007324,0.000000,0.020386,
14,322018764,org.apache.fop.render.ps.PSRenderer$$$$$renderInlineSpace,27142,100,0.007325,0.000000,0.020142,
14,322018776,org.apache.fop.layout.LineArea$$$$$isSpace,27142,95,0.000000,0.000000,0.022217,
14,322018995,org.apache.fop.render.ps.PSRenderer$$$$$renderInlineSpace,27142,100,0.007324,0.000000,0.019471,
14,322018996,org.apache.fop.render.ps.PSRenderer$$$$$renderInlineSpace,27142,100,0.007081,0.000000,0.021484,
14,322018997,org.apache.fop.render.ps.PSRenderer$$$$$renderLineArea,27142,11,0.007324,0.000000,0.019959,
14,322019002,org.apache.fop.layout.BorderAndPadding$$$$$getPaddingTop,27142,141,0.007080,0.000000,0.021057,
14,322019018,org.apache.fop.fo.PropertyList$$$$$get,27142,110,0.007325,0.000000,0.023194,
14,322019051,org.apache.fop.render.ps.PSRenderer$$$$$renderInlineSpace,27142,100,0.007324,0.000000,0.021484,
14,322019052,org.apache.fop.render.ps.PSRenderer$$$$$renderInlineSpace,27142,100,0.007080,0.000000,0.021729,
14,322019054,org.apache.fop.render.ps.PSRenderer$$$$$renderInlineSpace,27142,100,0.007080,0.000000,0.022583,
14,322019191,org.apache.fop.render.ps.PSRenderer$$$$$renderInlineSpace,27142,100,0.007080,0.000000,0.021057,
14,322019193,org.apache.fop.render.ps.PSRenderer$$$$$renderInlineSpace,27142,100,0.000000,0.000000,0.020020,
14,322019200,org.apache.fop.render.AbstractRenderer$$$$$renderBlockArea,27142,107,0.007324,0.000000,0.020141,
14,322019201,org.apache.fop.render.pdf.CodePointMapping$$$$$mapChar,27142,99,0.007324,0.000000,0.019593,
14,322019236,org.apache.fop.layout.FontState$$$$$getCharWidth,27142,36,0.007080,0.000000,0.020935,
14,322019281,org.apache.fop.render.pdf.CodePointMapping$$$$$mapChar,27142,99,0.007324,0.000000,0.019776,
14,322019282,org.apache.fop.render.ps.PSRenderer$$$$$renderDisplaySpace,27142,112,0.007324,0.000000,0.020447,
14,322019392,org.apache.fop.render.ps.PSRenderer$$$$$renderDisplaySpace,27142,112,0.007324,0.000000,0.019653,
14,322019499,org.apache.fop.fo.PropertyList$$$$$get,27142,110,0.011597,0.000000,0.019837,
15,322019614,org.apache.xerces.parsers.AbstractSAXParser$$$$$characters,27142,94,0.000000,0.000000,0.019104,
15,322019622,org.apache.xerces.util.XMLAttributesImpl$$$$$addAttributeNS,27142,42,0.000000,0.000000,0.017945,
15,322019638,org.apache.fop.fo.properties.WritingModeMaker$$$$$make,27142,76,0.000000,0.000000,0.016724,
15,322019679,org.apache.fop.fo.properties.TextDecorationMaker$$$$$make,27142,103,0.000000,0.000000,0.018555,
15,322019696,org.apache.fop.render.ps.PSRenderer$$$$$renderDisplaySpace,27142,112,0.000000,0.000000,0.019043,
15,322019737,org.apache.fop.render.ps.PSRenderer$$$$$renderInlineSpace,27142,100,0.007080,0.000000,0.022827,
15,322019738,org.apache.fop.render.ps.PSRenderer$$$$$renderInlineSpace,27142,100,0.007080,0.000000,0.025330,
15,322019739,org.apache.fop.render.ps.PSRenderer$$$$$renderInlineSpace,27142,100,0.007263,0.000000,0.023071,
15,322019740,org.apache.fop.render.ps.PSRenderer$$$$$renderInlineSpace,27142,100,0.007325,0.000000,0.021973,
15,322019773,org.apache.fop.render.AbstractRenderer$$$$$renderBlockArea,27142,107,0.007325,0.000000,0.021118,
15,322019822,org.apache.fop.render.ps.PSRenderer$$$$$renderInlineSpace,27142,100,0.007324,0.000000,0.020691,
15,322019824,org.apache.fop.render.ps.PSRenderer$$$$$renderInlineSpace,27142,100,0.007080,0.000000,0.022460,
15,322019826,org.apache.fop.render.ps.PSRenderer$$$$$renderInlineSpace,27142,100,0.007324,0.000000,0.021667,
15,322019826,org.apache.fop.render.ps.PSRenderer$$$$$renderInlineSpace,27142,100,0.007324,0.000000,0.019470,
15,322019861,org.apache.fop.render.pdf.CodePointMapping$$$$$mapChar,27142,99,0.007080,0.000000,0.022338,
15,322019938,org.apache.fop.render.pdf.CodePointMapping$$$$$mapChar,27142,99,0.007324,0.000000,0.021546,
15,322019946,org.apache.fop.render.pdf.CodePointMapping$$$$$mapChar,27142,99,0.000000,0.000000,0.022339,
15,322019947,org.apache.fop.render.ps.PSRenderer$$$$$renderInlineSpace,27142,100,0.007324,0.000000,0.019836,
15,322019948,org.apache.fop.render.pdf.CodePointMapping$$$$$mapChar,27142,99,0.007325,0.000000,0.021545,
15,322020011,org.apache.fop.fo.LengthProperty$Maker$$$$$isAutoLengthAllowed,27142,86,0.007080,0.000000,0.023132,
15,322020068,org.apache.fop.render.ps.PSRenderer$$$$$renderInlineSpace,27142,100,0.007080,0.000000,0.021240,
15,322020070,org.apache.fop.render.ps.PSRenderer$$$$$renderInlineSpace,27142,100,0.007080,0.000000,0.022461,
15,322020071,org.apache.fop.render.ps.PSRenderer$$$$$renderInlineSpace,27142,100,0.007324,0.000000,0.021240,
15,322020072,org.apache.fop.render.ps.PSRenderer$$$$$renderInlineSpace,27142,100,0.007325,0.000000,0.020081,
15,322020150,org.apache.fop.layout.Area$$$$$addChild,27142,102,0.007325,0.000000,0.020996,
15,322020302,org.apache.fop.render.pdf.CodePointMapping$$$$$mapChar,27142,99,0.007141,0.000000,0.021057,
15,322020327,org.apache.fop.render.ps.PSRenderer$$$$$renderInlineSpace,27142,100,0.007325,0.000000,0.021546,
15,322020328,org.apache.fop.layout.Area$$$$$<init>,27142,106,0.007324,0.000000,0.020691,
15,322020363,org.apache.fop.render.ps.PSRenderer$$$$$renderInlineSpace,27142,100,0.007324,0.000000,0.020386,
15,322020364,org.apache.fop.render.AbstractRenderer$$$$$renderBlockArea,27142,107,0.007324,0.000000,0.021179,
15,322020384,org.apache.fop.render.pdf.CodePointMapping$$$$$mapChar,27142,99,0.007568,0.000000,0.017639,
16,322020514,org.apache.xerces.impl.XMLEntityScanner$$$$$skipChar,27142,113,0.092041,0.000000,0.258057,
16,322020515,org.apache.xerces.parsers.AbstractSAXParser$$$$$characters,27142,94,0.007324,0.000000,0.020263,
16,322020626,org.apache.fop.render.ps.PSRenderer$$$$$renderInlineSpace,27142,100,0.007324,0.000000,0.020874,
16,322020671,org.apache.fop.render.ps.PSRenderer$$$$$renderInlineSpace,27142,100,0.007324,0.000000,0.022033,
16,322020909,org.apache.fop.fo.expr.PropertyTokenizer$$$$$next,27142,126,0.007324,0.000000,0.019409,
16,322020918,org.apache.fop.render.ps.PSRenderer$$$$$renderInlineSpace,27142,100,0.007324,0.000000,0.019104,
16,322020919,org.apache.fop.render.ps.PSRenderer$$$$$renderInlineSpace,27142,100,0.007080,0.000000,0.021362,
16,322020920,org.apache.fop.render.ps.PSRenderer$$$$$renderInlineSpace,27142,100,0.007080,0.000000,0.020264,
16,322020933,org.apache.fop.fo.PropertyList$$$$$get,27142,110,0.007080,0.000000,0.020508,
16,322021015,org.apache.fop.render.ps.PSRenderer$$$$$renderInlineSpace,27142,100,0.007080,0.000000,0.022278,
16,322021016,org.apache.fop.render.ps.PSRenderer$$$$$renderInlineSpace,27142,100,0.007080,0.000000,0.022644,
16,322021017,org.apache.fop.render.ps.PSRenderer$$$$$renderInlineSpace,27142,100,0.007324,0.000000,0.020203,
16,322021018,org.apache.fop.render.ps.PSRenderer$$$$$renderInlineSpace,27142,100,0.007080,0.000000,0.021851,
16,322021036,org.apache.fop.layout.BorderAndPadding$$$$$getBorderWidth,27142,158,0.007080,0.000000,0.021423,
16,322021038,org.apache.fop.render.ps.PSRenderer$$$$$renderInlineSpace,27142,100,0.016357,0.000000,0.023560,
16,322021101,org.apache.fop.layout.Area$$$$$addChild,27142,102,0.007080,0.000000,0.018859,
16,322021171,org.apache.fop.render.ps.PSRenderer$$$$$renderInlineSpace,27142,100,0.007080,0.000000,0.019104,
16,322021172,org.apache.fop.layout.BorderAndPadding$$$$$getBorderWidth,27142,158,0.007141,0.000000,0.018249,
16,322021173,org.apache.fop.layout.BorderAndPadding$$$$$getBorderWidth,27142,158,0.007324,0.000000,0.018433,
16,322021228,org.apache.fop.fo.properties.GenericCondLength$$$$$make,27142,129,0.007325,0.000000,0.017640,
16,322021270,org.apache.fop.layout.BorderAndPadding$$$$$getBorderWidth,27142,158,0.007080,0.000000,0.019776,
16,322021310,org.apache.fop.layout.FontState$$$$$<init>,27142,133,0.007324,0.000000,0.017700,
16,322021408,org.apache.fop.layout.Area$$$$$increaseHeight,27142,75,0.007324,0.000000,0.016235,
17,322021498,org.apache.xerces.impl.XMLEntityScanner$$$$$skipChar,27142,113,0.091919,0.000000,0.218933,
17,322021507,org.apache.xerces.impl.XMLScanner$$$$$isUnchangedByNormalization,27142,105,0.007325,0.000000,0.017456,
17,322021531,org.apache.xerces.impl.XMLEntityScanner$$$$$skipString,27142,65,0.007324,0.000000,0.017334,
17,322021539,org.apache.fop.fo.expr.PropertyTokenizer$$$$$next,27142,126,0.007080,0.000000,0.018066,
17,322021564,org.apache.xerces.parsers.AbstractSAXParser$$$$$characters,27142,94,0.007080,0.000000,0.016906,
17,322021581,org.apache.fop.render.ps.PSRenderer$$$$$renderInlineSpace,27142,100,0.007263,0.000000,0.018677,
17,322021582,org.apache.fop.render.ps.PSRenderer$$$$$renderInlineSpace,27142,100,0.007324,0.000000,0.016967,
17,322021597,org.apache.fop.render.pdf.CodePointMapping$$$$$mapChar,27142,99,0.007324,0.000000,0.018250,
17,322021617,org.apache.fop.render.ps.PSRenderer$$$$$renderInlineSpace,27142,100,0.007081,0.000000,0.021789,
17,322021657,org.apache.fop.render.ps.PSRenderer$$$$$renderInlineSpace,27142,100,0.016358,0.000000,0.020691,
17,322021657,org.apache.fop.render.ps.PSRenderer$$$$$renderInlineSpace,27142,100,0.016601,0.000000,0.022156,
17,322021668,org.apache.fop.fo.properties.IdMaker$$$$$make,27142,150,0.011840,0.000000,0.023132,
17,322021688,org.apache.fop.fo.properties.GenericCondLength$$$$$make,27142,129,0.007080,0.000000,0.021546,
17,322021704,org.apache.fop.fo.PropertyList$$$$$get,27142,110,0.007202,0.000000,0.022522,
17,322021799,org.apache.fop.fo.PropertyList$$$$$get,27142,110,0.011841,0.000000,0.021362,
17,322021832,org.apache.fop.fo.properties.StartIndentMaker$$$$$isInherited,27142,56,0.007324,0.000000,0.017212,
17,322021869,org.apache.fop.layout.Area$$$$$<init>,27142,106,0.007325,0.000000,0.017701,
17,322021926,org.apache.fop.layout.FontState$$$$$getCharWidth,27142,36,0.000000,0.000000,0.018737,
17,322021963,org.apache.fop.render.pdf.fonts.TimesItalic$$$$$mapChar,27142,156,0.007324,0.000000,0.018188,
17,322021984,org.apache.fop.render.ps.PSRenderer$$$$$renderInlineSpace,27142,100,0.007324,0.000000,0.017945,
17,322021985,org.apache.fop.render.ps.PSRenderer$$$$$renderInlineSpace,27142,100,0.007080,0.000000,0.018127,
17,322021986,org.apache.fop.render.ps.PSRenderer$$$$$renderInlineSpace,27142,100,0.007324,0.000000,0.017761,
17,322022008,org.apache.fop.layout.Area$$$$$addChild,27142,102,0.007080,0.000000,0.017883,
17,322022145,org.apache.fop.render.ps.PSRenderer$$$$$renderInlineSpace,27142,100,0.007324,0.000000,0.018921,
17,322022146,org.apache.fop.render.ps.PSRenderer$$$$$renderInlineSpace,27142,100,0.007080,0.000000,0.019043,
17,322022193,org.apache.fop.fo.expr.PropertyTokenizer$$$$$next,27142,126,0.007080,0.000000,0.019409,
17,322022205,org.apache.fop.render.ps.PSRenderer$$$$$renderInlineSpace,27142,100,0.007080,0.000000,0.018921,
17,322022234,org.apache.fop.render.ps.PSRenderer$$$$$renderInlineSpace,27142,100,0.007080,0.000000,0.019165,
17,322022280,org.apache.fop.render.ps.PSRenderer$$$$$renderDisplaySpace,27142,112,0.007324,0.000000,0.018066,
17,322022447,org.apache.fop.fo.properties.EndIndentMaker$$$$$compute,27142,54,0.011841,0.000000,0.018005,
18,322022460,org.apache.xerces.impl.XMLEntityScanner$$$$$skipChar,27142,113,0.000000,0.000000,0.017090,
18,322022492,org.apache.fop.fo.FObjMixed$$$$$finalizeText,27142,138,0.000000,0.000000,0.016175,
18,322022517,org.apache.fop.fo.Property$Maker$$$$$make,27142,25,0.000000,0.000000,0.015808,
18,322022525,org.apache.xerces.impl.XMLEntityScanner$$$$$peekChar,27142,117,0.000000,0.000000,0.014344,
18,322022533,org.apache.xerces.impl.XMLDocumentFragmentScannerImpl$ElementStack$$$$$pushElement,27142,64,0.000000,0.000000,0.015137,
18,322022541,org.apache.xerces.impl.XMLEntityScanner$$$$$skipChar,27142,113,0.000000,0.000000,0.015503,
18,322022549,org.apache.xerces.impl.XMLEntityScanner$$$$$scanChar,27142,12,0.000000,0.000000,0.016480,
18,322022591,org.apache.fop.render.pdf.CodePointMapping$$$$$mapChar,27142,99,0.000000,0.000000,0.018921,
18,322022592,org.apache.fop.render.ps.PSRenderer$$$$$renderInlineSpace,27142,100,0.000000,0.000000,0.017517,
18,322022631,org.apache.fop.fo.PropertyList$$$$$get,27142,110,0.003541,0.000000,0.013733,
18,322022645,org.apache.fop.render.ps.PSRenderer$$$$$renderInlineSpace,27142,100,0.000000,0.000000,0.015747,
18,322022645,org.apache.fop.render.ps.PSRenderer$$$$$renderInlineSpace,27142,100,0.000000,0.000000,0.014466,
18,322022759,org.apache.fop.fo.properties.IdMaker$$$$$make,27142,150,0.000000,0.000000,0.014588,
18,322022883,org.apache.fop.render.ps.PSRenderer$$$$$renderDisplaySpace,27142,112,0.000000,0.000000,0.017273,
18,322022988,org.apache.fop.fo.properties.GenericSpace$$$$$make,27142,121,0.000000,0.000000,0.014832,
18,322023000,org.apache.fop.fo.LengthProperty$Maker$$$$$isAutoLengthAllowed,27142,86,0.000000,0.000000,0.015197,
18,322023063,org.apache.fop.fo.PropertyList$$$$$get,27142,110,0.007325,0.000000,0.015076,
18,322023108,org.apache.fop.render.ps.PSRenderer$$$$$renderInlineSpace,27142,100,0.000000,0.000000,0.015442,
18,322023109,org.apache.fop.render.ps.PSRenderer$$$$$renderInlineSpace,27142,100,0.000000,0.000000,0.014282,
18,322023110,org.apache.fop.render.ps.PSRenderer$$$$$renderInlineSpace,27142,100,0.000000,0.000000,0.017640,
18,322023111,org.apache.fop.render.ps.PSRenderer$$$$$renderInlineSpace,27142,100,0.000000,0.000000,0.015136,
18,322023132,org.apache.fop.layout.LineArea$$$$$verticalAlign,27142,71,0.000000,0.000000,0.015686,
18,322023158,org.apache.fop.render.ps.PSRenderer$$$$$renderInlineSpace,27142,100,0.000000,0.000000,0.014954,
18,322023190,org.apache.fop.layout.FontInfo$$$$$fontLookup,27142,151,0.000000,0.000000,0.014038,
18,322023255,org.apache.fop.fo.properties.GenericSpace$$$$$make,27142,121,0.000000,0.000000,0.015015,
18,322023309,org.apache.fop.render.ps.PSRenderer$$$$$renderDisplaySpace,27142,112,0.000000,0.000000,0.015259,
18,322023310,org.apache.fop.render.ps.PSRenderer$$$$$renderInlineSpace,27142,100,0.000000,0.000000,0.015075,
19,322023373,org.apache.fop.fo.PropertyList$$$$$get,27142,110,0.000000,0.000000,0.013184,
19,322023387,org.apache.xerces.impl.XMLEntityScanner$$$$$scanChar,27142,12,0.000000,0.000000,0.014160,
19,322023411,org.apache.xerces.impl.XMLEntityScanner$$$$$skipSpaces,27142,163,0.007080,0.000000,0.012817,
19,322023419,org.apache.fop.fo.expr.PropertyParser$$$$$parseMultiplicativeExpr,27142,147,0.011718,0.000000,0.014160,
19,322023427,org.apache.xerces.impl.XMLEntityScanner$$$$$skipSpaces,27142,163,0.007081,0.000000,0.014893,
19,322023435,org.apache.xerces.impl.XMLEntityScanner$$$$$getExpandedSystemId,27142,146,0.007263,0.000000,0.014892,
19,322023452,org.apache.xerces.impl.XMLEntityScanner$$$$$skipChar,27142,113,0.007324,0.000000,0.017700,
19,322023508,org.apache.fop.fo.PropertyList$$$$$get,27142,110,0.000000,0.000000,0.014709,
19,322023573,org.apache.fop.fo.PropertyList$$$$$get,27142,110,0.007325,0.000000,0.017700,
19,322023585,org.apache.fop.render.ps.PSRenderer$$$$$renderLineArea,27142,11,0.007325,0.000000,0.017761,
19,322023792,org.apache.fop.fo.PropertyList$$$$$get,27142,110,0.007080,0.000000,0.020874,
19,322023857,org.apache.fop.datatypes.LengthRange$$$$$getOptimum,27142,135,0.007080,0.000000,0.022095,
19,322023869,org.apache.fop.render.ps.PSRenderer$$$$$renderInlineSpace,27142,100,0.000000,0.000000,0.020752,
19,322023870,org.apache.fop.render.ps.PSRenderer$$$$$renderInlineSpace,27142,100,0.007324,0.000000,0.019470,
19,322023871,org.apache.fop.render.pdf.CodePointMapping$$$$$mapChar,27142,99,0.007324,0.000000,0.018555,
19,322023910,org.apache.fop.fo.PropertyList$$$$$get,27142,110,0.007080,0.000000,0.020447,
19,322024110,org.apache.fop.layout.LineArea$$$$$addText,27142,154,0.007324,0.000000,0.020447,
19,322024212,org.apache.fop.layout.Area$$$$$addChild,27142,102,0.007081,0.000000,0.022705,
20,322024251,org.apache.xerces.impl.XMLEntityScanner$$$$$peekChar,27142,117,0.007324,0.000000,0.019470,
20,322024257,org.apache.xerces.impl.XMLEntityScanner$$$$$skipSpaces,27142,163,0.007080,0.000000,0.022400,
20,322024298,org.apache.xerces.impl.XMLEntityScanner$$$$$skipSpaces,27142,163,0.000000,0.000000,0.021729,
20,322024324,org.apache.fop.render.ps.PSRenderer$$$$$renderDisplaySpace,27142,112,0.007080,0.000000,0.021362,
20,322024360,org.apache.fop.layout.BorderAndPadding$$$$$getPaddingTop,27142,141,0.007325,0.000000,0.020874,
20,322024401,org.apache.fop.render.ps.PSRenderer$$$$$renderInlineSpace,27142,100,0.007080,0.000000,0.022461,
20,322024403,org.apache.fop.render.ps.PSRenderer$$$$$renderInlineSpace,27142,100,0.000000,0.000000,0.020141,
20,322024483,org.apache.fop.layout.Area$$$$$<init>,27142,106,0.007324,0.000000,0.019714,
20,322024516,org.apache.fop.render.pdf.CodePointMapping$$$$$mapChar,27142,99,0.007324,0.000000,0.019837,
20,322024540,org.apache.fop.fo.flow.Block$$$$$layout,27142,108,0.007080,0.000000,0.021545,
20,322024581,org.apache.fop.render.pdf.CodePointMapping$$$$$mapChar,27142,99,0.007324,0.000000,0.020752,
20,322024762,org.apache.fop.fo.LengthProperty$Maker$$$$$isAutoLengthAllowed,27142,86,0.000000,0.000000,0.021240,
20,322024787,org.apache.fop.fo.properties.EndIndentMaker$$$$$compute,27142,54,0.007080,0.000000,0.021057,
20,322024890,org.apache.fop.fo.PropertyList$$$$$get,27142,110,0.006836,0.000000,0.013672,
20,322025028,org.apache.fop.fo.properties.EndIndentMaker$$$$$compute,27142,54,0.007325,0.000000,0.020080,
20,322025040,org.apache.fop.layout.LineArea$$$$$render,27142,170,0.007324,0.000000,0.021241,
20,322025041,org.apache.fop.layout.BorderAndPadding$$$$$getBorderBottomWidth,27142,74,0.007324,0.000000,0.019897,
20,322025048,org.apache.fop.layout.BlockArea$$$$$end,27142,31,0.007324,0.000000,0.021118,
