5 , 1,316572263,org.python.core.PackageManager$$$$$checkAccess,15032,0,0.000000,0.000000,0.125000,
5 , 1,316572273,org.python.core.PackageManager$$$$$checkAccess,15032,0,0.000000,0.000000,0.125000,
5 , 1,316572282,org.python.core.PackageManager$$$$$checkAccess,15032,0,0.000000,0.000000,0.125000,
5 , 1,316572292,org.python.core.PackageManager$$$$$checkAccess,15032,0,0.000000,0.000000,0.125000,
5 , 1,316572302,org.python.core.PackageManager$$$$$checkAccess,15032,0,0.000000,0.000000,0.125000,
5 , 1,316572311,org.python.core.PackageManager$$$$$checkAccess,15032,0,0.000000,0.000000,0.125000,
5 , 1,316572320,org.python.core.PackageManager$$$$$checkAccess,15032,0,0.000000,0.000000,0.125000,
5 , 1,316572331,org.python.core.PackageManager$$$$$checkAccess,15032,0,0.000000,0.000000,0.125000,
5 , 1,316572340,org.python.core.PackageManager$$$$$checkAccess,15032,0,0.000000,0.000000,0.125000,
5 , 1,316572348,org.python.core.PackageManager$$$$$checkAccess,15032,0,0.000000,0.000000,0.125000,
5 , 1,316572358,org.python.core.PackageManager$$$$$checkAccess,15032,0,0.000000,0.000000,0.125000,
5 , 1,316572367,org.python.core.PackageManager$$$$$checkAccess,15032,0,0.000000,0.000000,0.125000,
5 , 1,316572516,org.python.core.PackageManager$$$$$checkAccess,15032,0,0.000000,0.000000,0.125000,
5 , 1,316572526,org.python.core.PackageManager$$$$$checkAccess,15032,0,0.000000,0.000000,0.125000,
5 , 1,316572547,org.python.core.PackageManager$$$$$checkAccess,15032,0,0.000000,0.000000,0.125000,
5 , 1,316572836,org.python.core.PackageManager$$$$$checkAccess,15032,0,0.000000,0.000000,0.125000,
5 , 1,316573888,org.python.parser.IntStack$$$$$pop,15032,3,0.000000,0.000000,0.125000,
5 , 1,316573896,org.python.compiler.Bytes$$$$$hashCode,15032,2,0.000000,0.000000,0.125000,
5 , 1,316573999,org.python.parser.IntStack$$$$$pop,15032,3,0.000000,0.000000,0.125000,
5 , 1,316574238,org.python.parser.IntStack$$$$$pop,15032,3,0.000000,0.000000,0.125000,
5 , 1,316574286,org.python.compiler.Bytes$$$$$equals,15032,1,0.000000,0.000000,0.125000,
5 , 1,316574726,org.python.core.PyObjectList$$$$$size,15032,8,0.000000,0.000000,3.750000,
5 , 1,316574846,org.python.core.PyObjectList$$$$$size,15032,8,0.015808,0.000000,1.625000,
5 , 1,316574884,org.python.core.PyFloat$$$$$float___cmp__,15032,20,0.000000,0.000000,0.625000,
5 , 1,316575135,org.python.core.PyObject$$$$$delete_token,15032,38,0.000000,0.000000,0.125000,
5 , 1,316575143,org.python.core.PyFrame$$$$$setline,15032,29,0.000000,0.000000,0.125000,
5 , 1,316575258,org.python.core.PyFrame$$$$$setline,15032,29,0.000000,0.000000,0.125000,
5 , 1,316575414,org.python.core.PyObject$$$$$_eq,15032,52,0.000000,0.000000,0.125000,
5 , 1,316575603,org.python.core.PyString$$$$$coerce,15032,51,0.000000,0.000000,0.125000,
5 , 1,316576314,org.python.core.PyObject$$$$$<init>,15032,28,0.000000,0.000000,0.125000,
5 , 1,316576532,org.python.core.PyObject$$$$$<init>,15032,28,0.000000,0.000000,0.125000,
5 , 1,316576540,org.python.core.PyObject$$$$$<init>,15032,28,0.000000,0.000000,0.125000,
5 , 1,316576614,org.python.core.PyObject$$$$$<init>,15032,28,0.000000,0.000000,0.125000,
5 , 1,316576622,org.python.core.PyObject$$$$$<init>,15032,28,0.000000,0.000000,0.125000,
5 , 1,316576787,org.python.core.PyMethodDescr$$$$$__get__,15032,22,0.000000,0.000000,0.125000,
5 , 1,316576893,org.python.core.PyMethodDescr$$$$$__get__,15032,22,0.000000,0.000000,0.125000,
5 , 1,316577123,org.python.core.PyObject$$$$$_add,15032,62,0.000000,0.000000,0.125000,
5 , 1,316577164,org.python.core.PyObject$$$$$_add,15032,62,0.000000,0.000000,0.125000,
5 , 1,316577443,org.python.core.PyInteger$$$$$hashCode,15032,34,0.000000,0.000000,0.125000,
5 , 1,316577627,org.python.core.PyObject$$$$$_eq,15032,52,0.000000,0.000000,0.125000,
5 , 1,316577685,org.python.core.PyObject$$$$$_eq,15032,52,0.000000,0.000000,0.125000,
5 , 1,316577751,org.python.core.PyObject$$$$$_eq,15032,52,0.000000,0.000000,0.125000,
5 , 1,316577759,org.python.core.PyFloat$$$$$__cmp__,15032,24,0.000000,0.000000,0.125000,
5 , 1,316577866,org.python.core.PyObject$$$$$_eq,15032,52,0.000000,0.000000,0.125000,
5 , 1,316578088,org.python.core.PyDictionary$$$$$__finditem__,15032,79,0.000000,0.000000,0.125000,
5 , 1,316578096,org.python.core.PyDictionary$$$$$__finditem__,15032,79,0.000000,0.000000,0.125000,
5 , 1,316578341,org.python.core.PyObjectList$$$$$size,15032,8,0.000000,0.000000,0.125000,
5 , 1,316578678,org.python.core.PySequenceIter$$$$$__iternext__,15032,85,0.000000,0.000000,0.125000,
5 , 1,316579269,org.python.core.PyInstance$$$$$ifindlocal,15032,94,0.000000,0.000000,0.125000,
5 , 1,316579360,org.python.core.PyObject$$$$$_gt,15032,30,0.000000,0.000000,0.125000,
5 , 1,316579593,org.python.core.PyString$$$$$<init>,15032,73,0.000000,0.000000,0.125000,
5 , 1,316579601,org.python.core.PyStringMap$$$$$insertkey,15032,63,0.000000,0.000000,0.125000,
5 , 1,316579610,org.python.core.PyStringMap$$$$$insertkey,15032,63,0.000000,0.000000,0.125000,
5 , 1,316579836,org.python.core.PyString$$$$$toString,15032,56,0.000000,0.000000,0.125000,
5 , 1,316579988,org.python.core.imp$$$$$importOne,15032,113,0.000000,0.000000,0.125000,
5 , 1,316580079,org.python.core.PyFloat$$$$$canCoerce,15032,44,0.000000,0.000000,0.125000,
5 , 1,316580086,org.python.core.PyFloat$$$$$canCoerce,15032,44,0.000000,0.000000,0.125000,
5 , 1,316580201,org.python.core.PyFloat$$$$$canCoerce,15032,44,0.000000,0.000000,0.125000,
5 , 1,316580209,org.python.core.PyFloat$$$$$canCoerce,15032,44,0.000000,0.000000,0.125000,
5 , 1,316580398,org.python.core.PyFloat$$$$$canCoerce,15032,44,0.000000,0.000000,0.125000,
5 , 1,316580497,org.python.core.PyFloat$$$$$coerce,15032,27,0.000000,0.000000,0.125000,
5 , 1,316580603,org.python.core.Py$$$$$newInteger,15032,108,0.000000,0.000000,0.125000,
5 , 1,316580611,org.python.core.PyInteger$$$$$__sub__,15032,103,0.000000,0.000000,0.125000,
5 , 1,316580619,org.python.core.PyInteger$$$$$__sub__,15032,103,0.000000,0.000000,0.125000,
5 , 1,316580997,org.python.core.PyLong$$$$$canCoerce,15032,59,0.003540,0.000000,0.125000,
5 , 1,316581210,org.python.core.PySequenceList$$$$$getArray,15032,99,0.000000,0.000000,0.125000,
5 , 1,316581284,org.python.core.PyList$$$$$__len__,15032,91,0.000000,0.000000,0.125000,
5 , 1,316581677,org.python.core.PyXRange$$$$$getInt,15032,129,0.000000,0.000000,0.125000,
5 , 1,316581800,org.python.core.PyObject$$$$$getType,15032,65,0.000000,0.000000,0.125000,
5 , 1,316581808,org.python.core.PyBuiltinFunctionNarrow$$$$$<init>,15032,35,0.000000,0.000000,0.125000,
5 , 1,316581816,org.python.core.PyBuiltinFunctionNarrow$$$$$<init>,15032,35,0.000000,0.000000,0.125000,
5 , 1,316581824,org.python.core.PyObject$$$$$getType,15032,65,0.000000,0.000000,0.125000,
5 , 1,316582070,org.python.core.PyType$$$$$lookup,15032,18,0.000000,0.000000,0.125000,
5 , 1,316582086,org.python.core.PyObject$$$$$getType,15032,65,0.000000,0.000000,0.125000,
5 , 1,316582094,org.python.core.PyObject$$$$$getType,15032,65,0.000000,0.000000,0.125000,
5 , 1,316582234,org.python.core.PyType$$$$$lookup,15032,18,0.000000,0.000000,0.125000,
5 , 1,316582706,org.python.core.PyClass$$$$$lookup,15032,66,0.000000,0.000000,0.125000,
5 , 1,316582803,org.python.core.PySequence$$$$$seq___getslice__,15032,155,0.000000,0.000000,0.125000,
5 , 1,316582933,org.python.core.PyXRange$$$$$getInt,15032,129,0.000000,0.000000,0.125000,
5 , 1,316583103,org.python.core.PyObject$$$$$object___findattr__,15032,21,0.000000,0.000000,0.125000,
5 , 1,316583119,org.python.core.PyObject$$$$$getType,15032,65,0.000000,0.000000,0.125000,
5 , 1,316583184,org.python.core.PySequence$$$$$__finditem__,15032,88,0.000000,0.000000,0.125000,
5 , 1,316583266,org.python.core.PySequence$$$$$getStep,15032,150,0.000000,0.000000,0.125000,
5 , 2,316583416,org.python.parser.IntStack$$$$$pop,15032,3,0.000000,0.000000,0.125000,
5 , 2,316583424,org.python.parser.PythonGrammarTokenManager$$$$$jjCheckNAdd,15032,6,0.000000,0.000000,0.125000,
5 , 2,316583646,org.python.core.PyType$$$$$lookup,15032,18,0.000000,0.000000,0.125000,
5 , 2,316583663,org.python.core.PyBuiltinFunctionNarrow$$$$$<init>,15032,35,0.000000,0.000000,0.125000,
5 , 2,316583671,org.python.core.PyObject$$$$$object___findattr__,15032,21,0.000000,0.000000,0.125000,
5 , 2,316584228,org.python.core.PyLong$$$$$coerce,15032,152,0.000000,0.000000,0.125000,
5 , 2,316584269,org.python.core.PyString$$$$$__lt__,15032,57,0.000000,0.000000,0.125000,
5 , 2,316584432,org.python.core.PySequenceIter$$$$$__iternext__,15032,85,0.006836,0.000000,0.125000,
5 , 2,316584473,org.python.core.PyXRange$$$$$getInt,15032,129,0.003540,0.000000,0.125000,
5 , 2,316584551,org.python.core.PySequenceIter$$$$$__iternext__,15032,85,0.003418,0.000000,0.125000,
5 , 2,316584560,org.python.core.PySequenceIter$$$$$__iternext__,15032,85,0.003540,0.000000,0.125000,
5 , 2,316584717,org.python.core.PySequenceIter$$$$$__iternext__,15032,85,0.006836,0.000000,0.125000,
5 , 2,316584746,org.python.core.PyXRange$$$$$getInt,15032,129,0.000000,0.000000,0.125000,
5 , 2,316584781,org.python.core.PyXRange$$$$$getInt,15032,129,0.126465,0.000000,0.375000,
5 , 2,316584807,org.python.core.PySequenceIter$$$$$__iternext__,15032,85,0.003418,0.000000,0.125000,
5 , 2,316584816,org.python.core.PySequenceIter$$$$$__iternext__,15032,85,0.000000,0.000000,0.125000,
5 , 2,316584856,org.python.core.PySequenceIter$$$$$__iternext__,15032,85,0.003418,0.000000,0.125000,
5 , 2,316584865,org.python.core.PyXRange$$$$$getInt,15032,129,0.000000,0.000000,0.125000,
5 , 2,316584874,org.python.core.PyXRange$$$$$getInt,15032,129,0.003540,0.000000,0.125000,
5 , 2,316584915,org.python.core.PyXRange$$$$$getInt,15032,129,0.003418,0.000000,0.125000,
5 , 2,316584986,org.python.core.PyStringMap$$$$$resize,15032,68,0.000000,0.000000,0.125000,
5 , 2,316585027,org.python.core.PyStringMap$$$$$resize,15032,68,0.000000,0.000000,0.125000,
5 , 2,316585280,org.python.core.PyType$$$$$__call__,15032,71,0.000000,0.000000,0.125000,
5 , 2,316585371,org.python.core.PyXRange$$$$$getInt,15032,129,0.000000,0.000000,0.125000,
5 , 2,316585469,org.python.core.PyXRange$$$$$getInt,15032,129,0.000000,0.000000,0.125000,
5 , 2,316585478,org.python.core.PyXRange$$$$$getInt,15032,129,0.000000,0.000000,0.125000,
5 , 2,316585518,org.python.core.PyXRange$$$$$getInt,15032,129,0.000000,0.000000,0.125000,
5 , 2,316585621,org.python.core.PyXRange$$$$$getInt,15032,129,0.000000,0.000000,0.125000,
5 , 2,316585693,org.python.core.PyXRange$$$$$getInt,15032,129,0.000000,0.000000,0.125000,
5 , 2,316585710,org.python.core.PyInteger$$$$$hashCode,15032,34,0.000000,0.000000,0.125000,
5 , 2,316585842,org.python.core.PyFloat$$$$$hashCode,15032,80,0.000000,0.000000,0.125000,
5 , 2,316585956,org.python.core.PyObject$$$$$__getitem__,15032,84,0.000000,0.000000,0.125000,
5 , 2,316586162,org.python.core.PyObject$$$$$__getitem__,15032,84,0.000000,0.000000,0.125000,
5 , 2,316586268,org.python.core.PyObjectArray$$$$$get,15032,97,0.000000,0.000000,0.125000,
5 , 2,316586407,org.python.core.PySequenceIter$$$$$__iternext__,15032,85,0.000000,0.000000,0.125000,
5 , 2,316586424,org.python.core.PyInteger$$$$$__nonzero__,15032,92,0.000000,0.000000,0.125000,
5 , 2,316586629,org.python.core.PySequence$$$$$__finditem__,15032,88,0.000000,0.000000,0.125000,
5 , 2,316586811,org.python.core.PyXRange$$$$$getInt,15032,129,0.000000,0.000000,0.125000,
5 , 2,316586819,org.python.core.PySequenceIter$$$$$__iternext__,15032,85,0.003540,0.000000,0.125000,
5 , 2,316587143,org.python.core.PyTableCode$$$$$call,15032,101,0.000000,0.000000,0.125000,
5 , 2,316587322,org.python.core.PyInteger$$$$$__cmp__,15032,50,0.000000,0.000000,0.125000,
5 , 2,316587478,org.python.core.PyString$$$$$toString,15032,56,0.000000,0.000000,0.125000,
5 , 2,316587984,org.python.core.PyObject$$$$$_sub,15032,151,0.000000,0.000000,0.125000,
5 , 2,316588557,org.python.core.PyTuple$$$$$tuple___len__,15032,207,0.000000,0.000000,0.125000,
5 , 2,316588622,org.python.core.PyTuple$$$$$getslice,15032,158,0.000000,0.000000,0.125000,
5 , 2,316588655,org.python.core.PyTuple$$$$$tuple___len__,15032,207,0.000000,0.000000,0.125000,
5 , 2,316589367,org.python.core.PyBuiltinFunctionNarrow$$$$$<init>,15032,35,0.000000,0.000000,0.125000,
5 , 2,316589596,org.python.core.PyTuple$$$$$tuple___len__,15032,207,0.000000,0.000000,0.125000,
5 , 2,316589637,org.python.core.PySequenceIter$$$$$__iternext__,15032,85,0.000000,0.000000,0.125000,
5 , 2,316589662,org.python.core.PySequenceIter$$$$$__iternext__,15032,85,0.000000,0.000000,0.125000,
5 , 2,316589670,org.python.core.PyTuple$$$$$tuple___len__,15032,207,0.000000,0.000000,0.125000,
5 , 3,316590221,org.python.core.__builtin__$$$$$range,15032,45,0.000000,0.000000,0.125000,
5 , 3,316590229,org.python.core.PyInteger$$$$$__cmp__,15032,50,0.000000,0.000000,0.125000,
5 , 3,316590278,org.python.core.PyDictionary$1exposed_items$$$$$makeBound,15032,185,0.000000,0.000000,0.125000,
5 , 3,316590296,org.python.core.PyDictionary$1exposed_get$$$$$<init>,15032,184,0.000000,0.000000,0.125000,
5 , 3,316590426,org.python.core.PyInteger$$$$$__cmp__,15032,50,0.000000,0.000000,0.125000,
5 , 3,316590434,org.python.core.PyInteger$$$$$__cmp__,15032,50,0.000000,0.000000,0.125000,
5 , 3,316590639,org.python.core.PyLong$$$$$__cmp__,15032,187,0.000000,0.000000,0.125000,
5 , 3,316590689,org.python.core.PySequenceIter$$$$$__iternext__,15032,85,0.000000,0.000000,0.125000,
5 , 3,316590713,org.python.core.PySequenceIter$$$$$__iternext__,15032,85,0.000000,0.000000,0.125000,
5 , 3,316590738,org.python.core.PySequenceIter$$$$$__iternext__,15032,85,0.000000,0.000000,0.125000,
5 , 3,316590746,org.python.core.PySequenceIter$$$$$__iternext__,15032,85,0.000000,0.000000,0.125000,
5 , 3,316591634,org.python.core.PySequenceIter$$$$$__iternext__,15032,85,0.000000,0.000000,0.125000,
5 , 3,316591708,org.python.core.PySequenceIter$$$$$__iternext__,15032,85,0.000000,0.000000,0.125000,
5 , 3,316591908,org.python.core.PySequenceIter$$$$$__iternext__,15032,85,0.000000,0.000000,0.125000,
5 , 3,316591949,org.python.core.PyInteger$$$$$hashCode,15032,34,0.000000,0.000000,0.125000,
5 , 3,316591990,org.python.core.PyInteger$$$$$hashCode,15032,34,0.000000,0.000000,0.125000,
5 , 3,316592080,org.python.core.PyFloat$$$$$hashCode,15032,80,0.000000,0.000000,0.125000,
5 , 3,316592326,org.python.core.PyString$$$$$hashCode,15032,195,0.000000,0.000000,0.125000,
5 , 3,316592408,org.python.core.PyList$$$$$__len__,15032,91,0.000000,0.000000,0.125000,
5 , 3,316592449,org.python.core.PySequenceIter$$$$$__iternext__,15032,85,0.000000,0.000000,0.125000,
5 , 3,316592679,org.python.core.PySequenceIter$$$$$__iternext__,15032,85,0.000000,0.000000,0.125000,
5 , 3,316592728,org.python.core.PySequence$$$$$__finditem__,15032,88,0.000000,0.000000,0.125000,
5 , 3,316592819,org.python.core.PySequenceIter$$$$$__iternext__,15032,85,0.000000,0.000000,0.125000,
5 , 3,316592826,org.python.core.PySequenceIter$$$$$__iternext__,15032,85,0.000000,0.000000,0.125000,
5 , 3,316593065,org.python.core.PyObject$$$$$__call__,15032,104,0.000000,0.000000,0.125000,
5 , 3,316593122,Calls$py$$$$$f$28,15032,112,0.000000,0.000000,0.125000,
5 , 3,316593172,Calls$py$$$$$f$28,15032,112,0.000000,0.000000,0.125000,
5 , 3,316593687,org.python.core.PyComplex$$$$$_mul,15032,130,0.000000,0.000000,0.125000,
5 , 3,316593728,org.python.core.PyInteger$$$$$hashCode,15032,34,0.000000,0.000000,0.125000,
5 , 3,316593851,org.python.core.PyFloat$$$$$float___div__,15032,131,0.000000,0.000000,0.125000,
5 , 3,316593925,org.python.core.PyInteger$$$$$__div__,15032,138,0.000000,0.000000,0.125000,
5 , 3,316594260,org.python.core.PySequence$$$$$getStep,15032,150,0.000000,0.000000,0.125000,
5 , 3,316594523,org.python.core.PySequenceIter$$$$$__iternext__,15032,85,0.178589,0.000000,0.500000,
5 , 3,316594524,org.python.core.PySequenceIter$$$$$__iternext__,15032,85,0.000000,0.000000,0.125000,
5 , 3,316594533,org.python.core.PySequenceIter$$$$$__iternext__,15032,85,0.000000,0.000000,0.125000,
5 , 3,316594541,org.python.core.PySequenceIter$$$$$__iternext__,15032,85,0.000000,0.000000,0.125000,
5 , 3,316594549,org.python.core.PySequenceIter$$$$$__iternext__,15032,85,0.000000,0.000000,0.125000,
5 , 3,316594621,org.python.core.PyString$1exposed_lower$$$$$__call__,15032,222,0.000000,0.000000,0.125000,
5 , 3,316594629,org.python.core.PyBuiltinFunctionNarrow$$$$$<init>,15032,35,0.000000,0.000000,0.125000,
5 , 3,316594810,org.python.core.PyBuiltinFunctionNarrow$$$$$<init>,15032,35,0.000000,0.000000,0.125000,
5 , 3,316594843,org.python.core.PyBuiltinFunctionNarrow$$$$$<init>,15032,35,0.000000,0.000000,0.125000,
5 , 3,316595210,org.python.core.Py$$$$$setException,15032,174,0.000000,0.000000,0.125000,
5 , 3,316595448,org.python.core.PySequenceIter$$$$$__iternext__,15032,85,0.000000,0.000000,0.125000,
5 , 3,316595474,org.python.core.PyString$$$$$str_title,15032,159,0.000000,0.000000,0.125000,
5 , 4,316595840,org.python.parser.ReaderCharStream$$$$$readChar,15032,15,0.000000,0.000000,0.125000,
5 , 4,316595889,org.python.core.__builtin__$$$$$cmp,15032,36,0.000000,0.000000,0.125000,
5 , 4,316595897,org.python.core.PySequenceIter$$$$$__iternext__,15032,85,0.000000,0.000000,0.125000,
5 , 4,316596131,org.python.core.PySequenceIter$$$$$__iternext__,15032,85,0.000000,0.000000,0.125000,
5 , 4,316596147,org.python.core.PyString$$$$$toString,15032,56,0.000000,0.000000,0.125000,
5 , 4,316596179,org.python.core.PyString$$$$$toString,15032,56,0.000000,0.000000,0.125000,
5 , 4,316596360,org.python.core.PySequenceIter$$$$$__iternext__,15032,85,0.000000,0.000000,0.125000,
5 , 4,316596392,org.python.core.PySequenceIter$$$$$__iternext__,15032,85,0.000000,0.000000,0.125000,
5 , 4,316596443,org.python.core.PySequenceIter$$$$$__iternext__,15032,85,0.003418,0.000000,0.125000,
5 , 4,316596453,org.python.core.PySequenceIter$$$$$__iternext__,15032,85,0.003540,0.000000,0.125000,
5 , 4,316596498,org.python.core.PySequenceIter$$$$$__iternext__,15032,85,0.161499,0.000000,0.500000,
5 , 4,316596513,org.python.core.PySequenceIter$$$$$__iternext__,15032,85,0.003540,0.000000,0.125000,
5 , 4,316596551,org.python.core.PySequenceIter$$$$$__iternext__,15032,85,0.000000,0.000000,0.125000,
5 , 4,316596561,org.python.core.PySequenceIter$$$$$__iternext__,15032,85,0.000000,0.000000,0.125000,
5 , 4,316596580,org.python.core.PySequenceIter$$$$$__iternext__,15032,85,0.000000,0.000000,0.125000,
5 , 4,316596591,org.python.core.PySequenceIter$$$$$__iternext__,15032,85,0.000000,0.000000,0.125000,
5 , 4,316596600,org.python.core.PySequenceIter$$$$$__iternext__,15032,85,0.000000,0.000000,0.125000,
5 , 4,316596611,org.python.core.PySequenceIter$$$$$__iternext__,15032,85,0.000000,0.000000,0.125000,
5 , 4,316596653,org.python.core.PySequenceIter$$$$$__iternext__,15032,85,0.172363,0.000000,0.375000,
5 , 4,316596654,org.python.core.PySequenceIter$$$$$__iternext__,15032,85,0.003540,0.000000,0.125000,
5 , 4,316596664,org.python.core.PySequenceIter$$$$$__iternext__,15032,85,0.003540,0.000000,0.125000,
5 , 4,316596692,org.python.core.PySequenceIter$$$$$__iternext__,15032,85,0.003540,0.000000,0.125000,
5 , 4,316596703,org.python.core.PySequenceIter$$$$$__iternext__,15032,85,0.003540,0.000000,0.125000,
5 , 4,316596714,org.python.core.PySequenceIter$$$$$__iternext__,15032,85,0.003540,0.000000,0.125000,
5 , 4,316596743,org.python.core.PySequenceIter$$$$$__iternext__,15032,85,0.000000,0.000000,0.125000,
5 , 4,316596763,org.python.core.PySequenceIter$$$$$__iternext__,15032,85,0.000000,0.000000,0.125000,
5 , 4,316596773,org.python.core.PySequenceIter$$$$$__iternext__,15032,85,0.000000,0.000000,0.125000,
5 , 4,316596814,org.python.core.PySequenceIter$$$$$__iternext__,15032,85,0.127197,0.000000,0.375000,
5 , 4,316596817,org.python.core.PySequenceIter$$$$$__iternext__,15032,85,0.006836,0.000000,0.125000,
5 , 4,316596827,org.python.core.PySequenceIter$$$$$__iternext__,15032,85,0.003418,0.000000,0.125000,
5 , 4,316596868,org.python.core.PySequenceIter$$$$$__iternext__,15032,85,0.003540,0.000000,0.125000,
5 , 4,316596940,Instances$py$$$$$__init__$7,15032,229,0.000000,0.000000,0.125000,
5 , 4,316597020,org.python.core.PyObject$$$$$getType,15032,65,0.000000,0.000000,0.125000,
5 , 4,316597208,org.python.core.PySequenceIter$$$$$__iternext__,15032,85,0.000000,0.000000,0.125000,
5 , 4,316597217,org.python.core.PySequenceIter$$$$$__iternext__,15032,85,0.000000,0.000000,0.125000,
5 , 4,316597248,org.python.core.PySequenceIter$$$$$__iternext__,15032,85,0.000000,0.000000,0.125000,
5 , 4,316597280,org.python.core.PySequenceIter$$$$$__iternext__,15032,85,0.000000,0.000000,0.125000,
5 , 4,316597291,org.python.core.PySequenceIter$$$$$__iternext__,15032,85,0.000000,0.000000,0.125000,
5 , 4,316597399,org.python.core.PySequenceIter$$$$$__iternext__,15032,85,0.000000,0.000000,0.125000,
5 , 4,316597409,org.python.core.PySequenceIter$$$$$__iternext__,15032,85,0.000000,0.000000,0.125000,
5 , 4,316597442,org.python.core.PySequenceIter$$$$$__iternext__,15032,85,0.000000,0.000000,0.125000,
5 , 4,316597465,org.python.core.PySequenceIter$$$$$__iternext__,15032,85,0.000000,0.000000,0.125000,
5 , 4,316597475,org.python.core.PySequenceIter$$$$$__iternext__,15032,85,0.000000,0.000000,0.125000,
5 , 4,316597800,org.python.core.PyInteger$$$$$hashCode,15032,34,0.000000,0.000000,0.125000,
5 , 4,316597857,org.python.core.PyString$$$$$hashCode,15032,195,0.000000,0.000000,0.125000,
5 , 4,316597938,org.python.core.PySequenceIter$$$$$__iternext__,15032,85,0.000000,0.000000,0.125000,
5 , 4,316597971,org.python.core.PySequenceIter$$$$$__iternext__,15032,85,0.000000,0.000000,0.125000,
5 , 4,316598151,org.python.core.PySequenceIter$$$$$__iternext__,15032,85,0.000000,0.000000,0.125000,
5 , 4,316598267,org.python.core.PySequenceIter$$$$$__iternext__,15032,85,0.000000,0.000000,0.125000,
5 , 4,316598471,Calls$py$$$$$j$19,15032,200,0.000000,0.000000,0.125000,
5 , 4,316598569,org.python.core.PyTableCode$$$$$call,15032,101,0.000000,0.000000,0.125000,
5 , 4,316598688,org.python.core.PyTableCode$$$$$call,15032,101,0.000000,0.000000,0.125000,
5 , 4,316599244,org.python.core.PyFloat$$$$$__add__,15032,241,0.000000,0.000000,0.125000,
5 , 4,316599310,org.python.core.PyInteger$$$$$coerce,15032,132,0.000000,0.000000,0.125000,
5 , 4,316599514,org.python.core.PyLong$$$$$coerce,15032,152,0.000000,0.000000,0.125000,
5 , 4,316599587,org.python.core.PySequence$$$$$getStep,15032,150,0.000000,0.000000,0.125000,
5 , 4,316599727,org.python.core.PyTuple$$$$$tuple___len__,15032,207,0.000000,0.000000,0.125000,
5 , 4,316599866,org.python.core.PySequenceIter$$$$$__iternext__,15032,85,0.000000,0.000000,0.125000,
5 , 4,316599898,org.python.core.PyString$$$$$str_title,15032,159,0.000000,0.000000,0.125000,
5 , 4,316600159,org.python.core.PyString$$$$$str_title,15032,159,0.000000,0.000000,0.125000,
5 , 4,316600168,org.python.core.PyString$$$$$str_title,15032,159,0.000000,0.000000,0.125000,
5 , 4,316600250,org.python.core.PyString$$$$$str_title,15032,159,0.000000,0.000000,0.125000,
5 , 4,316600316,org.python.core.PyString$$$$$str_istitle,15032,172,0.000000,0.000000,0.125000,
5 , 4,316600487,org.python.core.PyString$$$$$__len__,15032,224,0.000000,0.000000,0.125000,
5 , 4,316600504,org.python.core.PySequenceIter$$$$$__iternext__,15032,85,0.000000,0.000000,0.125000,
5 , 4,316600611,org.python.core.PyTuple$$$$$__len__,15032,274,0.000000,0.000000,0.125000,
5 , 4,316600912,org.python.core.PyString$1exposed_upper$$$$$__call__,15032,279,0.000000,0.000000,0.125000,
5 , 4,316600929,org.python.core.PyString$$$$$str_istitle,15032,172,0.000000,0.000000,0.125000,
5 , 4,316600995,org.python.core.PyString$$$$$str_istitle,15032,172,0.000000,0.000000,0.125000,
5 , 4,316601060,org.python.core.PyString$$$$$__len__,15032,224,0.000000,0.000000,0.125000,
5 , 5,316601133,org.python.compiler.ConstantPool$$$$$addConstant,15032,4,0.000000,0.000000,0.125000,
5 , 5,316601231,org.python.core.PyList$1exposed_append$$$$$makeBound,15032,25,0.000000,0.000000,0.125000,
5 , 5,316601306,org.python.core.PyFloat$$$$$__cmp__,15032,24,0.000000,0.000000,0.125000,
5 , 5,316601372,org.python.core.PySequenceIter$$$$$__iternext__,15032,85,0.000000,0.000000,0.125000,
5 , 5,316601380,org.python.core.PySequenceIter$$$$$__iternext__,15032,85,0.000000,0.000000,0.125000,
5 , 5,316601387,org.python.core.PySequenceIter$$$$$__iternext__,15032,85,0.000000,0.000000,0.125000,
5 , 5,316601395,org.python.core.PyString$$$$$toString,15032,56,0.000000,0.000000,0.125000,
5 , 5,316601550,org.python.core.PySequenceIter$$$$$__iternext__,15032,85,0.015564,0.000000,0.125000,
5 , 5,316601617,org.python.core.PySequenceIter$$$$$__iternext__,15032,85,0.000000,0.000000,0.125000,
5 , 5,316601625,org.python.core.PySequenceIter$$$$$__iternext__,15032,85,0.000000,0.000000,0.125000,
5 , 5,316601633,org.python.core.PySequenceIter$$$$$__iternext__,15032,85,0.000000,0.000000,0.125000,
5 , 5,316601692,org.python.core.PySequenceIter$$$$$__iternext__,15032,85,0.000000,0.000000,0.125000,
5 , 5,316601747,org.python.core.PySequenceIter$$$$$__iternext__,15032,85,0.003540,0.000000,0.125000,
5 , 5,316601761,org.python.core.PySequenceIter$$$$$__iternext__,15032,85,0.003540,0.000000,0.125000,
5 , 5,316601769,org.python.core.PySequenceIter$$$$$__iternext__,15032,85,0.003540,0.000000,0.125000,
5 , 5,316601783,org.python.core.PySequenceIter$$$$$__iternext__,15032,85,0.003540,0.000000,0.125000,
5 , 5,316601797,org.python.core.PySequenceIter$$$$$__iternext__,15032,85,0.000000,0.000000,0.125000,
5 , 5,316601804,org.python.core.PySequenceIter$$$$$__iternext__,15032,85,0.000000,0.000000,0.125000,
5 , 5,316601811,org.python.core.PySequenceIter$$$$$__iternext__,15032,85,0.000000,0.000000,0.125000,
5 , 5,316601819,org.python.core.PySequenceIter$$$$$__iternext__,15032,85,0.000000,0.000000,0.125000,
5 , 5,316601833,org.python.core.PySequenceIter$$$$$__iternext__,15032,85,0.000000,0.000000,0.125000,
5 , 5,316601840,org.python.core.PySequenceIter$$$$$__iternext__,15032,85,0.000000,0.000000,0.125000,
5 , 5,316601854,org.python.core.PySequenceIter$$$$$__iternext__,15032,85,0.000000,0.000000,0.125000,
5 , 5,316601862,org.python.core.PySequenceIter$$$$$__iternext__,15032,85,0.000000,0.000000,0.125000,
5 , 5,316601905,org.python.core.PySequenceIter$$$$$__iternext__,15032,85,0.147522,0.000000,0.750000,
5 , 5,316601916,org.python.core.PySequenceIter$$$$$__iternext__,15032,85,0.000000,0.000000,0.125000,
5 , 5,316601930,org.python.core.PySequenceIter$$$$$__iternext__,15032,85,0.003418,0.000000,0.125000,
5 , 5,316601942,org.python.core.PySequenceIter$$$$$__iternext__,15032,85,0.003540,0.000000,0.125000,
5 , 5,316601956,org.python.core.PySequenceIter$$$$$__iternext__,15032,85,0.000000,0.000000,0.125000,
5 , 5,316601970,org.python.core.PySequenceIter$$$$$__iternext__,15032,85,0.003540,0.000000,0.125000,
5 , 5,316601977,org.python.core.PySequenceIter$$$$$__iternext__,15032,85,0.000000,0.000000,0.125000,
5 , 5,316601992,org.python.core.PySequenceIter$$$$$__iternext__,15032,85,0.000000,0.000000,0.125000,
5 , 5,316602006,org.python.core.PySequenceIter$$$$$__iternext__,15032,85,0.000000,0.000000,0.125000,
5 , 5,316602013,org.python.core.PySequenceIter$$$$$__iternext__,15032,85,0.000000,0.000000,0.125000,
5 , 5,316602027,org.python.core.PySequenceIter$$$$$__iternext__,15032,85,0.000000,0.000000,0.125000,
5 , 5,316602077,org.python.core.PySequenceIter$$$$$__iternext__,15032,85,0.003540,0.000000,0.125000,
5 , 5,316602084,org.python.core.PySequenceIter$$$$$__iternext__,15032,85,0.006836,0.000000,0.125000,
5 , 5,316602099,org.python.core.PySequenceIter$$$$$__iternext__,15032,85,0.006836,0.000000,0.125000,
5 , 5,316602107,org.python.core.PySequenceIter$$$$$__iternext__,15032,85,0.003540,0.000000,0.125000,
5 , 5,316602122,org.python.core.PySequenceIter$$$$$__iternext__,15032,85,0.003540,0.000000,0.125000,
5 , 5,316602137,org.python.core.PySequenceIter$$$$$__iternext__,15032,85,0.003540,0.000000,0.125000,
5 , 5,316602144,org.python.core.PySequenceIter$$$$$__iternext__,15032,85,0.003540,0.000000,0.125000,
5 , 5,316602486,org.python.core.PySequenceIter$$$$$__iternext__,15032,85,0.000000,0.000000,0.125000,
5 , 5,316602494,org.python.core.PySequenceIter$$$$$__iternext__,15032,85,0.000000,0.000000,0.125000,
5 , 5,316602501,org.python.core.PySequenceIter$$$$$__iternext__,15032,85,0.000000,0.000000,0.125000,
5 , 5,316602509,org.python.core.PySequenceIter$$$$$__iternext__,15032,85,0.000000,0.000000,0.125000,
5 , 5,316602518,org.python.core.PySequenceIter$$$$$__iternext__,15032,85,0.000000,0.000000,0.125000,
5 , 5,316602525,org.python.core.PySequenceIter$$$$$__iternext__,15032,85,0.000000,0.000000,0.125000,
5 , 5,316602616,org.python.core.PySequenceIter$$$$$__iternext__,15032,85,0.003540,0.000000,0.125000,
5 , 5,316602625,org.python.core.PySequenceIter$$$$$__iternext__,15032,85,0.000000,0.000000,0.125000,
5 , 5,316602634,org.python.core.PySequenceIter$$$$$__iternext__,15032,85,0.000000,0.000000,0.125000,
5 , 5,316602642,org.python.core.PySequenceIter$$$$$__iternext__,15032,85,0.000000,0.000000,0.125000,
5 , 5,316602705,org.python.core.PySequenceIter$$$$$__iternext__,15032,85,0.000000,0.000000,0.125000,
5 , 5,316602715,org.python.core.PySequenceIter$$$$$__iternext__,15032,85,0.000000,0.000000,0.125000,
5 , 5,316602842,org.python.core.PyInteger$$$$$hashCode,15032,34,0.000000,0.000000,0.125000,
5 , 5,316602892,org.python.core.PyFloat$$$$$hashCode,15032,80,0.000000,0.000000,0.125000,
5 , 5,316602990,org.python.core.PyObject$$$$$equals,15032,78,0.000000,0.000000,0.125000,
5 , 5,316603325,org.python.core.PyInteger$$$$$__nonzero__,15032,92,0.000000,0.000000,0.125000,
5 , 5,316603496,org.python.core.PySequenceIter$$$$$__iternext__,15032,85,0.000000,0.000000,0.125000,
5 , 5,316603531,org.python.core.PySequenceIter$$$$$__iternext__,15032,85,0.000000,0.000000,0.125000,
5 , 5,316603564,org.python.core.PySequenceIter$$$$$__iternext__,15032,85,0.000000,0.000000,0.125000,
5 , 5,316603832,org.python.core.PyTableCode$$$$$call,15032,101,0.000000,0.000000,0.125000,
5 , 5,316604503,org.python.core.PyInteger$$$$$int___mul__,15032,210,0.000000,0.000000,0.125000,
5 , 5,316604666,org.python.core.PyList$1exposed_append$$$$$__call__,15032,271,0.000000,0.000000,0.125000,
5 , 5,316604731,org.python.core.PyLong$$$$$coerce,15032,152,0.000000,0.000000,0.125000,
5 , 5,316604822,org.python.core.PySequence$$$$$getStop,15032,244,0.000000,0.000000,0.125000,
5 , 5,316604961,org.python.core.PyTuple$$$$$__len__,15032,274,0.000000,0.000000,0.125000,
5 , 5,316605130,org.python.core.PySequenceIter$$$$$__iternext__,15032,85,0.000000,0.000000,0.125000,
5 , 5,316605139,org.python.core.PySequenceIter$$$$$__iternext__,15032,85,0.000000,0.000000,0.125000,
5 , 5,316605204,org.python.core.PyString$1exposed_upper$$$$$__call__,15032,279,0.000000,0.000000,0.125000,
5 , 5,316605522,org.python.core.PyString$$$$$_isalnum,15032,221,0.000000,0.000000,0.125000,
5 , 5,316605620,org.python.core.PyString$1exposed_isalnum$$$$$<init>,15032,286,0.000000,0.000000,0.125000,
5 , 5,316605628,org.python.core.PySequenceIter$$$$$__iternext__,15032,85,0.000000,0.000000,0.125000,
5 , 5,316605637,org.python.core.PySequenceIter$$$$$__iternext__,15032,85,0.000000,0.000000,0.125000,
5 , 5,316605701,org.python.core.PySequenceIter$$$$$__iternext__,15032,85,0.000000,0.000000,0.125000,
5 , 5,316605939,org.python.core.PyTuple$$$$$__len__,15032,274,0.000000,0.000000,0.125000,
5 , 5,316606012,org.python.core.PyString$1exposed_upper$$$$$<init>,15032,298,0.000000,0.000000,0.125000,
5 , 5,316606021,org.python.core.PyString$1exposed_upper$$$$$<init>,15032,298,0.000000,0.000000,0.125000,
5 , 5,316606104,org.python.core.PyString$1exposed_upper$$$$$<init>,15032,298,0.000000,0.000000,0.125000,
5 , 6,316606367,org.python.core.__builtin__$$$$$cmp,15032,36,0.000000,0.000000,0.125000,
5 , 6,316606474,org.python.core.PyFloat$$$$$__cmp__,15032,24,0.000000,0.000000,0.125000,
5 , 6,316606538,org.python.core.PySequenceIter$$$$$__iternext__,15032,85,0.000000,0.000000,0.125000,
5 , 6,316606547,org.python.core.PySequenceIter$$$$$__iternext__,15032,85,0.000000,0.000000,0.125000,
5 , 6,316606726,org.python.core.PySequenceIter$$$$$__iternext__,15032,85,0.000000,0.000000,0.125000,
5 , 6,316606790,org.python.core.PySequenceIter$$$$$__iternext__,15032,85,0.000000,0.000000,0.125000,
5 , 6,316606881,org.python.core.PySequenceIter$$$$$__iternext__,15032,85,0.000000,0.000000,0.125000,
5 , 6,316606913,org.python.core.ArgParser$$$$$check,15032,223,0.000000,0.000000,0.125000,
5 , 6,316606926,org.python.core.PySequenceIter$$$$$__iternext__,15032,85,0.000000,0.000000,0.125000,
5 , 6,316606933,org.python.core.PySequenceIter$$$$$__iternext__,15032,85,0.003418,0.000000,0.125000,
5 , 6,316606946,org.python.core.PySequenceIter$$$$$__iternext__,15032,85,0.000000,0.000000,0.125000,
5 , 6,316606960,org.python.core.PySequenceIter$$$$$__iternext__,15032,85,0.000000,0.000000,0.125000,
5 , 6,316606973,org.python.core.PySequenceIter$$$$$__iternext__,15032,85,0.000000,0.000000,0.125000,
5 , 6,316606986,org.python.core.PySequenceIter$$$$$__iternext__,15032,85,0.003540,0.000000,0.125000,
5 , 6,316607001,org.python.core.PySequenceIter$$$$$__iternext__,15032,85,0.000000,0.000000,0.125000,
5 , 6,316607014,org.python.core.PySequenceIter$$$$$__iternext__,15032,85,0.003540,0.000000,0.125000,
5 , 6,316607019,org.python.core.PySequenceIter$$$$$__iternext__,15032,85,0.000000,0.000000,0.125000,
5 , 6,316607033,org.python.core.PySequenceIter$$$$$__iternext__,15032,85,0.000000,0.000000,0.125000,
5 , 6,316607040,org.python.core.PySequenceIter$$$$$__iternext__,15032,85,0.000000,0.000000,0.125000,
5 , 6,316607046,org.python.core.PySequenceIter$$$$$__iternext__,15032,85,0.000000,0.000000,0.125000,
5 , 6,316607112,org.python.core.PySequenceIter$$$$$__iternext__,15032,85,0.003540,0.000000,0.125000,
5 , 6,316607120,org.python.core.PySequenceIter$$$$$__iternext__,15032,85,0.000000,0.000000,0.125000,
5 , 6,316607144,org.python.core.PySequenceIter$$$$$__iternext__,15032,85,0.003540,0.000000,0.125000,
5 , 6,316607160,org.python.core.PySequenceIter$$$$$__iternext__,15032,85,0.000000,0.000000,0.125000,
5 , 6,316607168,org.python.core.PySequenceIter$$$$$__iternext__,15032,85,0.003418,0.000000,0.125000,
5 , 6,316607183,org.python.core.PySequenceIter$$$$$__iternext__,15032,85,0.000000,0.000000,0.125000,
5 , 6,316607191,org.python.core.PySequenceIter$$$$$__iternext__,15032,85,0.000000,0.000000,0.125000,
5 , 6,316607198,org.python.core.PySequenceIter$$$$$__iternext__,15032,85,0.003418,0.000000,0.125000,
5 , 6,316607214,org.python.core.PySequenceIter$$$$$__iternext__,15032,85,0.003418,0.000000,0.125000,
5 , 6,316607229,org.python.core.PySequenceIter$$$$$__iternext__,15032,85,0.000000,0.000000,0.125000,
5 , 6,316607237,org.python.core.PySequenceIter$$$$$__iternext__,15032,85,0.000000,0.000000,0.125000,
5 , 6,316607245,org.python.core.PySequenceIter$$$$$__iternext__,15032,85,0.000000,0.000000,0.125000,
5 , 6,316607303,org.python.core.PySequenceIter$$$$$__iternext__,15032,85,0.007080,0.000000,0.125000,
5 , 6,316607311,org.python.core.PySequenceIter$$$$$__iternext__,15032,85,0.000000,0.000000,0.125000,
5 , 6,316607325,org.python.core.PySequenceIter$$$$$__iternext__,15032,85,0.000000,0.000000,0.125000,
5 , 6,316607340,org.python.core.PySequenceIter$$$$$__iternext__,15032,85,0.000000,0.000000,0.125000,
5 , 6,316607347,org.python.core.PySequenceIter$$$$$__iternext__,15032,85,0.000000,0.000000,0.125000,
5 , 6,316607361,org.python.core.PySequenceIter$$$$$__iternext__,15032,85,0.003540,0.000000,0.125000,
5 , 6,316607376,org.python.core.PySequenceIter$$$$$__iternext__,15032,85,0.003418,0.000000,0.125000,
5 , 6,316607383,org.python.core.PySequenceIter$$$$$__iternext__,15032,85,0.000000,0.000000,0.125000,
5 , 6,316607700,org.python.core.PySequenceIter$$$$$__iternext__,15032,85,0.000000,0.000000,0.125000,
5 , 6,316607708,org.python.core.PySequenceIter$$$$$__iternext__,15032,85,0.000000,0.000000,0.125000,
5 , 6,316607715,org.python.core.PySequenceIter$$$$$__iternext__,15032,85,0.000000,0.000000,0.125000,
5 , 6,316607723,org.python.core.PySequenceIter$$$$$__iternext__,15032,85,0.000000,0.000000,0.125000,
5 , 6,316607731,org.python.core.PySequenceIter$$$$$__iternext__,15032,85,0.006348,0.000000,0.125000,
5 , 6,316607739,org.python.core.PySequenceIter$$$$$__iternext__,15032,85,0.000000,0.000000,0.125000,
5 , 6,316607748,org.python.core.PySequenceIter$$$$$__iternext__,15032,85,0.000000,0.000000,0.125000,
5 , 6,316607756,org.python.core.PySequenceIter$$$$$__iternext__,15032,85,0.000000,0.000000,0.125000,
5 , 6,316607764,org.python.core.PySequenceIter$$$$$__iternext__,15032,85,0.000000,0.000000,0.125000,
5 , 6,316607772,org.python.core.PySequenceIter$$$$$__iternext__,15032,85,0.000000,0.000000,0.125000,
5 , 6,316607818,org.python.core.PySequenceIter$$$$$__iternext__,15032,85,0.011719,0.000000,0.125000,
5 , 6,316607838,org.python.core.PySequenceIter$$$$$__iternext__,15032,85,0.000000,0.000000,0.125000,
5 , 6,316607845,org.python.core.PySequenceIter$$$$$__iternext__,15032,85,0.000000,0.000000,0.125000,
5 , 6,316607878,org.python.core.PySequenceIter$$$$$__iternext__,15032,85,0.000000,0.000000,0.125000,
5 , 6,316607885,org.python.core.PySequenceIter$$$$$__iternext__,15032,85,0.000000,0.000000,0.125000,
5 , 6,316607918,org.python.core.PySequenceIter$$$$$__iternext__,15032,85,0.000000,0.000000,0.125000,
5 , 6,316607925,org.python.core.PySequenceIter$$$$$__iternext__,15032,85,0.000000,0.000000,0.125000,
5 , 6,316607944,org.python.core.PySequenceIter$$$$$__iternext__,15032,85,0.000000,0.000000,0.125000,
5 , 6,316607950,org.python.core.PySequenceIter$$$$$__iternext__,15032,85,0.000000,0.000000,0.125000,
5 , 6,316607977,org.python.core.PySequenceIter$$$$$__iternext__,15032,85,0.000000,0.000000,0.125000,
5 , 6,316607984,org.python.core.PySequenceIter$$$$$__iternext__,15032,85,0.000000,0.000000,0.125000,
5 , 6,316607998,org.python.core.PySequenceIter$$$$$__iternext__,15032,85,0.000000,0.000000,0.125000,
5 , 6,316608011,org.python.core.PySequenceIter$$$$$__iternext__,15032,85,0.000000,0.000000,0.125000,
5 , 6,316608031,org.python.core.PySequenceIter$$$$$__iternext__,15032,85,0.000000,0.000000,0.125000,
5 , 6,316608045,org.python.core.PySequenceIter$$$$$__iternext__,15032,85,0.000000,0.000000,0.125000,
5 , 6,316608058,org.python.core.PySequenceIter$$$$$__iternext__,15032,85,0.000000,0.000000,0.125000,
5 , 6,316608233,org.python.core.PyObject$$$$$equals,15032,78,0.000000,0.000000,0.125000,
5 , 6,316608380,org.python.core.PyString$$$$$equals,15032,267,0.000000,0.000000,0.125000,
5 , 6,316608543,org.python.core.PyInteger$$$$$__nonzero__,15032,92,0.000000,0.000000,0.125000,
5 , 6,316608584,org.python.core.PyList$$$$$getslice,15032,243,0.000000,0.000000,0.125000,
5 , 6,316608666,org.python.core.PySequenceIter$$$$$__iternext__,15032,85,0.000000,0.000000,0.125000,
5 , 6,316608732,org.python.core.PySequenceIter$$$$$__iternext__,15032,85,0.000000,0.000000,0.125000,
5 , 6,316608739,org.python.core.PySequenceIter$$$$$__iternext__,15032,85,0.000000,0.000000,0.125000,
5 , 6,316609225,org.python.core.PyFrame$$$$$getf_locals,15032,203,0.000000,0.000000,0.125000,
5 , 6,316609233,org.python.core.imp$$$$$import_name,15032,204,0.000000,0.000000,0.125000,
5 , 6,316609291,org.python.core.imp$$$$$getParent,15032,206,0.000000,0.000000,0.125000,
5 , 6,316609356,org.python.core.imp$$$$$getParent,15032,206,0.000000,0.000000,0.125000,
5 , 6,316609471,org.python.core.PyFrame$$$$$getf_locals,15032,203,0.000000,0.000000,0.125000,
5 , 6,316609479,org.python.core.PyComplex$$$$$coerce,15032,242,0.000000,0.000000,0.125000,
5 , 6,316609692,org.python.core.PyInteger$$$$$int___mul__,15032,210,0.000000,0.000000,0.125000,
5 , 6,316609716,org.python.core.PyInteger$$$$$int___mul__,15032,210,0.000000,0.000000,0.125000,
5 , 6,316609724,org.python.core.PyInteger$$$$$__add__,15032,139,0.000000,0.000000,0.125000,
5 , 6,316609741,org.python.core.PyInteger$$$$$int___mul__,15032,210,0.000000,0.000000,0.125000,
5 , 6,316610019,org.python.core.Py$$$$$unpackSequence,15032,250,0.000000,0.000000,0.125000,
5 , 6,316610182,org.python.core.PySequenceIter$$$$$__iternext__,15032,85,0.000000,0.000000,0.125000,
5 , 6,316610191,org.python.core.PySequenceIter$$$$$__iternext__,15032,85,0.000000,0.000000,0.125000,
5 , 6,316610199,org.python.core.PySequenceIter$$$$$__iternext__,15032,85,0.000000,0.000000,0.125000,
5 , 6,316610208,org.python.core.PySequenceIter$$$$$__iternext__,15032,85,0.000000,0.000000,0.125000,
5 , 6,316610371,org.python.core.PyString$1exposed_title$$$$$makeBound,15032,317,0.000000,0.000000,0.125000,
5 , 6,316610486,org.python.core.PyString$$$$$str_title,15032,159,0.000000,0.000000,0.125000,
5 , 6,316610494,org.python.core.PyString$1exposed_title$$$$$makeBound,15032,317,0.000000,0.000000,0.125000,
5 , 6,316611089,org.python.core.PyTuple$$$$$__len__,15032,274,0.000000,0.000000,0.125000,
5 , 6,316611147,org.python.core.PyString$$$$$str_title,15032,159,0.000000,0.000000,0.125000,
5 , 6,316611163,org.python.core.PyString$1exposed_upper$$$$$makeBound,15032,322,0.000000,0.000000,0.125000,
5 , 7,316611945,org.python.core.PySequenceIter$$$$$__iternext__,15032,85,0.003418,0.000000,0.125000,
5 , 7,316611953,org.python.core.PySequenceIter$$$$$__iternext__,15032,85,0.000000,0.000000,0.125000,
5 , 7,316611968,org.python.core.PySequenceIter$$$$$__iternext__,15032,85,0.003540,0.000000,0.125000,
5 , 7,316611984,org.python.core.PySequenceIter$$$$$__iternext__,15032,85,0.000000,0.000000,0.125000,
5 , 7,316612041,org.python.core.PySequenceIter$$$$$__iternext__,15032,85,0.000000,0.000000,0.125000,
5 , 7,316612055,org.python.core.PySequenceIter$$$$$__iternext__,15032,85,0.000000,0.000000,0.125000,
5 , 7,316612068,org.python.core.PySequenceIter$$$$$__iternext__,15032,85,0.003540,0.000000,0.125000,
5 , 7,316612075,org.python.core.PySequenceIter$$$$$__iternext__,15032,85,0.003479,0.000000,0.125000,
5 , 7,316612088,org.python.core.PySequenceIter$$$$$__iternext__,15032,85,0.000000,0.000000,0.125000,
5 , 7,316612109,org.python.core.PySequenceIter$$$$$__iternext__,15032,85,0.003540,0.000000,0.125000,
5 , 7,316612122,org.python.core.PySequenceIter$$$$$__iternext__,15032,85,0.000000,0.000000,0.125000,
5 , 7,316612136,org.python.core.PySequenceIter$$$$$__iternext__,15032,85,0.000000,0.000000,0.125000,
5 , 7,316612149,org.python.core.PySequenceIter$$$$$__iternext__,15032,85,0.000000,0.000000,0.125000,
5 , 7,316612157,org.python.core.PySequenceIter$$$$$__iternext__,15032,85,0.000000,0.000000,0.125000,
5 , 7,316612171,org.python.core.PySequenceIter$$$$$__iternext__,15032,85,0.000000,0.000000,0.125000,
5 , 7,316612207,org.python.core.PySequenceIter$$$$$__iternext__,15032,85,0.165833,0.000000,0.750000,
5 , 7,316612220,org.python.core.PySequenceIter$$$$$__iternext__,15032,85,0.003540,0.000000,0.125000,
5 , 7,316612234,org.python.core.PySequenceIter$$$$$__iternext__,15032,85,0.003540,0.000000,0.125000,
5 , 7,316612241,org.python.core.PySequenceIter$$$$$__iternext__,15032,85,0.003296,0.000000,0.125000,
5 , 7,316612248,org.python.core.PySequenceIter$$$$$__iternext__,15032,85,0.003540,0.000000,0.125000,
5 , 7,316612255,org.python.core.PySequenceIter$$$$$__iternext__,15032,85,0.003418,0.000000,0.125000,
5 , 7,316612269,org.python.core.PySequenceIter$$$$$__iternext__,15032,85,0.003418,0.000000,0.125000,
5 , 7,316612283,org.python.core.PySequenceIter$$$$$__iternext__,15032,85,0.003479,0.000000,0.125000,
5 , 7,316612290,org.python.core.PySequenceIter$$$$$__iternext__,15032,85,0.000000,0.000000,0.125000,
5 , 7,316612312,org.python.core.PySequenceIter$$$$$__iternext__,15032,85,0.000000,0.000000,0.125000,
5 , 7,316612333,org.python.core.PySequenceIter$$$$$__iternext__,15032,85,0.000000,0.000000,0.125000,
5 , 7,316612348,org.python.core.PySequenceIter$$$$$__iternext__,15032,85,0.000000,0.000000,0.125000,
5 , 7,316612398,org.python.core.PySequenceIter$$$$$__iternext__,15032,85,0.003418,0.000000,0.125000,
5 , 7,316612412,org.python.core.PySequenceIter$$$$$__iternext__,15032,85,0.000000,0.000000,0.125000,
5 , 7,316612469,Instances$py$$$$$__init__$7,15032,229,0.000000,0.000000,0.125000,
5 , 7,316612704,org.python.core.PyObjectDerived$$$$$<init>,15032,266,0.000000,0.000000,0.125000,
5 , 7,316612747,org.python.core.PySequenceIter$$$$$__iternext__,15032,85,0.000000,0.000000,0.125000,
5 , 7,316612753,org.python.core.PySequenceIter$$$$$__iternext__,15032,85,0.000000,0.000000,0.125000,
5 , 7,316612804,org.python.core.PySequenceIter$$$$$__iternext__,15032,85,0.000000,0.000000,0.125000,
5 , 7,316612811,org.python.core.PySequenceIter$$$$$__iternext__,15032,85,0.000000,0.000000,0.125000,
5 , 7,316612861,org.python.core.PySequenceIter$$$$$__iternext__,15032,85,0.000000,0.000000,0.125000,
5 , 7,316612869,org.python.core.PySequenceIter$$$$$__iternext__,15032,85,0.000000,0.000000,0.125000,
5 , 7,316612876,org.python.core.PySequenceIter$$$$$__iternext__,15032,85,0.000000,0.000000,0.125000,
5 , 7,316612884,org.python.core.PySequenceIter$$$$$__iternext__,15032,85,0.000000,0.000000,0.125000,
5 , 7,316612891,org.python.core.PySequenceIter$$$$$__iternext__,15032,85,0.000000,0.000000,0.125000,
5 , 7,316612899,org.python.core.PySequenceIter$$$$$__iternext__,15032,85,0.000000,0.000000,0.125000,
5 , 7,316612998,org.python.core.PySequenceIter$$$$$__iternext__,15032,85,0.189454,0.000000,1.000000,
5 , 7,316613011,org.python.core.PySequenceIter$$$$$__iternext__,15032,85,0.000000,0.000000,0.125000,
5 , 7,316613033,org.python.core.PySequenceIter$$$$$__iternext__,15032,85,0.000000,0.000000,0.125000,
5 , 7,316613048,org.python.core.PySequenceIter$$$$$__iternext__,15032,85,0.000000,0.000000,0.125000,
5 , 7,316613087,org.python.core.PySequenceIter$$$$$__iternext__,15032,85,0.140564,0.000000,0.625000,
5 , 7,316613111,org.python.core.PySequenceIter$$$$$__iternext__,15032,85,0.000000,0.000000,0.125000,
5 , 7,316613125,org.python.core.PySequenceIter$$$$$__iternext__,15032,85,0.000000,0.000000,0.125000,
5 , 7,316613262,org.python.core.PyFloat$$$$$hashCode,15032,80,0.000000,0.000000,0.125000,
5 , 7,316613270,org.python.core.PyObject$$$$$equals,15032,78,0.000000,0.000000,0.125000,
5 , 7,316613360,org.python.core.PyObject$$$$$equals,15032,78,0.000000,0.000000,0.125000,
5 , 7,316613368,org.python.core.PyString$$$$$hashCode,15032,195,0.000000,0.000000,0.125000,
5 , 7,316613450,org.python.core.PySequenceIter$$$$$__iternext__,15032,85,0.000000,0.000000,0.125000,
5 , 7,316613762,org.python.core.PySequenceIter$$$$$__iternext__,15032,85,0.000000,0.000000,0.125000,
5 , 7,316613770,org.python.core.PySequenceIter$$$$$__iternext__,15032,85,0.000000,0.000000,0.125000,
5 , 7,316613778,org.python.core.PySequenceIter$$$$$__iternext__,15032,85,0.000000,0.000000,0.125000,
5 , 7,316613786,org.python.core.PySequenceIter$$$$$__iternext__,15032,85,0.000000,0.000000,0.125000,
5 , 7,316613794,org.python.core.PySequenceIter$$$$$__iternext__,15032,85,0.000000,0.000000,0.125000,
5 , 7,316613867,org.python.core.PyFunction$$$$$__call__,15032,269,0.000000,0.000000,0.125000,
5 , 7,316614022,org.python.core.PyTableCode$$$$$call,15032,230,0.000000,0.000000,0.125000,
5 , 7,316614030,org.python.core.PyTableCode$$$$$call,15032,101,0.000000,0.000000,0.125000,
5 , 7,316614047,org.python.core.PyTableCode$$$$$call,15032,101,0.000000,0.000000,0.125000,
5 , 7,316614178,org.python.core.PyFrame$$$$$getf_locals,15032,203,0.000000,0.000000,0.125000,
5 , 7,316614194,org.python.core.imp$$$$$getParent,15032,206,0.000000,0.000000,0.125000,
5 , 7,316614268,org.python.core.imp$$$$$import_name,15032,204,0.000000,0.000000,0.125000,
5 , 7,316614366,org.python.core.imp$$$$$getParent,15032,206,0.000000,0.000000,0.125000,
5 , 7,316614693,org.python.core.PyInteger$$$$$__add__,15032,139,0.000000,0.000000,0.125000,
5 , 7,316614953,org.python.core.AbstractArray$$$$$replaceSubArray,15032,272,0.000000,0.000000,0.125000,
5 , 7,316615214,org.python.core.PySequenceIter$$$$$__iternext__,15032,85,0.000000,0.000000,0.125000,
5 , 7,316615222,org.python.core.PySequenceIter$$$$$__iternext__,15032,85,0.000000,0.000000,0.125000,
5 , 7,316615229,org.python.core.PySequenceIter$$$$$__iternext__,15032,85,0.000000,0.000000,0.125000,
5 , 7,316615237,org.python.core.PyString$$$$$str_title,15032,159,0.000000,0.000000,0.125000,
5 , 7,316615351,org.python.core.PyString$1exposed_upper$$$$$makeBound,15032,322,0.000000,0.000000,0.125000,
5 , 7,316615359,org.python.core.PySequenceIter$$$$$__iternext__,15032,85,0.000000,0.000000,0.125000,
5 , 7,316615367,org.python.core.PyString$$$$$str_title,15032,159,0.000000,0.000000,0.125000,
5 , 7,316615376,org.python.core.PyString$1exposed_title$$$$$makeBound,15032,317,0.000000,0.000000,0.125000,
5 , 7,316615506,org.python.core.PyString$1exposed_title$$$$$makeBound,15032,317,0.000000,0.000000,0.125000,
5 , 7,316615513,org.python.core.PyString$$$$$str_title,15032,159,0.000000,0.000000,0.125000,
5 , 7,316615669,org.python.core.PySequenceIter$$$$$__iternext__,15032,85,0.000000,0.000000,0.125000,
5 , 7,316615677,org.python.core.PySequenceIter$$$$$__iternext__,15032,85,0.000000,0.000000,0.125000,
5 , 7,316615686,org.python.core.PySequenceIter$$$$$__iternext__,15032,85,0.000000,0.000000,0.125000,
5 , 7,316615718,org.python.core.PySequenceIter$$$$$__iternext__,15032,85,0.000000,0.000000,0.125000,
5 , 7,316615841,org.python.core.ArgParser$$$$$getList,15032,283,0.000000,0.000000,0.125000,
5 , 7,316615922,org.python.core.PyObject$$$$$__getitem__,15032,258,0.000000,0.000000,0.125000,
5 , 7,316616012,org.python.core.PySequenceIter$$$$$__iternext__,15032,85,0.000000,0.000000,0.125000,
5 , 7,316616022,org.python.core.PyString$1exposed_lower$$$$$makeBound,15032,334,0.000000,0.000000,0.125000,
5 , 7,316616031,org.python.core.PyString$1exposed_lower$$$$$makeBound,15032,334,0.000000,0.000000,0.125000,
5 , 7,316616040,org.python.core.PySequenceIter$$$$$__iternext__,15032,85,0.000000,0.000000,0.125000,
5 , 7,316616049,org.python.core.PyString$1exposed_lower$$$$$makeBound,15032,334,0.000000,0.000000,0.125000,
5 , 7,316616103,org.python.core.PyString$1exposed_lower$$$$$makeBound,15032,334,0.000000,0.000000,0.125000,
5 , 7,316616112,org.python.core.PyString$1exposed_lower$$$$$makeBound,15032,334,0.000000,0.000000,0.125000,
5 , 7,316616121,org.python.core.PyString$1exposed_lower$$$$$makeBound,15032,334,0.000000,0.000000,0.125000,
5 , 7,316616184,org.python.core.PyString$$$$$str_isdecimal,15032,181,0.000000,0.000000,0.125000,
5 , 8,316616361,org.python.core.__builtin__$$$$$hash,15032,302,0.000000,0.000000,0.125000,
5 , 8,316616525,org.python.core.PySequenceIter$$$$$__iternext__,15032,85,0.000000,0.000000,0.125000,
5 , 8,316616533,org.python.core.PySequenceIter$$$$$__iternext__,15032,85,0.000000,0.000000,0.125000,
5 , 8,316616541,org.python.core.PySequenceIter$$$$$__iternext__,15032,85,0.000000,0.000000,0.125000,
5 , 8,316616548,org.python.core.PySequenceIter$$$$$__iternext__,15032,85,0.000000,0.000000,0.125000,
5 , 8,316616556,org.python.core.PySequenceIter$$$$$__iternext__,15032,85,0.000000,0.000000,0.125000,
5 , 8,316616697,org.python.core.PySequenceIter$$$$$__iternext__,15032,85,0.000000,0.000000,0.125000,
5 , 8,316616705,org.python.core.PySequenceIter$$$$$__iternext__,15032,85,0.000000,0.000000,0.125000,
5 , 8,316616713,org.python.core.PySequenceIter$$$$$__iternext__,15032,85,0.000000,0.000000,0.125000,
5 , 8,316616720,org.python.core.PySequenceIter$$$$$__iternext__,15032,85,0.000000,0.000000,0.125000,
5 , 8,316616891,org.python.core.PySequenceIter$$$$$__iternext__,15032,85,0.006836,0.000000,0.125000,
5 , 8,316616906,org.python.core.PySequenceIter$$$$$__iternext__,15032,85,0.006836,0.000000,0.125000,
5 , 8,316616922,org.python.core.PySequenceIter$$$$$__iternext__,15032,85,0.003418,0.000000,0.125000,
5 , 8,316616929,org.python.core.PySequenceIter$$$$$__iternext__,15032,85,0.000000,0.000000,0.125000,
5 , 8,316616945,org.python.core.PySequenceIter$$$$$__iternext__,15032,85,0.000000,0.000000,0.125000,
5 , 8,316616962,org.python.core.PySequenceIter$$$$$__iternext__,15032,85,0.000000,0.000000,0.125000,
5 , 8,316616970,org.python.core.PySequenceIter$$$$$__iternext__,15032,85,0.000000,0.000000,0.125000,
5 , 8,316616984,org.python.core.PySequenceIter$$$$$__iternext__,15032,85,0.000000,0.000000,0.125000,
5 , 8,316617001,org.python.core.PySequenceIter$$$$$__iternext__,15032,85,0.003418,0.000000,0.125000,
5 , 8,316617009,org.python.core.PySequenceIter$$$$$__iternext__,15032,85,0.003418,0.000000,0.125000,
5 , 8,316617017,org.python.core.PySequenceIter$$$$$__iternext__,15032,85,0.000000,0.000000,0.125000,
5 , 8,316617025,org.python.core.PySequenceIter$$$$$__iternext__,15032,85,0.000000,0.000000,0.125000,
5 , 8,316617041,org.python.core.PySequenceIter$$$$$__iternext__,15032,85,0.000000,0.000000,0.125000,
5 , 8,316617057,org.python.core.PySequenceIter$$$$$__iternext__,15032,85,0.000000,0.000000,0.125000,
5 , 8,316617065,org.python.core.PySequenceIter$$$$$__iternext__,15032,85,0.000000,0.000000,0.125000,
5 , 8,316617144,org.python.core.PySequenceIter$$$$$__iternext__,15032,85,0.003540,0.000000,0.125000,
5 , 8,316617153,org.python.core.PySequenceIter$$$$$__iternext__,15032,85,0.003540,0.000000,0.125000,
5 , 8,316617171,org.python.core.PySequenceIter$$$$$__iternext__,15032,85,0.003540,0.000000,0.125000,
5 , 8,316617180,org.python.core.PySequenceIter$$$$$__iternext__,15032,85,0.000000,0.000000,0.125000,
5 , 8,316617207,org.python.core.PySequenceIter$$$$$__iternext__,15032,85,0.006836,0.000000,0.125000,
5 , 8,316617217,org.python.core.PySequenceIter$$$$$__iternext__,15032,85,0.000000,0.000000,0.125000,
5 , 8,316617234,org.python.core.PySequenceIter$$$$$__iternext__,15032,85,0.003417,0.000000,0.125000,
5 , 8,316617244,org.python.core.PySequenceIter$$$$$__iternext__,15032,85,0.000000,0.000000,0.125000,
5 , 8,316617263,org.python.core.PySequenceIter$$$$$__iternext__,15032,85,0.000000,0.000000,0.125000,
5 , 8,316617280,org.python.core.PySequenceIter$$$$$__iternext__,15032,85,0.003418,0.000000,0.125000,
5 , 8,316617346,org.python.core.PySequenceIter$$$$$__iternext__,15032,85,0.006836,0.000000,0.125000,
5 , 8,316617876,org.python.core.PySequenceIter$$$$$__iternext__,15032,85,0.000000,0.000000,0.125000,
5 , 8,316617909,org.python.core.PySequenceIter$$$$$__iternext__,15032,85,0.000000,0.000000,0.125000,
5 , 8,316617925,org.python.core.PySequenceIter$$$$$__iternext__,15032,85,0.000000,0.000000,0.125000,
5 , 8,316617959,org.python.core.PySequenceIter$$$$$__iternext__,15032,85,0.000000,0.000000,0.125000,
5 , 8,316618016,org.python.core.PyFloat$$$$$hashCode,15032,80,0.000000,0.000000,0.125000,
5 , 8,316618040,org.python.core.PyFloat$$$$$hashCode,15032,80,0.000000,0.000000,0.125000,
5 , 8,316618236,org.python.core.PyObject$$$$$equals,15032,78,0.000000,0.000000,0.125000,
5 , 8,316618252,org.python.core.PyString$$$$$hashCode,15032,195,0.000000,0.000000,0.125000,
5 , 8,316618260,org.python.core.PyString$$$$$hashCode,15032,195,0.000000,0.000000,0.125000,
5 , 8,316618278,org.python.core.PyString$$$$$hashCode,15032,195,0.000000,0.000000,0.125000,
5 , 8,316618286,org.python.core.PyString$$$$$hashCode,15032,195,0.000000,0.000000,0.125000,
5 , 8,316618457,org.python.core.PyObject$$$$$_ne,15032,235,0.000000,0.000000,0.125000,
5 , 8,316618474,org.python.core.PySequence$$$$$getStart,15032,143,0.000000,0.000000,0.125000,
5 , 8,316618547,org.python.core.PySequenceList$$$$$pyget,15032,89,0.000000,0.000000,0.125000,
5 , 8,316618747,Calls$py$$$$$f1$4,15032,268,0.000000,0.000000,0.125000,
5 , 8,316618935,Calls$py$$$$$call_function,15032,237,0.000000,0.000000,0.125000,
5 , 8,316619059,org.python.core.PyMethod$$$$$__call__,15032,330,0.000000,0.000000,0.875000,
5 , 8,316619233,org.python.core.PyObject$$$$$equals,15032,78,0.000000,0.000000,0.125000,
5 , 8,316619651,org.python.core.PyList$$$$$<init>,15032,246,0.000000,0.000000,0.125000,
5 , 8,316619790,org.python.core.Py$$$$$unpackSequence,15032,250,0.000000,0.000000,0.125000,
5 , 8,316619941,org.python.core.PyString$1exposed_lower$$$$$makeBound,15032,334,0.000000,0.000000,0.125000,
5 , 8,316619974,org.python.core.PyString$1exposed_lower$$$$$makeBound,15032,334,0.000000,0.000000,0.125000,
5 , 8,316620033,org.python.core.PyString$1exposed_lower$$$$$makeBound,15032,334,0.172730,0.000000,1.000000,
5 , 8,316620034,org.python.core.PyString$1exposed_lower$$$$$makeBound,15032,334,0.000000,0.000000,0.125000,
5 , 8,316620042,org.python.core.PyString$1exposed_lower$$$$$makeBound,15032,334,0.000000,0.000000,0.125000,
5 , 8,316620050,org.python.core.PyString$1exposed_lower$$$$$makeBound,15032,334,0.000000,0.000000,0.125000,
5 , 8,316620058,org.python.core.PyString$1exposed_lower$$$$$makeBound,15032,334,0.000000,0.000000,0.125000,
5 , 8,316620066,org.python.core.PyString$1exposed_lower$$$$$makeBound,15032,334,0.000000,0.000000,0.125000,
5 , 8,316620073,org.python.core.PyString$1exposed_lower$$$$$makeBound,15032,334,0.000000,0.000000,0.125000,
5 , 8,316620081,org.python.core.PyString$1exposed_lower$$$$$makeBound,15032,334,0.000000,0.000000,0.125000,
5 , 8,316620114,org.python.core.PyString$1exposed_lower$$$$$makeBound,15032,334,0.000000,0.000000,0.125000,
5 , 8,316620122,org.python.core.PyString$1exposed_lower$$$$$makeBound,15032,334,0.000000,0.000000,0.125000,
5 , 8,316620131,org.python.core.PyString$1exposed_lower$$$$$makeBound,15032,334,0.000000,0.000000,0.125000,
5 , 8,316620139,org.python.core.PyString$1exposed_lower$$$$$makeBound,15032,334,0.000000,0.000000,0.125000,
5 , 8,316620148,org.python.core.PyString$1exposed_lower$$$$$makeBound,15032,334,0.000000,0.000000,0.125000,
5 , 8,316620156,org.python.core.PyString$1exposed_lower$$$$$makeBound,15032,334,0.000000,0.000000,0.125000,
5 , 8,316620437,org.python.core.PyTableCode$$$$$call,15032,230,0.000000,0.000000,0.125000,
5 , 8,316620684,org.python.core.PyString$1exposed_lower$$$$$makeBound,15032,334,0.000000,0.000000,0.125000,
5 , 8,316620692,org.python.core.PyString$1exposed_lower$$$$$makeBound,15032,334,0.000000,0.000000,0.125000,
5 , 8,316620699,org.python.core.PyString$1exposed_lower$$$$$makeBound,15032,334,0.000000,0.000000,0.125000,
5 , 8,316620707,org.python.core.PyString$1exposed_lower$$$$$makeBound,15032,334,0.000000,0.000000,0.125000,
5 , 8,316620759,org.python.core.PyString$1exposed_lower$$$$$makeBound,15032,334,0.000000,0.000000,0.125000,
5 , 8,316620767,org.python.core.PyString$1exposed_lower$$$$$makeBound,15032,334,0.000000,0.000000,0.125000,
5 , 8,316620775,org.python.core.PyString$1exposed_lower$$$$$makeBound,15032,334,0.000000,0.000000,0.125000,
5 , 8,316620783,org.python.core.PyString$1exposed_lower$$$$$makeBound,15032,334,0.000000,0.000000,0.125000,
5 , 8,316620790,org.python.core.PyString$1exposed_lower$$$$$makeBound,15032,334,0.000000,0.000000,0.125000,
5 , 8,316620798,org.python.core.PyString$1exposed_lower$$$$$makeBound,15032,334,0.000000,0.000000,0.125000,
5 , 8,316620806,org.python.core.PyString$1exposed_lower$$$$$makeBound,15032,334,0.000000,0.000000,0.125000,
5 , 8,316620953,org.python.core.PyFloat$$$$$__add__,15032,241,0.000000,0.000000,0.125000,
5 , 9,316621030,org.python.core.__builtin__$$$$$hash,15032,302,0.000000,0.000000,0.125000,
5 , 9,316621087,org.python.core.PyList$1exposed_append$$$$$makeBound,15032,25,0.000000,0.000000,0.125000,
5 , 9,316621165,org.python.core.PyMethod$$$$$__call__,15032,330,0.000000,0.000000,0.250000,
5 , 9,316621304,org.python.core.PyObject$$$$$_ge,15032,53,0.000000,0.000000,0.125000,
5 , 9,316621743,org.python.core.Py$$$$$unpackSequence,15032,250,0.003540,0.000000,0.125000,
5 , 9,316622015,org.python.core.PyTableCode$$$$$call,15032,230,0.000000,0.000000,0.125000,
5 , 9,316622056,org.python.core.PyType$$$$$lookup,15032,18,0.000000,0.000000,0.125000,
5 , 9,316622433,org.python.core.PyTableCode$$$$$call,15032,230,0.227845,0.000000,2.125000,
5 , 9,316622530,org.python.core.PyObject$$$$$__call__,15032,292,0.010376,0.000000,1.625000,
5 , 9,316622652,org.python.core.PyFloat$$$$$hashCode,15032,80,0.000000,0.000000,0.125000,
5 , 9,316622783,org.python.core.PyString$$$$$hashCode,15032,195,0.000000,0.000000,0.125000,
5 , 9,316622790,org.python.core.PyString$$$$$hashCode,15032,195,0.000000,0.000000,0.125000,
5 , 9,316622799,org.python.core.PyString$$$$$hashCode,15032,195,0.000000,0.000000,0.125000,
5 , 9,316622957,org.python.core.PyObject$$$$$_ne,15032,235,0.000000,0.000000,0.125000,
5 , 9,316622965,org.python.core.PySequence$$$$$seq___setslice__,15032,345,0.000000,0.000000,0.125000,
5 , 9,316622997,org.python.core.PySequenceList$$$$$pyget,15032,89,0.000000,0.000000,0.125000,
5 , 9,316623005,org.python.core.PySequenceList$$$$$pyget,15032,89,0.000000,0.000000,0.125000,
5 , 9,316623184,org.python.core.PyTableCode$$$$$call,15032,230,0.000000,0.000000,0.125000,
5 , 9,316623200,org.python.core.PyTableCode$$$$$call,15032,230,0.000000,0.000000,0.125000,
5 , 9,316623208,Calls$py$$$$$h$6,15032,202,0.000000,0.000000,0.125000,
5 , 9,316623216,org.python.core.PyFunction$$$$$__call__,15032,269,0.000000,0.000000,0.125000,
5 , 9,316623649,org.python.core.PyComplex$$$$$__add__,15032,240,0.000000,0.000000,0.125000,
5 , 9,316623922,org.python.core.PyInteger$$$$$__div__,15032,138,0.000000,0.000000,0.125000,
5 , 9,316623930,org.python.core.PySequenceList$$$$$pyget,15032,89,0.000000,0.000000,0.125000,
5 , 9,316624199,org.python.core.Py$$$$$unpackSequence,15032,250,0.000000,0.000000,0.125000,
5 , 9,316624215,org.python.core.Py$$$$$unpackSequence,15032,250,0.000000,0.000000,0.125000,
5 , 9,316624240,org.python.core.PyBuiltinFunction$DefaultInfo$$$$$check,15032,299,0.000000,0.000000,0.125000,
5 , 9,316624628,org.python.core.PyString$1exposed_lower$$$$$makeBound,15032,334,0.000000,0.000000,0.125000,
5 , 9,316624636,org.python.core.PyString$1exposed_lower$$$$$makeBound,15032,334,0.000000,0.000000,0.125000,
5 , 9,316624645,org.python.core.PyString$1exposed_lower$$$$$makeBound,15032,334,0.000000,0.000000,0.125000,
5 , 9,316624767,org.python.core.PyString$1exposed_isalnum$$$$$makeBound,15032,348,0.000000,0.000000,0.125000,
5 , 9,316624784,org.python.core.PyString$1exposed_isspace$$$$$__call__,15032,278,0.000000,0.000000,0.125000,
5 , 9,316624792,org.python.core.PyString$1exposed_isalnum$$$$$makeBound,15032,348,0.000000,0.000000,0.125000,
5 , 9,316624816,org.python.core.PyString$1exposed_isspace$$$$$__call__,15032,278,0.000000,0.000000,0.125000,
5 , 9,316624891,org.python.core.PyFloat$$$$$__sub__,15032,310,0.006836,0.000000,0.125000,
5 , 9,316625103,org.python.core.PyTuple$$$$$__len__,15032,274,0.000000,0.000000,0.125000,
5 , 9,316625111,org.python.core.PyTuple$$$$$__len__,15032,274,0.000000,0.000000,0.125000,
5 , 9,316625119,org.python.core.PyTuple$$$$$__len__,15032,274,0.000000,0.000000,0.125000,
5 , 9,316625127,org.python.core.PyTuple$$$$$__len__,15032,274,0.000000,0.000000,0.125000,
5 , 9,316625151,org.python.core.PyString$1exposed_lower$$$$$makeBound,15032,334,0.000000,0.000000,0.125000,
5 , 9,316625159,org.python.core.PyString$1exposed_lower$$$$$makeBound,15032,334,0.000000,0.000000,0.125000,
5 , 9,316625186,org.python.core.PyString$1exposed_lower$$$$$makeBound,15032,334,0.000000,0.000000,0.125000,
5 , 9,316625211,org.python.core.PyString$1exposed_lower$$$$$makeBound,15032,334,0.000000,0.000000,0.125000,
5 , 9,316625229,org.python.core.PyString$1exposed_lower$$$$$makeBound,15032,334,0.000000,0.000000,0.125000,
5 , 9,316625256,org.python.core.PyString$1exposed_lower$$$$$makeBound,15032,334,0.000000,0.000000,0.125000,
5 , 9,316625347,org.python.core.PyInteger$$$$$__neg__,15032,320,0.000000,0.000000,0.125000,
5 , 9,316625356,org.python.core.PyInteger$$$$$__neg__,15032,320,0.000000,0.000000,0.125000,
5 , 10,316625528,org.python.core.PyList$1exposed_append$$$$$makeBound,15032,25,0.000000,0.000000,0.125000,
5 , 10,316625536,org.python.core.PyList$1exposed_append$$$$$makeBound,15032,25,0.000000,0.000000,0.125000,
5 , 10,316625662,org.python.core.PyMethod$$$$$__call__,15032,330,0.000000,0.000000,0.625000,
5 , 10,316625688,org.python.core.PyObject$$$$$_ge,15032,53,0.000000,0.000000,0.125000,
5 , 10,316625859,org.python.core.PyString$$$$$toString,15032,56,0.000000,0.000000,0.125000,
5 , 10,316626407,Instances$py$$$$$__init__$7,15032,229,0.000000,0.000000,0.125000,
5 , 10,316626476,org.python.core.PyType$$$$$invoke_new_,15032,297,0.000000,0.000000,0.125000,
5 , 10,316626484,NewInstances$py$$$$$__init__$8,15032,327,0.000000,0.000000,0.125000,
5 , 10,316626557,org.python.core.PyType$$$$$invoke_new_,15032,297,0.000000,0.000000,0.125000,
5 , 10,316626672,org.python.core.PyType$$$$$lookup,15032,18,0.000000,0.000000,0.125000,
5 , 10,316626882,org.python.core.PyFloat$$$$$__sub__,15032,310,0.020874,0.000000,1.000000,
5 , 10,316627026,org.python.core.PyTableCode$$$$$call,15032,230,0.405823,0.000000,2.750000,
5 , 10,316627151,org.python.core.PyFloat$$$$$__sub__,15032,310,0.365722,0.000000,2.000000,
5 , 10,316627202,org.python.core.PyTableCode$$$$$call,15032,230,0.000000,0.000000,0.875000,
5 , 10,316627248,org.python.core.PyString$$$$$hashCode,15032,195,0.000000,0.000000,0.125000,
5 , 10,316627370,org.python.core.PyObject$$$$$_ne,15032,235,0.000000,0.000000,0.125000,
5 , 10,316627524,org.python.core.PySequenceList$$$$$pyget,15032,89,0.000000,0.000000,0.125000,
5 , 10,316627612,org.python.core.PyList$1exposed_append$$$$$makeBound,15032,25,0.000000,0.000000,0.500000,
5 , 10,316627682,org.python.core.PyTableCode$$$$$call,15032,350,0.000000,0.000000,0.125000,
5 , 10,316628052,org.python.core.PyObject$$$$$__call__,15032,292,0.000000,0.000000,1.125000,
5 , 10,316628157,org.python.core.PyFloat$$$$$__sub__,15032,310,0.000000,0.000000,1.875000,
5 , 10,316628230,org.python.core.PyDictionary$$$$$__delitem__,15032,239,0.000000,0.000000,0.125000,
5 , 10,316628828,org.python.core.PyFloat$$$$$__sub__,15032,310,0.013488,0.000000,0.500000,
5 , 10,316628911,org.python.core.PyString$1exposed_lower$$$$$makeBound,15032,334,0.000000,0.000000,0.125000,
5 , 10,316628919,org.python.core.PyString$1exposed_lower$$$$$makeBound,15032,334,0.000000,0.000000,0.125000,
5 , 10,316628927,org.python.core.PyString$1exposed_lower$$$$$makeBound,15032,334,0.000000,0.000000,0.125000,
5 , 10,316628935,org.python.core.PyString$1exposed_lower$$$$$makeBound,15032,334,0.000000,0.000000,0.125000,
5 , 10,316628943,org.python.core.PyString$1exposed_lower$$$$$makeBound,15032,334,0.000000,0.000000,0.125000,
5 , 10,316629115,org.python.core.PyString$1exposed_lower$$$$$makeBound,15032,334,0.000000,0.000000,0.125000,
5 , 10,316629123,org.python.core.PyString$1exposed_lower$$$$$makeBound,15032,334,0.000000,0.000000,0.125000,
5 , 10,316629131,org.python.core.PyString$1exposed_lower$$$$$makeBound,15032,334,0.000000,0.000000,0.125000,
5 , 10,316629139,org.python.core.PyString$1exposed_lower$$$$$makeBound,15032,334,0.000000,0.000000,0.125000,
5 , 10,316629211,org.python.core.PySequenceList$$$$$pyget,15032,89,0.000000,0.000000,0.125000,
5 , 10,316629306,org.python.core.PyException$$$$$<init>,15032,336,0.000000,0.000000,0.125000,
5 , 10,316629314,org.python.core.ArgParser$$$$$getOptionalArg,15032,260,0.000000,0.000000,0.125000,
5 , 10,316629637,org.python.core.PyString$1exposed_lower$$$$$makeBound,15032,334,0.000000,0.000000,0.125000,
5 , 10,316629652,org.python.core.PyString$1exposed_lower$$$$$makeBound,15032,334,0.000000,0.000000,0.125000,
5 , 10,316629660,org.python.core.PyString$1exposed_lower$$$$$makeBound,15032,334,0.000000,0.000000,0.125000,
5 , 10,316629683,org.python.core.PyString$1exposed_lower$$$$$makeBound,15032,334,0.000000,0.000000,0.125000,
5 , 10,316629691,org.python.core.PyString$1exposed_lower$$$$$makeBound,15032,334,0.000000,0.000000,0.125000,
5 , 10,316629699,org.python.core.PyString$1exposed_lower$$$$$makeBound,15032,334,0.000000,0.000000,0.125000,
5 , 10,316629707,org.python.core.PyString$1exposed_lower$$$$$makeBound,15032,334,0.000000,0.000000,0.125000,
5 , 11,316630005,org.python.core.PyList$1exposed_append$$$$$makeBound,15032,25,0.000000,0.000000,0.125000,
5 , 11,316630013,org.python.core.PyList$1exposed_append$$$$$makeBound,15032,25,0.000000,0.000000,0.125000,
5 , 11,316630022,org.python.core.PyList$1exposed_append$$$$$makeBound,15032,25,0.000000,0.000000,0.125000,
5 , 11,316630073,org.python.core.PyObject$$$$$__call__,15032,292,0.000000,0.000000,0.375000,
5 , 11,316630116,org.python.core.PyFloat$$$$$__sub__,15032,310,0.000000,0.000000,0.625000,
5 , 11,316630209,org.python.core.PyTuple$$$$$<init>,15032,251,0.000000,0.000000,1.375000,
5 , 11,316630239,org.python.core.PyList$1exposed_append$$$$$makeBound,15032,25,0.000000,0.000000,0.375000,
5 , 11,316630860,Instances$py$$$$$__init__$5,15032,265,0.000000,0.000000,0.125000,
5 , 11,316631014,org.python.core.PyType$$$$$invoke_new_,15032,297,0.000000,0.000000,0.125000,
5 , 11,316631563,org.python.core.PyMethod$$$$$__call__,15032,330,0.000000,0.000000,2.000000,
5 , 11,316631799,org.python.core.PyObject$$$$$_ne,15032,235,0.000000,0.000000,0.125000,
5 , 11,316632008,org.python.core.PyFloat$$$$$__sub__,15032,310,0.000000,0.000000,0.625000,
5 , 11,316632401,org.python.core.PyList$1exposed_append$$$$$makeBound,15032,25,0.000000,0.000000,0.875000,
5 , 11,316632401,org.python.core.imp$$$$$import_logic,15032,359,0.000000,0.000000,0.125000,
5 , 11,316632637,org.python.core.PyFloat$$$$$__sub__,15032,310,0.000000,0.000000,0.125000,
5 , 11,316632791,org.python.core.PySequence$$$$$getStep,15032,150,0.000000,0.000000,0.125000,
5 , 11,316632797,org.python.core.PySequence$$$$$getStart,15032,143,0.000000,0.000000,0.125000,
5 , 11,316632807,org.python.core.PySequence$$$$$getStart,15032,143,0.000000,0.000000,0.125000,
5 , 11,316632815,org.python.core.PyFloat$$$$$__sub__,15032,310,0.000000,0.000000,0.125000,
5 , 11,316632821,org.python.core.PyLong$$$$$long___mul__,15032,318,0.000000,0.000000,0.125000,
5 , 11,316633241,org.python.core.PyTuple$$$$$<init>,15032,251,0.000000,0.000000,0.500000,
5 , 11,316633272,org.python.core.PyString$1exposed_lower$$$$$makeBound,15032,334,0.000000,0.000000,0.125000,
5 , 11,316633330,org.python.core.PyString$1exposed_lower$$$$$makeBound,15032,334,0.000000,0.000000,0.125000,
5 , 11,316633337,org.python.core.PyString$1exposed_lower$$$$$makeBound,15032,334,0.000000,0.000000,0.125000,
5 , 11,316633411,org.python.core.PyString$1exposed_lower$$$$$makeBound,15032,334,0.000000,0.000000,0.125000,
5 , 11,316633419,org.python.core.PyString$1exposed_lower$$$$$makeBound,15032,334,0.000000,0.000000,0.125000,
5 , 11,316633427,org.python.core.PyString$1exposed_lower$$$$$makeBound,15032,334,0.000000,0.000000,0.125000,
5 , 11,316633436,org.python.core.PyString$1exposed_lower$$$$$makeBound,15032,334,0.000000,0.000000,0.125000,
5 , 11,316633445,org.python.core.PyString$1exposed_lower$$$$$makeBound,15032,334,0.000000,0.000000,0.125000,
5 , 11,316633453,org.python.core.PyString$1exposed_lower$$$$$makeBound,15032,334,0.000000,0.000000,0.125000,
5 , 11,316633639,org.python.core.PyString$1exposed_isspace$$$$$__call__,15032,278,0.000000,0.000000,0.125000,
5 , 11,316633771,org.python.core.ArgParser$$$$$getList,15032,283,0.000000,0.000000,0.125000,
5 , 11,316633779,org.python.core.PyObject$$$$$__getitem__,15032,258,0.000000,0.000000,0.125000,
5 , 11,316633909,org.python.core.PyInteger$$$$$__neg__,15032,320,0.000000,0.000000,0.125000,
5 , 11,316633942,org.python.core.PyInteger$$$$$__neg__,15032,320,0.000000,0.000000,0.125000,
5 , 11,316633950,org.python.core.PyList$$$$$list_append,15032,135,0.000000,0.000000,0.125000,
5 , 11,316633958,org.python.core.PyString$1exposed_lower$$$$$makeBound,15032,334,0.000000,0.000000,0.125000,
5 , 11,316633992,org.python.core.PyString$1exposed_lower$$$$$makeBound,15032,334,0.000000,0.000000,0.125000,
5 , 11,316634017,org.python.core.PyString$1exposed_lower$$$$$makeBound,15032,334,0.000000,0.000000,0.125000,
5 , 11,316634043,org.python.core.PyString$1exposed_lower$$$$$makeBound,15032,334,0.000000,0.000000,0.125000,
5 , 11,316634068,org.python.core.PyString$1exposed_lower$$$$$makeBound,15032,334,0.000000,0.000000,0.125000,
5 , 11,316634139,org.python.core.PyString$$$$$str_isdecimal,15032,181,0.000000,0.000000,0.125000,
5 , 12,316634224,org.python.parser.JJTPythonGrammarState$$$$$nodeArity,15032,9,0.000000,0.000000,0.125000,
5 , 12,316634233,org.python.parser.ReaderCharStream$$$$$UpdateLineColumn,15032,179,0.000000,0.000000,0.125000,
5 , 12,316634241,org.python.parser.ReaderCharStream$$$$$getBeginLine,15032,10,0.000000,0.000000,0.125000,
5 , 12,316634481,org.python.core.PyFloat$$$$$__sub__,15032,310,0.000000,0.000000,0.250000,
5 , 12,316634525,org.python.core.PyObject$$$$$__call__,15032,292,0.000000,0.000000,0.625000,
5 , 12,316634618,org.python.core.PyFloat$$$$$__sub__,15032,310,0.003418,0.000000,1.375000,
5 , 12,316634648,org.python.core.PyObject$$$$$__call__,15032,292,0.000000,0.000000,0.500000,
5 , 12,316635234,org.python.core.PyInstance$$$$$__init__,15032,340,0.000000,0.000000,0.125000,
5 , 12,316635324,org.python.core.PyMethod$$$$$__call__,15032,330,0.000000,0.000000,0.125000,
5 , 12,316635817,org.python.core.PyMethod$$$$$__call__,15032,330,0.007080,0.000000,1.625000,
5 , 12,316636019,org.python.core.PyString$$$$$hashCode,15032,195,0.000000,0.000000,0.125000,
5 , 12,316636162,org.python.core.PyObject$$$$$_ne,15032,235,0.000000,0.000000,0.125000,
5 , 12,316636305,org.python.core.PyTuple$$$$$<init>,15032,251,0.000000,0.000000,0.750000,
5 , 12,316636345,org.python.core.PyObject$$$$$__call__,15032,292,0.000000,0.000000,0.750000,
5 , 12,316636428,org.python.core.PyMethod$$$$$__call__,15032,330,0.000000,0.000000,0.125000,
5 , 12,316636716,org.python.core.PyFloat$$$$$__sub__,15032,310,0.000000,0.000000,1.125000,
5 , 12,316636755,org.python.core.imp$$$$$import_logic,15032,359,0.000000,0.000000,0.125000,
5 , 12,316636763,org.python.core.imp$$$$$import_logic,15032,359,0.000000,0.000000,0.125000,
5 , 12,316636988,org.python.core.PyDictionary$$$$$__delitem__,15032,239,0.000000,0.000000,0.125000,
5 , 12,316637086,org.python.core.PyInteger$$$$$__div__,15032,138,0.000000,0.000000,0.125000,
5 , 12,316637094,org.python.core.PyInteger$$$$$__add__,15032,139,0.000000,0.000000,0.125000,
5 , 12,316637157,org.python.core.PySequence$$$$$getStart,15032,143,0.000000,0.000000,0.125000,
5 , 12,316637160,org.python.core.PySequence$$$$$getStop,15032,244,0.000000,0.000000,0.125000,
5 , 12,316637170,org.python.core.PySequence$$$$$getStop,15032,244,0.000000,0.000000,0.125000,
5 , 12,316637176,org.python.core.PyTuple$$$$$<init>,15032,251,0.000000,0.000000,0.125000,
5 , 12,316637323,org.python.core.PySequence$$$$$seq___setslice__,15032,345,0.000000,0.000000,0.125000,
5 , 12,316637396,org.python.core.ArgParser$$$$$getOptionalArg,15032,260,0.000000,0.000000,0.125000,
5 , 12,316637537,org.python.core.PyFloat$$$$$__sub__,15032,310,0.003662,0.000000,0.625000,
5 , 12,316637543,org.python.core.PyString$1exposed_lower$$$$$makeBound,15032,334,0.000000,0.000000,0.125000,
5 , 12,316637585,org.python.core.PyString$1exposed_lower$$$$$makeBound,15032,334,0.000000,0.000000,0.125000,
5 , 12,316637626,org.python.core.PyString$1exposed_lower$$$$$makeBound,15032,334,0.000000,0.000000,0.125000,
5 , 12,316637675,org.python.core.PyString$1exposed_lower$$$$$makeBound,15032,334,0.000000,0.000000,0.125000,
5 , 12,316637683,org.python.core.PyString$1exposed_lower$$$$$makeBound,15032,334,0.000000,0.000000,0.125000,
5 , 12,316637757,org.python.core.PyString$1exposed_lower$$$$$makeBound,15032,334,0.000000,0.000000,0.125000,
5 , 12,316637765,org.python.core.PyString$1exposed_lower$$$$$makeBound,15032,334,0.000000,0.000000,0.125000,
5 , 12,316637772,org.python.core.PyString$1exposed_lower$$$$$makeBound,15032,334,0.000000,0.000000,0.125000,
5 , 12,316637780,org.python.core.PyString$1exposed_lower$$$$$makeBound,15032,334,0.000000,0.000000,0.125000,
5 , 12,316637879,org.python.core.PyString$1exposed_isspace$$$$$__call__,15032,278,0.000000,0.000000,0.125000,
5 , 12,316637887,org.python.core.PyString$1exposed_isspace$$$$$__call__,15032,278,0.000000,0.000000,0.125000,
5 , 12,316638009,org.python.core.PyInstance$$$$$__init__,15032,340,0.000000,0.000000,0.125000,
5 , 12,316638181,org.python.core.PyInteger$$$$$__neg__,15032,320,0.000000,0.000000,0.125000,
5 , 12,316638190,org.python.core.PyInteger$$$$$__neg__,15032,320,0.000000,0.000000,0.125000,
5 , 12,316638533,org.python.core.PyTuple$$$$$<init>,15032,251,0.000000,0.000000,0.125000,
5 , 12,316638549,org.python.core.PyFloat$$$$$getValue,15032,311,0.000000,0.000000,0.125000,
5 , 13,316638655,org.python.core.PyList$1exposed_append$$$$$makeBound,15032,25,0.000000,0.000000,0.125000,
5 , 13,316638762,org.python.core.PyTuple$$$$$<init>,15032,251,0.000000,0.000000,0.250000,
5 , 13,316638807,org.python.core.PyFloat$$$$$__sub__,15032,310,0.016174,0.000000,0.750000,
5 , 13,316638899,org.python.core.PyObject$$$$$__call__,15032,292,0.000000,0.000000,1.375000,
5 , 13,316638928,org.python.core.PyList$1exposed_append$$$$$makeBound,15032,25,0.000000,0.000000,0.500000,
5 , 13,316639496,org.python.core.PyObject$$$$$__call__,15032,292,0.000000,0.000000,0.125000,
5 , 13,316639578,org.python.core.PyType$$$$$type___call__,15032,368,0.000000,0.000000,0.125000,
5 , 13,316639643,org.python.core.PyObject$$$$$getType,15032,65,0.000000,0.000000,0.125000,
5 , 13,316639725,org.python.core.PyObjectDerived$$$$$dispatch__init__,15032,192,0.000000,0.000000,0.125000,
5 , 13,316640203,org.python.core.PyMethod$$$$$__call__,15032,330,0.000000,0.000000,1.875000,
5 , 13,316640457,org.python.core.PyObject$$$$$_ne,15032,235,0.000000,0.000000,0.125000,
5 , 13,316640570,org.python.core.PyTuple$$$$$<init>,15032,251,0.006958,0.000000,0.625000,
5 , 13,316640612,org.python.core.PyFloat$$$$$__sub__,15032,310,0.000000,0.000000,0.625000,
5 , 13,316640669,org.python.core.PyFunction$$$$$__call__,15032,269,0.000000,0.000000,0.125000,
5 , 13,316640686,org.python.core.PyFunction$$$$$__call__,15032,269,0.000000,0.000000,0.125000,
5 , 13,316641053,org.python.core.imp$$$$$import_logic,15032,359,0.000000,0.000000,0.125000,
5 , 13,316641135,org.python.core.imp$$$$$import_logic,15032,359,0.000000,0.000000,0.125000,
5 , 13,316641183,org.python.core.PyComplex$$$$$__add__,15032,240,0.000000,0.000000,0.125000,
5 , 13,316641224,org.python.core.PyDictionary$$$$$__delitem__,15032,239,0.000000,0.000000,0.125000,
5 , 13,316641264,org.python.core.PyDictionary$$$$$__delitem__,15032,239,0.000000,0.000000,0.125000,
5 , 13,316641337,org.python.core.PyInteger$$$$$__add__,15032,139,0.000000,0.000000,0.125000,
5 , 13,316641411,org.python.core.PyObjectArray$$$$$getArray,15032,374,0.000000,0.000000,0.125000,
5 , 13,316641418,org.python.core.PyObjectArray$$$$$getArray,15032,374,0.000000,0.000000,0.125000,
5 , 13,316641426,org.python.core.PySequence$$$$$getStop,15032,244,0.000000,0.000000,0.125000,
5 , 13,316641433,org.python.core.PyLong$$$$$__div__,15032,344,0.000000,0.000000,0.125000,
5 , 13,316642075,org.python.core.PyString$1exposed_isspace$$$$$__call__,15032,278,0.000000,0.000000,0.125000,
5 , 13,316642211,org.python.core.PyMethod$$$$$__call__,15032,330,0.000000,0.000000,0.125000,
5 , 13,316642392,org.python.core.PyInteger$$$$$__neg__,15032,320,0.000000,0.000000,0.125000,
5 , 13,316642400,org.python.core.PyInteger$$$$$__neg__,15032,320,0.000000,0.000000,0.125000,
5 , 13,316642477,org.python.core.PyInteger$$$$$__neg__,15032,320,0.000000,0.000000,0.125000,
5 , 14,316642861,org.python.core.PyList$1exposed_append$$$$$makeBound,15032,25,0.000000,0.000000,0.125000,
5 , 14,316642964,org.python.core.PyObject$$$$$__call__,15032,292,0.000000,0.000000,0.375000,
5 , 14,316643008,org.python.core.PyFloat$$$$$__sub__,15032,310,0.000000,0.000000,0.625000,
5 , 14,316643099,org.python.core.PyFloat$$$$$__sub__,15032,310,0.000000,0.000000,1.500000,
5 , 14,316643129,org.python.core.PyTuple$$$$$<init>,15032,251,0.000000,0.000000,0.500000,
5 , 14,316643770,org.python.core.PyObject$$$$$__call__,15032,292,0.000000,0.000000,0.125000,
5 , 14,316644142,org.python.core.PyMethod$$$$$__call__,15032,330,0.000000,0.000000,0.125000,
5 , 14,316644239,org.python.core.PyMethod$$$$$__call__,15032,330,0.184143,0.000000,1.750000,
5 , 14,316644539,org.python.core.PyString$$$$$hashCode,15032,195,0.000000,0.000000,0.125000,
5 , 14,316644812,org.python.core.PyObject$$$$$__call__,15032,292,0.038330,0.000000,0.750000,
5 , 14,316644851,org.python.core.PyObject$$$$$__call__,15032,292,0.115296,0.000000,0.625000,
5 , 14,316644860,org.python.core.PyFunction$$$$$__call__,15032,293,0.000000,0.000000,0.125000,
5 , 14,316644892,org.python.core.PyFunction$$$$$__call__,15032,293,0.000000,0.000000,0.125000,
5 , 14,316644900,org.python.core.PyFunction$$$$$__call__,15032,293,0.000000,0.000000,0.125000,
5 , 14,316645142,org.python.core.PyMethod$$$$$__call__,15032,330,0.007080,0.000000,1.000000,
5 , 14,316645267,org.python.core.imp$$$$$import_logic,15032,359,0.000000,0.000000,0.125000,
5 , 14,316645341,org.python.core.imp$$$$$import_logic,15032,359,0.000000,0.000000,0.125000,
5 , 14,316645414,org.python.core.PyComplex$$$$$__sub__,15032,121,0.000000,0.000000,0.125000,
5 , 14,316645928,org.python.core.PyType$$$$$type___call__,15032,368,0.000000,0.000000,0.125000,
5 , 14,316646003,org.python.core.PyFloat$$$$$__sub__,15032,310,0.000000,0.000000,0.625000,
5 , 14,316646289,org.python.core.PyString$1exposed_isspace$$$$$__call__,15032,278,0.000000,0.000000,0.125000,
5 , 14,316646297,org.python.core.PyString$1exposed_isspace$$$$$__call__,15032,278,0.000000,0.000000,0.125000,
5 , 14,316646306,org.python.core.PyString$1exposed_isspace$$$$$__call__,15032,278,0.000000,0.000000,0.125000,
5 , 14,316646314,org.python.core.PyString$1exposed_isspace$$$$$__call__,15032,278,0.000000,0.000000,0.125000,
5 , 14,316646322,org.python.core.PyString$1exposed_isspace$$$$$__call__,15032,278,0.000000,0.000000,0.125000,
5 , 14,316646330,org.python.core.PyString$1exposed_isspace$$$$$__call__,15032,278,0.000000,0.000000,0.125000,
5 , 14,316646338,org.python.core.PyString$1exposed_isspace$$$$$__call__,15032,278,0.000000,0.000000,0.125000,
5 , 14,316646346,org.python.core.PyString$1exposed_isspace$$$$$__call__,15032,278,0.000000,0.000000,0.125000,
5 , 14,316646435,org.python.core.Py$$$$$newFloat,15032,390,0.000000,0.000000,0.250000,
5 , 14,316646875,org.python.core.PyString$1exposed_isspace$$$$$__call__,15032,278,0.000000,0.000000,0.125000,
5 , 14,316646883,org.python.core.PyString$1exposed_isspace$$$$$__call__,15032,278,0.000000,0.000000,0.125000,
5 , 15,316647017,org.python.core.PyString$$$$$toString,15032,56,0.000000,0.000000,0.125000,
5 , 15,316647123,org.python.core.PyList$1exposed_append$$$$$makeBound,15032,25,0.000000,0.000000,0.125000,
5 , 15,316648116,org.python.core.PyType$$$$$type___call__,15032,368,0.000000,0.000000,0.125000,
5 , 15,316648158,org.python.core.PyType$$$$$lookup,15032,18,0.000000,0.000000,0.125000,
5 , 15,316648165,org.python.core.PyObject$$$$$getType,15032,65,0.000000,0.000000,0.125000,
5 , 15,316648183,org.python.core.PyObjectDerived$$$$$dispatch__init__,15032,192,0.000000,0.000000,0.125000,
5 , 15,316648429,org.python.core.Py$$$$$newFloat,15032,390,0.003540,0.000000,1.000000,
5 , 15,316648489,org.python.core.PyFloat$$$$$__sub__,15032,310,0.007080,0.000000,1.000000,
5 , 15,316648604,org.python.core.PyFloat$$$$$__sub__,15032,310,0.000000,0.000000,2.000000,
5 , 15,316648656,org.python.core.PyTuple$$$$$<init>,15032,251,0.000000,0.000000,0.875000,
5 , 15,316648693,org.python.core.PyObject$$$$$__call__,15032,292,0.000000,0.000000,0.625000,
5 , 15,316648783,org.python.core.PyObject$$$$$__call__,15032,292,0.000000,0.000000,1.625000,
5 , 15,316648822,org.python.core.Py$$$$$newFloat,15032,390,0.000000,0.000000,0.625000,
5 , 15,316648968,org.python.core.PyFunction$$$$$__call__,15032,357,0.000000,0.000000,0.125000,
5 , 15,316649024,org.python.core.PyFunction$$$$$__call__,15032,357,0.000000,0.000000,0.125000,
5 , 15,316649316,org.python.core.Py$$$$$newFloat,15032,390,0.000000,0.000000,1.000000,
5 , 15,316649380,org.python.core.PyFloat$$$$$__sub__,15032,310,0.000000,0.000000,1.000000,
5 , 15,316649386,org.python.core.imp$$$$$import_logic,15032,359,0.000000,0.000000,0.125000,
5 , 15,316649402,org.python.core.imp$$$$$import_logic,15032,359,0.000000,0.000000,0.125000,
5 , 15,316649614,org.python.core.PyDictionary$$$$$__delitem__,15032,239,0.000000,0.000000,0.125000,
5 , 15,316649670,org.python.core.PyInteger$$$$$__mul__,15032,333,0.000000,0.000000,0.125000,
5 , 15,316649841,org.python.core.PyLong$$$$$__add__,15032,312,0.000000,0.000000,0.125000,
5 , 15,316649857,org.python.core.PySequence$$$$$__setslice__,15032,142,0.000000,0.000000,0.125000,
5 , 15,316650620,org.python.core.PyException$$$$$<init>,15032,336,0.000000,0.000000,0.125000,
5 , 15,316650628,org.python.core.Py$$$$$makeException,15032,365,0.000000,0.000000,0.125000,
5 , 15,316650644,org.python.core.PyException$$$$$instantiate,15032,382,0.000000,0.000000,0.125000,
5 , 15,316650660,org.python.core.PyInstance$$$$$__init__,15032,340,0.000000,0.000000,0.125000,
5 , 15,316650693,org.python.core.Py$$$$$makeException,15032,376,0.000000,0.000000,0.125000,
5 , 15,316650806,org.python.core.__builtin__$$$$$chr,15032,375,0.000000,0.000000,0.125000,
5 , 15,316650961,org.python.core.PyObject$$$$$_mod,15032,367,0.000000,0.000000,0.125000,
5 , 16,316651271,org.python.core.PyList$1exposed_append$$$$$makeBound,15032,25,0.000000,0.000000,0.375000,
5 , 16,316651315,org.python.core.PyList$1exposed_append$$$$$makeBound,15032,25,0.000000,0.000000,0.625000,
5 , 16,316651408,org.python.core.PyFloat$$$$$__sub__,15032,310,0.000000,0.000000,1.500000,
5 , 16,316651437,org.python.core.PyFloat$$$$$__sub__,15032,310,0.000000,0.000000,0.375000,
5 , 16,316652207,org.python.core.PyObjectDerived$$$$$dispatch__init__,15032,192,0.000000,0.000000,0.125000,
5 , 16,316653040,org.python.core.PyList$1exposed_append$$$$$makeBound,15032,25,0.000000,0.000000,0.625000,
5 , 16,316653075,org.python.core.PyFloat$$$$$__sub__,15032,310,0.000000,0.000000,0.625000,
5 , 16,316653114,org.python.core.PyFunction$$$$$__call__,15032,293,0.000000,0.000000,0.125000,
5 , 16,316653294,org.python.core.PyFloat$$$$$__sub__,15032,310,0.000000,0.000000,1.125000,
5 , 16,316653353,org.python.core.PyTuple$$$$$<init>,15032,251,0.000000,0.000000,1.125000,
5 , 16,316653471,org.python.core.PyObject$$$$$_doget,15032,95,0.164428,0.000000,2.125000,
5 , 16,316653545,org.python.core.imp$$$$$import_logic,15032,359,0.000000,0.000000,0.125000,
5 , 16,316653717,org.python.core.PyFloat$$$$$__sub__,15032,310,0.000000,0.000000,0.125000,
5 , 16,316653725,org.python.core.PyFloat$$$$$__sub__,15032,310,0.000000,0.000000,0.125000,
5 , 16,316653847,org.python.core.BuiltinFunctions$$$$$__call__,15032,384,0.000000,0.000000,0.125000,
5 , 16,316653856,org.python.core.BuiltinFunctions$$$$$__call__,15032,384,0.000000,0.000000,0.125000,
5 , 16,316654883,org.python.core.PyInteger$$$$$__neg__,15032,320,0.000000,0.000000,0.125000,
5 , 16,316655052,org.python.core.PyObject$$$$$_mod,15032,367,0.000000,0.000000,0.125000,
5 , 17,316655178,org.python.compiler.Code$$$$$push,15032,370,0.000000,0.000000,0.125000,
5 , 17,316655234,org.python.core.BuiltinFunctions$$$$$__call__,15032,384,0.000000,0.000000,0.125000,
5 , 17,316655268,org.python.core.PyList$1exposed_append$$$$$makeBound,15032,25,0.000000,0.000000,0.125000,
5 , 17,316655349,org.python.core.PyFloat$$$$$__sub__,15032,310,0.000000,0.000000,0.375000,
5 , 17,316655393,org.python.core.PyList$1exposed_append$$$$$makeBound,15032,25,0.000000,0.000000,0.750000,
5 , 17,316655486,Strings$py$$$$$test$8,15032,284,0.000000,0.000000,1.625000,
5 , 17,316655515,org.python.core.PyFloat$$$$$__sub__,15032,310,0.000000,0.000000,0.500000,
5 , 17,316656288,org.python.core.PyObjectDerived$$$$$dispatch__init__,15032,192,0.000000,0.000000,0.125000,
5 , 17,316657180,org.python.core.PyList$1exposed_append$$$$$makeBound,15032,25,0.000000,0.000000,0.625000,
5 , 17,316657217,org.python.core.PyFloat$$$$$__sub__,15032,310,0.000000,0.000000,0.500000,
5 , 17,316657447,org.python.core.PyFloat$$$$$__sub__,15032,310,0.010315,0.000000,1.125000,
5 , 17,316657507,org.python.core.PyTuple$$$$$<init>,15032,251,0.000000,0.000000,0.875000,
5 , 17,316657629,org.python.core.PyObject$$$$$_doget,15032,95,0.282471,0.000000,2.125000,
5 , 17,316657629,org.python.core.imp$$$$$import_logic,15032,359,0.006836,0.000000,0.125000,
5 , 17,316657717,org.python.core.imp$$$$$import_logic,15032,359,0.000000,0.000000,0.125000,
5 , 17,316657733,org.python.core.imp$$$$$import_logic,15032,359,0.000000,0.000000,0.125000,
5 , 17,316657741,org.python.core.imp$$$$$import_logic,15032,359,0.000000,0.000000,0.125000,
5 , 17,316657749,org.python.core.imp$$$$$import_logic,15032,359,0.000000,0.000000,0.125000,
5 , 17,316657757,org.python.core.imp$$$$$import_logic,15032,359,0.000000,0.000000,0.125000,
5 , 17,316657765,org.python.core.PyComplex$$$$$__add__,15032,240,0.000000,0.000000,0.125000,
5 , 17,316657773,org.python.core.PyComplex$$$$$complex___radd__,15032,238,0.000000,0.000000,0.125000,
5 , 17,316657797,org.python.core.PyComplex$$$$$__sub__,15032,121,0.000000,0.000000,0.125000,
5 , 17,316657822,org.python.core.PyDictionary$$$$$__delitem__,15032,239,0.000000,0.000000,0.125000,
5 , 17,316657830,org.python.core.PyDictionary$$$$$__delitem__,15032,239,0.000000,0.000000,0.125000,
5 , 17,316657847,org.python.core.PyDictionary$$$$$__delitem__,15032,239,0.000000,0.000000,0.125000,
5 , 17,316657855,org.python.core.PyDictionary$$$$$__delitem__,15032,239,0.000000,0.000000,0.125000,
5 , 17,316657863,org.python.core.PyDictionary$$$$$__delitem__,15032,239,0.000000,0.000000,0.125000,
5 , 17,316657871,org.python.core.PyDictionary$$$$$__delitem__,15032,239,0.000000,0.000000,0.125000,
5 , 17,316657879,org.python.core.PyFloat$$$$$__sub__,15032,310,0.000000,0.000000,0.125000,
5 , 17,316657887,org.python.core.PyFloat$$$$$__sub__,15032,310,0.000000,0.000000,0.125000,
5 , 17,316657903,org.python.core.PyFloat$$$$$__sub__,15032,310,0.000000,0.000000,0.125000,
5 , 17,316658081,org.python.core.PyLong$$$$$__div__,15032,344,0.000000,0.000000,0.125000,
5 , 17,316658097,org.python.core.PyLong$$$$$__div__,15032,344,0.000000,0.000000,0.125000,
5 , 17,316658105,org.python.core.AbstractArray$$$$$makeInsertSpace,15032,249,0.000000,0.000000,0.125000,
5 , 17,316658113,org.python.core.PyList$$$$$setslice,15032,373,0.000000,0.000000,0.125000,
5 , 17,316658147,org.python.core.PyList$$$$$setslice,15032,373,0.000000,0.000000,0.125000,
5 , 17,316658258,org.python.core.PyType$$$$$type___call__,15032,368,0.000000,0.000000,0.125000,
5 , 17,316658272,org.python.core.PyType$$$$$type___call__,15032,368,0.000000,0.000000,0.125000,
5 , 17,316658280,org.python.core.PyList$$$$$list_init,15032,315,0.000000,0.000000,0.125000,
5 , 17,316658722,org.python.core.PyString$1exposed_isspace$$$$$__call__,15032,278,0.000000,0.000000,0.125000,
5 , 17,316658739,org.python.core.PyString$1exposed_isspace$$$$$__call__,15032,278,0.000000,0.000000,0.125000,
5 , 17,316658937,org.python.core.PyInstance$$$$$__init__,15032,340,0.000000,0.000000,0.125000,
5 , 18,316659497,org.python.core.ReflectedCallData$$$$$setLength,15032,361,0.000000,0.000000,0.250000,
5 , 18,316659540,org.python.core.PyList$1exposed_append$$$$$makeBound,15032,25,0.000000,0.000000,0.500000,
5 , 18,316659636,Strings$py$$$$$test$8,15032,284,0.006836,0.000000,1.125000,
5 , 18,316659665,org.python.core.ReflectedCallData$$$$$setLength,15032,361,0.000000,0.000000,0.250000,
5 , 18,316660276,Instances$py$$$$$__init__$5,15032,265,0.006836,0.000000,0.125000,
5 , 18,316660351,org.python.core.PyType$$$$$type___call__,15032,368,0.000000,0.000000,0.125000,
5 , 18,316660498,org.python.core.PyObjectDerived$$$$$dispatch__init__,15032,192,0.000000,0.000000,0.125000,
5 , 18,316660690,org.python.core.PyList$1exposed_append$$$$$makeBound,15032,25,0.038208,0.000000,1.875000,
5 , 18,316660747,Unicode$py$$$$$test$8,15032,399,0.014465,0.000000,0.750000,
5 , 18,316660802,org.python.core.PyObject$$$$$_doget,15032,95,0.003540,0.000000,0.750000,
5 , 18,316660918,org.python.core.PyTuple$$$$$<init>,15032,251,0.000000,0.000000,1.625000,
5 , 18,316660968,org.python.core.ReflectedCallData$$$$$setLength,15032,361,0.000000,0.000000,0.750000,
5 , 18,316661006,org.python.core.PyList$1exposed_append$$$$$makeBound,15032,25,0.011170,0.000000,0.500000,
5 , 18,316661057,org.python.core.PyTuple$$$$$<init>,15032,251,0.012085,0.000000,0.625000,
5 , 18,316661096,org.python.core.PyObject$$$$$_doget,15032,95,0.000000,0.000000,0.625000,
5 , 18,316661207,org.python.core.PyTuple$$$$$<init>,15032,251,0.000000,0.000000,0.625000,
5 , 18,316661243,org.python.core.PyTuple$$$$$<init>,15032,251,0.000000,0.000000,0.500000,
5 , 18,316661521,org.python.core.PyObject$$$$$_doget,15032,95,0.000000,0.000000,1.125000,
5 , 18,316661581,org.python.core.PyList$1exposed_append$$$$$makeBound,15032,25,0.000000,0.000000,1.000000,
5 , 18,316661645,org.python.core.PyTuple$$$$$<init>,15032,251,0.000000,0.000000,1.000000,
5 , 18,316661711,org.python.core.imp$$$$$import_logic,15032,359,0.000000,0.000000,0.125000,
5 , 18,316661793,org.python.core.PyComplex$$$$$__add__,15032,240,0.000000,0.000000,0.125000,
5 , 18,316662623,org.python.core.PyString$1exposed_isspace$$$$$__call__,15032,278,0.000000,0.000000,0.125000,
5 , 18,316662631,org.python.core.PyString$1exposed_isspace$$$$$__call__,15032,278,0.000000,0.000000,0.125000,
5 , 18,316662978,org.python.core.PyInteger$$$$$__neg__,15032,320,0.000000,0.000000,0.125000,
5 , 18,316663252,org.python.core.PyFloat$$$$$getValue,15032,311,0.000000,0.000000,0.125000,
5 , 19,316663450,org.python.core.ReflectedCallData$$$$$setLength,15032,361,0.000000,0.000000,0.250000,
5 , 19,316663492,org.python.core.PyList$1exposed_append$$$$$makeBound,15032,25,0.000000,0.000000,0.625000,
5 , 19,316663585,Strings$py$$$$$test$8,15032,284,0.015625,0.000000,1.375000,
5 , 19,316663614,org.python.core.ReflectedCallData$$$$$setLength,15032,361,0.000000,0.000000,0.500000,
5 , 19,316664403,NewInstances$py$$$$$__init__$6,15032,329,0.000000,0.000000,0.125000,
5 , 19,316665186,org.python.core.PyTuple$$$$$<init>,15032,251,0.000000,0.000000,0.625000,
5 , 19,316665221,org.python.core.PyTuple$$$$$<init>,15032,251,0.000000,0.000000,0.500000,
5 , 19,316665443,org.python.core.PyObject$$$$$_doget,15032,95,0.000000,0.000000,1.125000,
5 , 19,316665501,org.python.core.PyList$1exposed_append$$$$$makeBound,15032,25,0.000000,0.000000,1.000000,
5 , 19,316665565,org.python.core.PyTuple$$$$$<init>,15032,251,0.006591,0.000000,1.000000,
5 , 19,316665629,org.python.core.imp$$$$$import_logic,15032,359,0.000000,0.000000,0.125000,
5 , 19,316665906,org.python.core.PyInteger$$$$$__add__,15032,139,0.000000,0.000000,0.125000,
5 , 19,316665964,org.python.core.BuiltinFunctions$$$$$__call__,15032,384,0.000000,0.000000,0.125000,
5 , 19,316666037,org.python.core.PyLong$$$$$__sub__,15032,364,0.000000,0.000000,0.125000,
5 , 19,316666127,org.python.core.PyType$$$$$lookup,15032,18,0.000000,0.000000,0.125000,
5 , 19,316666632,org.python.core.PyObject$$$$$_mod,15032,367,0.000000,0.000000,0.125000,
5 , 19,316666640,org.python.core.PyObject$$$$$_mod,15032,367,0.000000,0.000000,0.125000,
5 , 19,316666721,org.python.core.Py$$$$$makeException,15032,365,0.000000,0.000000,0.125000,
5 , 19,316666729,org.python.core.PyInstance$$$$$__init__,15032,340,0.000000,0.000000,0.125000,
5 , 19,316667134,org.python.core.Py$$$$$newBoolean,15032,403,0.000000,0.000000,0.125000,
5 , 20,316667326,org.python.core.PyList$1exposed_append$$$$$makeBound,15032,25,0.000000,0.000000,0.125000,
5 , 20,316667334,org.python.core.PyList$1exposed_append$$$$$makeBound,15032,25,0.000000,0.000000,0.125000,
5 , 20,316667342,org.python.core.PyList$1exposed_append$$$$$makeBound,15032,25,0.000000,0.000000,0.125000,
5 , 20,316667350,org.python.core.PyList$1exposed_append$$$$$makeBound,15032,25,0.000000,0.000000,0.125000,
5 , 20,316667358,org.python.core.PyList$1exposed_append$$$$$makeBound,15032,25,0.000000,0.000000,0.125000,
5 , 20,316667366,org.python.core.PyList$1exposed_append$$$$$makeBound,15032,25,0.000000,0.000000,0.125000,
5 , 20,316667374,org.python.core.PyList$1exposed_append$$$$$makeBound,15032,25,0.000000,0.000000,0.125000,
5 , 20,316668208,org.python.core.PyList$1exposed_append$$$$$makeBound,15032,25,0.010376,0.000000,0.875000,
5 , 20,316669009,org.python.core.PyInteger$$$$$__neg__,15032,320,0.000000,0.000000,0.125000,
5 , 20,316669114,org.python.core.PyTuple$$$$$<init>,15032,251,0.000000,0.000000,0.625000,
5 , 20,316669149,org.python.core.PyList$1exposed_append$$$$$makeBound,15032,25,0.000000,0.000000,0.625000,
5 , 20,316669164,org.python.core.PyFunction$$$$$__call__,15032,357,0.000000,0.000000,0.125000,
5 , 20,316669212,org.python.core.PyFunction$$$$$__call__,15032,293,0.000000,0.000000,0.125000,
5 , 20,316669360,org.python.core.PyObject$$$$$_doget,15032,95,0.000000,0.000000,1.250000,
5 , 20,316669419,org.python.core.PyList$1exposed_append$$$$$makeBound,15032,25,0.000000,0.000000,1.125000,
5 , 20,316669483,org.python.core.PyTuple$$$$$<init>,15032,251,0.000000,0.000000,1.000000,
5 , 20,316669483,org.python.core.imp$$$$$import_logic,15032,359,0.000000,0.000000,0.125000,
5 , 20,316669525,org.python.core.imp$$$$$import_logic,15032,359,0.000000,0.000000,0.125000,
5 , 20,316669621,org.python.core.PyComplex$$$$$__add__,15032,240,0.000000,0.000000,0.125000,
5 , 20,316669754,org.python.core.PyDictionary$$$$$__delitem__,15032,239,0.000000,0.000000,0.125000,
5 , 20,316669802,org.python.core.PyInteger$$$$$__add__,15032,139,0.000000,0.000000,0.125000,
5 , 20,316669835,org.python.core.PyInteger$$$$$__add__,15032,139,0.000000,0.000000,0.125000,
5 , 20,316669843,org.python.core.PyInteger$$$$$__mul__,15032,333,0.000000,0.000000,0.125000,
5 , 20,316669851,org.python.core.PyInteger$$$$$__add__,15032,139,0.000000,0.000000,0.125000,
5 , 20,316669876,org.python.core.BuiltinFunctions$$$$$__call__,15032,384,0.000000,0.000000,0.125000,
5 , 20,316669884,org.python.core.BuiltinFunctions$$$$$__call__,15032,384,0.000000,0.000000,0.125000,
5 , 20,316669892,org.python.core.BuiltinFunctions$$$$$__call__,15032,384,0.000000,0.000000,0.125000,
5 , 20,316669900,org.python.core.BuiltinFunctions$$$$$__call__,15032,384,0.000000,0.000000,0.125000,
5 , 20,316669925,org.python.core.PyLong$$$$$__mul__,15032,217,0.000000,0.000000,0.125000,
5 , 20,316669933,org.python.core.PyLong$$$$$__sub__,15032,364,0.000000,0.000000,0.125000,
5 , 20,316669941,org.python.core.PyLong$$$$$__sub__,15032,364,0.000000,0.000000,0.125000,
5 , 20,316669949,org.python.core.PyLong$$$$$__mul__,15032,217,0.000000,0.000000,0.125000,
5 , 20,316669990,org.python.core.AbstractArray$$$$$replaceSubArray,15032,272,0.000000,0.000000,0.125000,
5 , 20,316670024,org.python.core.PyList$1exposed_append$$$$$makeBound,15032,25,0.000000,0.000000,0.125000,
5 , 20,316670032,org.python.core.PySequence$$$$$__setslice__,15032,142,0.000000,0.000000,0.125000,
5 , 20,316670073,org.python.core.PyType$$$$$type___call__,15032,368,0.000000,0.000000,0.125000,
5 , 20,316670097,org.python.core.PyType$$$$$type___call__,15032,368,0.000000,0.000000,0.125000,
5 , 20,316670105,org.python.core.ArgParser$$$$$check,15032,223,0.000000,0.000000,0.125000,
5 , 20,316670113,org.python.core.ArgParser$$$$$check,15032,223,0.000000,0.000000,0.125000,
5 , 20,316670633,org.python.core.ArgParser$$$$$check,15032,223,0.000000,0.000000,0.125000,
5 , 20,316670796,org.python.core.PyInteger$$$$$__neg__,15032,320,0.000000,0.000000,0.125000,
5 , 20,316670804,org.python.core.PyInteger$$$$$__neg__,15032,320,0.000000,0.000000,0.125000,
5 , 20,316670813,org.python.core.PyInteger$$$$$__neg__,15032,320,0.000000,0.000000,0.125000,
5 , 20,316670821,org.python.core.PyInteger$$$$$__neg__,15032,320,0.000000,0.000000,0.125000,
5 , 20,316670829,org.python.core.PyInteger$$$$$__neg__,15032,320,0.000000,0.000000,0.125000,
5 , 20,316670837,org.python.core.PyInteger$$$$$__neg__,15032,320,0.000000,0.000000,0.125000,
5 , 20,316671088,org.python.core.PyType$$$$$type___call__,15032,368,0.000000,0.000000,0.125000,
5 , 20,316671095,org.python.core.Py$$$$$getSystemState,15032,208,0.000000,0.000000,0.125000,
