MethodName,Frequency,iteration,Package,junk
antlr.CommonToken.setText,0,5,0.035462,1
antlr.CommonToken.setText,0,7,0.073914,4
antlr.CommonToken.setText,0,8,0.825806,2
antlr.CommonToken.setText,0,9,0.032898,2
antlr.CommonToken.setText,0,10,0.055542999999999995,3
antlr.CommonToken.setText,0,11,0.022827,1
antlr.CommonToken.setText,0,12,0.043579,2
antlr.CommonToken.setText,0,13,0.045044,2
antlr.CommonToken.setText,0,14,0.034301,2
antlr.CommonToken.setText,0,15,0.040528,2
antlr.CommonToken.setText,0,16,0.043824,2
antlr.CommonToken.setText,0,17,0.021422999999999998,1
antlr.CommonToken.setText,0,19,0.070129,3
antlr.CommonToken.setText,0,20,0.044739,2
antlr.CommonToken.setText,1,13,0.045105,2
antlr.CommonToken.setText,1,14,0.024109000000000002,1
antlr.CommonToken.setText,1,15,0.07757599999999999,3
antlr.CommonToken.setText,1,16,0.04834,2
antlr.CommonToken.setText,1,17,0.157654,6
antlr.CommonToken.setText,1,18,0.098571,4
antlr.CommonToken.setText,1,19,0.128294,6
antlr.CommonToken.setText,1,20,0.117614,5
antlr.CommonToken.setText,3,6,0.032898000000000004,2
antlr.CommonToken.setText,3,7,0.015747,1
antlr.CommonToken.setText,3,8,0.065857,5
antlr.CommonToken.setText,3,9,0.025085999999999997,2
antlr.CommonToken.setText,3,10,0.042969,2
antlr.CommonToken.setText,3,11,0.037598,2
antlr.CommonToken.setText,3,12,0.018859,1
antlr.CommonToken.setText,3,13,0.08014,6
antlr.CommonToken.setText,3,14,0.012329999999999999,1
antlr.CommonToken.setText,3,15,0.03772,3
antlr.CommonToken.setText,3,16,0.027344,2
antlr.CommonToken.setText,3,17,0.041564000000000004,3
antlr.CommonToken.setText,3,18,0.027649,2
antlr.CommonToken.setText,3,19,0.014891999999999999,1
antlr.CommonToken.setText,3,20,0.120057,8
antlr.CommonToken.setText,4,8,0.06365900000000001,4
antlr.CommonToken.setText,4,9,0.018921,1
antlr.CommonToken.setText,4,10,0.017578,1
antlr.CommonToken.setText,4,11,0.048706,3
antlr.CommonToken.setText,4,12,0.06311,4
antlr.CommonToken.setText,4,13,0.050963999999999995,3
antlr.CommonToken.setText,4,14,0.046997000000000004,3
antlr.CommonToken.setText,4,15,0.032165,2
antlr.CommonToken.setText,4,16,0.038452,3
antlr.CommonToken.setText,4,17,0.063476,4
antlr.CommonToken.setText,4,18,0.020447,1
antlr.CommonToken.setText,4,19,0.036377,2
antlr.CommonToken.setText,4,20,0.061462,3
antlr.CommonToken.setText,5,4,0.028503,2
antlr.CommonToken.setText,5,5,0.013977000000000002,1
antlr.CommonToken.setText,5,6,0.099062,7
antlr.CommonToken.setText,5,7,0.06951900000000001,4
antlr.CommonToken.setText,5,8,0.158691,9
antlr.CommonToken.setText,5,9,0.05773899999999999,4
antlr.CommonToken.setText,5,10,0.011169,1
antlr.CommonToken.setText,5,11,0.013061000000000001,1
antlr.CommonToken.setText,5,12,0.036315,2
antlr.CommonToken.setText,5,13,0.0661,4
antlr.CommonToken.setText,6,6,0.321472,2
antlr.CommonToken.setText,6,7,0.019592,1
antlr.CommonToken.setText,6,8,0.015381,1
antlr.CommonToken.setText,6,10,0.024475,2
antlr.CommonToken.setText,6,11,0.051025,4
antlr.CommonToken.setText,6,12,0.026123,2
antlr.CommonToken.setText,6,13,0.093018,8
antlr.CommonToken.setText,6,14,0.023316,2
antlr.CommonToken.setText,6,15,0.030579,2
antlr.CommonToken.setText,6,16,0.072937,5
antlr.CommonToken.setText,6,17,0.039488999999999996,3
antlr.CommonToken.setText,6,18,0.053040000000000004,4
antlr.CommonToken.setText,8,2,0.042054,3
antlr.CommonToken.setText,8,3,0.027222,2
antlr.CommonToken.setText,8,4,0.08880699999999998,6
antlr.CommonToken.setText,8,5,0.040344000000000005,3
antlr.CommonToken.setText,8,6,0.03894,3
antlr.CommonToken.setText,8,7,0.04779,4
antlr.CommonToken.setText,8,8,0.09594699999999999,7
antlr.CommonToken.setText,8,9,0.058531,4
antlr.CommonToken.setText,8,10,0.040284,3
antlr.CommonToken.setText,8,11,0.057739000000000006,4
antlr.CommonToken.setText,8,12,0.090758,7
antlr.CommonToken.setText,8,13,0.063782,5
antlr.CommonToken.setText,8,14,0.032349,3
antlr.CommonToken.setText,8,15,0.072816,5
antlr.CommonToken.setText,8,16,0.013366,1
antlr.CommonToken.setText,8,17,0.041138,3
antlr.CommonToken.setText,8,18,0.06543,6
antlr.CommonToken.setText,8,19,0.103454,7
antlr.CommonToken.setText,8,20,0.02478,2
antlr.CommonToken.setText,9,2,0.084961,6
antlr.CommonToken.setText,9,3,0.107788,9
antlr.CommonToken.setText,9,4,0.054444000000000006,4
antlr.CommonToken.setText,9,5,0.036255,3
antlr.CommonToken.setText,9,6,0.048157,4
antlr.CommonToken.setText,9,7,0.079589,7
antlr.CommonToken.setText,9,8,0.020325,2
antlr.CommonToken.setText,9,9,0.078188,7
antlr.CommonToken.setText,9,10,0.08612100000000002,8
antlr.CommonToken.setText,9,11,0.06994600000000001,6
antlr.CommonToken.setText,9,12,0.049254000000000006,4
antlr.CommonToken.setText,9,13,0.013733,1
antlr.CommonToken.setText,10,5,0.009643,1
antlr.CommonToken.setText,10,6,0.023071,2
antlr.CommonToken.setText,10,7,0.086672,8
antlr.CommonToken.setText,10,8,0.031615000000000004,3
antlr.CommonToken.setText,10,9,0.11316000000000001,10
antlr.CommonToken.setText,10,10,0.092774,8
antlr.CommonToken.setText,10,11,0.039552,4
antlr.CommonToken.setText,10,12,0.102905,10
antlr.CommonToken.setText,10,13,0.055483000000000005,5
antlr.CommonToken.setText,10,14,0.091185,8
antlr.CommonToken.setText,10,15,0.08312800000000001,7
antlr.CommonToken.setText,10,16,0.031007,3
antlr.CommonToken.setText,10,17,0.06128,6
antlr.CommonToken.setText,10,18,0.064393,6
antlr.CommonToken.setText,10,19,0.098021,10
antlr.CommonToken.setText,10,20,0.037475999999999995,3
antlr.CommonToken.setText,11,2,0.010071,1
antlr.CommonToken.setText,11,3,0.059145,6
antlr.CommonToken.setText,11,4,0.031555,3
antlr.CommonToken.setText,11,5,0.03473,3
antlr.CommonToken.setText,11,6,0.062989,7
antlr.CommonToken.setText,11,7,0.019653,2
antlr.CommonToken.setText,11,8,0.055298,5
antlr.CommonToken.setText,11,9,0.031128,3
antlr.CommonToken.setText,11,10,0.030578,3
antlr.CommonToken.setText,11,11,0.065003,6
antlr.CommonToken.setText,11,12,0.03479,3
antlr.CommonToken.setText,11,13,0.040284,4
antlr.CommonToken.setText,11,14,0.14373800000000003,16
antlr.CommonToken.setText,11,15,0.052735000000000004,6
antlr.CommonToken.setText,11,16,0.0697,6
antlr.CommonToken.setText,11,17,0.109496,9
antlr.CommonToken.setText,11,18,0.07678100000000002,7
antlr.CommonToken.setText,11,19,0.025757000000000002,2
antlr.CommonToken.setText,12,3,0.075072,7
antlr.CommonToken.setText,12,4,0.043519,4
antlr.CommonToken.setText,12,5,0.086792,8
antlr.CommonToken.setText,12,6,0.104799,10
antlr.CommonToken.setText,12,7,0.122681,13
antlr.CommonToken.setText,12,8,0.054994,6
antlr.CommonToken.setText,12,9,0.055723,6
antlr.CommonToken.setText,12,10,0.036743,4
antlr.CommonToken.setText,12,11,0.045714,5
antlr.CommonToken.setText,12,12,0.075195,8
antlr.CommonToken.setText,12,13,0.037537,4
antlr.CommonToken.setText,12,14,0.07684500000000001,8
antlr.CommonToken.setText,12,15,0.100832,9
antlr.CommonToken.setText,12,16,0.102964,10
antlr.CommonToken.setText,12,17,0.141482,15
antlr.CommonToken.setText,12,18,0.169921,16
antlr.CommonToken.setText,12,19,0.156799,15
antlr.CommonToken.setText,12,20,0.17334100000000002,16
antlr.LLkAnalyzer.look,0,1,0.014771000000000001,1
antlr.LLkAnalyzer.look,0,2,0.041687,2
antlr.LLkAnalyzer.look,0,3,0.048644999999999994,2
antlr.LLkAnalyzer.look,0,4,0.013306,1
antlr.LLkAnalyzer.look,0,5,0.050721,3
antlr.LLkAnalyzer.look,0,6,0.021422999999999998,1
antlr.LLkAnalyzer.look,0,7,0.041382,2
antlr.LLkAnalyzer.look,0,8,0.10498000000000002,6
antlr.LLkAnalyzer.look,0,9,0.08197,4
antlr.LLkAnalyzer.look,0,11,0.024597,1
antlr.LLkAnalyzer.look,0,12,0.068787,3
antlr.LLkAnalyzer.look,0,14,0.063904,3
antlr.LLkAnalyzer.look,0,15,0.061095,3
antlr.LLkAnalyzer.look,0,16,0.021302,1
antlr.LLkAnalyzer.look,0,17,0.167358,8
antlr.LLkAnalyzer.look,0,18,0.145569,7
antlr.LLkAnalyzer.look,0,19,0.021240000000000002,1
antlr.LLkAnalyzer.look,0,20,0.024048,1
antlr.LLkAnalyzer.look,1,2,0.024109000000000002,1
antlr.LLkAnalyzer.look,1,4,0.050842,2
antlr.LLkAnalyzer.look,1,6,0.029845999999999998,1
antlr.LLkAnalyzer.look,1,9,0.026916000000000002,1
antlr.LLkAnalyzer.look,1,10,0.051391000000000006,2
antlr.LLkAnalyzer.look,1,11,0.072145,3
antlr.LLkAnalyzer.look,1,14,0.049561999999999995,2
antlr.LLkAnalyzer.look,1,15,0.024109000000000002,1
antlr.LLkAnalyzer.look,1,16,0.025024,1
antlr.LLkAnalyzer.look,1,17,0.051696,2
antlr.LLkAnalyzer.look,1,18,0.024291999999999998,1
antlr.LLkAnalyzer.look,1,19,0.15558,7
antlr.LLkAnalyzer.look,1,20,0.075013,3
antlr.LLkAnalyzer.look,2,2,0.023865,1
antlr.LLkAnalyzer.look,2,3,0.03515700000000001,2
antlr.LLkAnalyzer.look,2,5,0.025025,1
antlr.LLkAnalyzer.look,2,7,0.018799,1
antlr.LLkAnalyzer.look,2,8,0.049195,2
antlr.LLkAnalyzer.look,2,9,0.087463,4
antlr.LLkAnalyzer.look,2,10,0.136717,7
antlr.LLkAnalyzer.look,2,12,0.024109000000000002,1
antlr.LLkAnalyzer.look,2,13,0.060608999999999996,3
antlr.LLkAnalyzer.look,2,14,0.090574,4
antlr.LLkAnalyzer.look,2,15,0.091004,4
antlr.LLkAnalyzer.look,2,16,0.120728,5
antlr.LLkAnalyzer.look,2,18,0.019714,1
antlr.LLkAnalyzer.look,2,19,0.02539,1
antlr.LLkAnalyzer.look,2,20,0.020203,1
antlr.LLkAnalyzer.look,3,3,0.052124000000000004,3
antlr.LLkAnalyzer.look,3,4,0.033447000000000005,2
antlr.LLkAnalyzer.look,3,5,0.130187,7
antlr.LLkAnalyzer.look,3,6,0.066772,3
antlr.LLkAnalyzer.look,3,7,0.013549,1
antlr.LLkAnalyzer.look,3,10,0.08306799999999999,4
antlr.LLkAnalyzer.look,3,11,0.078431,4
antlr.LLkAnalyzer.look,3,12,0.05548,3
antlr.LLkAnalyzer.look,3,13,0.06244,5
antlr.LLkAnalyzer.look,3,14,0.089965,7
antlr.LLkAnalyzer.look,3,15,0.15808,9
antlr.LLkAnalyzer.look,3,16,0.16015799999999997,10
antlr.LLkAnalyzer.look,3,17,0.11895799999999998,7
antlr.LLkAnalyzer.look,3,18,0.08721799999999999,6
antlr.LLkAnalyzer.look,3,19,0.060424,4
antlr.LLkAnalyzer.look,3,20,0.11676099999999999,7
antlr.LLkAnalyzer.look,4,2,0.019104,1
antlr.LLkAnalyzer.look,4,3,0.39379899999999995,1
antlr.LLkAnalyzer.look,4,4,0.06793099999999999,4
antlr.LLkAnalyzer.look,4,5,0.07367000000000001,4
antlr.LLkAnalyzer.look,4,6,0.129212,7
antlr.LLkAnalyzer.look,4,7,0.08282500000000001,5
antlr.LLkAnalyzer.look,4,8,0.034728999999999996,2
antlr.LLkAnalyzer.look,4,9,0.048462,3
antlr.LLkAnalyzer.look,4,10,0.036378,2
antlr.LLkAnalyzer.look,4,11,0.05249,3
antlr.LLkAnalyzer.look,4,12,0.054748,3
antlr.LLkAnalyzer.look,4,13,0.015747,1
antlr.LLkAnalyzer.look,4,14,0.134644,8
antlr.LLkAnalyzer.look,4,15,0.089905,5
antlr.LLkAnalyzer.look,4,16,0.07849199999999999,5
antlr.LLkAnalyzer.look,4,17,0.17944400000000002,11
antlr.LLkAnalyzer.look,4,18,0.12365699999999999,7
antlr.LLkAnalyzer.look,4,19,0.137266,8
antlr.LLkAnalyzer.look,4,20,0.05615200000000001,3
antlr.LLkAnalyzer.look,5,2,0.014953999999999999,1
antlr.LLkAnalyzer.look,5,6,0.029418,2
antlr.LLkAnalyzer.look,5,7,0.104616,6
antlr.LLkAnalyzer.look,5,8,0.015992,1
antlr.LLkAnalyzer.look,5,9,0.028746999999999998,2
antlr.LLkAnalyzer.look,5,10,0.057922,4
antlr.LLkAnalyzer.look,5,11,0.053649,4
antlr.LLkAnalyzer.look,5,12,0.030396,2
antlr.LLkAnalyzer.look,5,13,0.048095,3
antlr.LLkAnalyzer.look,5,14,0.031067000000000004,2
antlr.LLkAnalyzer.look,5,15,0.026917,2
antlr.LLkAnalyzer.look,5,16,0.04895,4
antlr.LLkAnalyzer.look,5,17,0.046693,4
antlr.LLkAnalyzer.look,5,18,0.034606000000000005,3
antlr.LLkAnalyzer.look,5,19,0.09753600000000001,8
antlr.LLkAnalyzer.look,5,20,0.052978,4
antlr.LLkAnalyzer.look,6,2,0.024231000000000003,2
antlr.LLkAnalyzer.look,6,4,0.02124,2
antlr.LLkAnalyzer.look,6,5,0.058227999999999995,5
antlr.LLkAnalyzer.look,6,6,0.046507999999999994,4
antlr.LLkAnalyzer.look,6,7,0.11554,9
antlr.LLkAnalyzer.look,6,8,0.13171499999999997,8
antlr.LLkAnalyzer.look,6,9,0.044556,3
antlr.LLkAnalyzer.look,6,10,0.120117,9
antlr.LLkAnalyzer.look,6,11,0.16455,13
antlr.LLkAnalyzer.look,6,12,0.2989509999999999,20
antlr.LLkAnalyzer.look,6,13,0.21319400000000002,17
antlr.LLkAnalyzer.look,6,14,0.103577,8
antlr.LLkAnalyzer.look,6,15,0.049683000000000005,3
antlr.LLkAnalyzer.look,6,16,0.20758000000000001,14
antlr.LLkAnalyzer.look,6,17,0.10259900000000001,7
antlr.LLkAnalyzer.look,6,18,0.05645700000000001,4
antlr.LLkAnalyzer.look,6,19,0.200256,14
antlr.LLkAnalyzer.look,6,20,0.226561,14
antlr.LLkAnalyzer.look,7,3,0.08148300000000001,7
antlr.LLkAnalyzer.look,7,4,0.070374,5
antlr.LLkAnalyzer.look,7,5,0.10827799999999999,9
antlr.LLkAnalyzer.look,7,6,0.095764,8
antlr.LLkAnalyzer.look,7,7,0.14099199999999998,11
antlr.LLkAnalyzer.look,7,8,0.101868,8
antlr.LLkAnalyzer.look,7,9,0.077944,6
antlr.LLkAnalyzer.look,7,10,0.160275,12
antlr.LLkAnalyzer.look,7,11,0.14099,13
antlr.LLkAnalyzer.look,7,12,0.192322,15
antlr.LLkAnalyzer.look,7,13,0.119751,10
antlr.LLkAnalyzer.look,7,14,0.109741,10
antlr.LLkAnalyzer.look,7,15,0.129334,9
antlr.LLkAnalyzer.look,7,16,0.12097099999999998,10
antlr.LLkAnalyzer.look,7,17,0.26025499999999996,20
antlr.LLkAnalyzer.look,7,18,0.147461,12
antlr.LLkAnalyzer.look,7,19,0.14221100000000003,11
antlr.LLkAnalyzer.look,7,20,0.24603300000000006,21
antlr.LLkAnalyzer.look,8,2,0.012695,1
antlr.LLkAnalyzer.look,8,3,0.008484,1
antlr.LLkAnalyzer.look,8,4,0.013,1
antlr.LLkAnalyzer.look,8,5,0.013184,1
antlr.LLkAnalyzer.look,8,8,0.045166000000000005,3
antlr.LLkAnalyzer.look,8,9,0.08288499999999999,6
antlr.LLkAnalyzer.look,8,10,0.053101,4
antlr.LLkAnalyzer.look,8,11,0.111084,8
antlr.LLkAnalyzer.look,8,12,0.100098,9
antlr.LLkAnalyzer.look,8,13,0.087279,7
antlr.LLkAnalyzer.look,8,14,0.06719900000000001,6
antlr.LLkAnalyzer.look,8,15,0.07159499999999999,5
antlr.LLkAnalyzer.look,8,16,0.140564,10
antlr.LLkAnalyzer.look,8,17,0.093261,7
antlr.LLkAnalyzer.look,8,18,0.066222,5
antlr.LLkAnalyzer.look,8,19,0.040588,3
antlr.LLkAnalyzer.look,8,20,0.09375,8
antlr.LLkAnalyzer.look,9,3,0.050843000000000006,4
antlr.LLkAnalyzer.look,9,4,0.089783,7
antlr.LLkAnalyzer.look,9,5,0.104674,8
antlr.LLkAnalyzer.look,9,6,0.066711,5
antlr.LLkAnalyzer.look,9,7,0.141662,11
antlr.LLkAnalyzer.look,9,8,0.16131600000000001,12
antlr.LLkAnalyzer.look,9,9,0.15307500000000002,9
antlr.LLkAnalyzer.look,9,10,0.884767,12
antlr.LLkAnalyzer.look,9,11,0.10333400000000001,9
antlr.LLkAnalyzer.look,9,12,0.15380599999999997,11
antlr.LLkAnalyzer.look,9,13,0.060487,5
antlr.LLkAnalyzer.look,9,14,0.107118,5
antlr.LLkAnalyzer.look,9,15,0.07476600000000001,6
antlr.LLkAnalyzer.look,9,16,0.127076,12
antlr.LLkAnalyzer.look,9,17,0.521667,8
antlr.LLkAnalyzer.look,9,18,0.08825699999999999,8
antlr.LLkAnalyzer.look,9,19,0.038208,3
antlr.LLkAnalyzer.look,9,20,0.062988,5
antlr.LLkAnalyzer.look,10,2,0.011290999999999999,1
antlr.LLkAnalyzer.look,10,3,0.031372,3
antlr.LLkAnalyzer.look,10,4,0.08984400000000001,8
antlr.LLkAnalyzer.look,10,5,0.09247,8
antlr.LLkAnalyzer.look,10,6,0.102477,8
antlr.LLkAnalyzer.look,10,7,0.11316,11
antlr.LLkAnalyzer.look,10,8,0.107054,11
antlr.LLkAnalyzer.look,10,9,0.292482,24
antlr.LLkAnalyzer.look,10,10,0.23779200000000003,20
antlr.LLkAnalyzer.look,10,11,0.235654,20
antlr.LLkAnalyzer.look,10,12,0.20550600000000002,20
antlr.LLkAnalyzer.look,10,13,0.307311,22
antlr.LLkAnalyzer.look,10,14,0.300965,26
antlr.LLkAnalyzer.look,10,15,0.14129799999999998,11
antlr.LLkAnalyzer.look,10,16,0.31390399999999996,29
antlr.LLkAnalyzer.look,10,17,0.317074,26
antlr.LLkAnalyzer.look,10,18,0.24176200000000003,19
antlr.LLkAnalyzer.look,10,19,0.21252499999999996,18
antlr.LLkAnalyzer.look,10,20,0.15075799999999998,12
antlr.LLkAnalyzer.look,11,3,0.060241,7
antlr.LLkAnalyzer.look,11,4,0.046326,5
antlr.LLkAnalyzer.look,11,6,0.024902999999999998,2
antlr.LLkAnalyzer.look,11,7,0.057617,6
antlr.LLkAnalyzer.look,11,8,0.04327400000000001,4
antlr.LLkAnalyzer.look,11,9,0.060607,6
antlr.LLkAnalyzer.look,11,10,0.037903000000000006,4
antlr.LLkAnalyzer.look,11,11,0.075439,7
antlr.LLkAnalyzer.look,11,12,0.128294,13
antlr.LLkAnalyzer.look,11,13,0.22412300000000002,19
antlr.LLkAnalyzer.look,11,14,0.14331000000000002,12
antlr.LLkAnalyzer.look,11,15,0.170836,14
antlr.LLkAnalyzer.look,11,16,0.149659,10
antlr.LLkAnalyzer.look,11,17,0.14446900000000004,13
antlr.LLkAnalyzer.look,11,18,0.21118100000000004,16
antlr.LLkAnalyzer.look,11,19,0.17095899999999997,9
antlr.LLkAnalyzer.look,11,20,0.127504,11
antlr.LLkAnalyzer.look,12,2,0.038208,4
antlr.LLkAnalyzer.look,12,3,0.070067,7
antlr.LLkAnalyzer.look,12,4,0.107118,11
antlr.LLkAnalyzer.look,12,5,0.10309,10
antlr.LLkAnalyzer.look,12,6,0.18969999999999995,18
antlr.LLkAnalyzer.look,12,7,0.24700899999999995,26
antlr.LLkAnalyzer.look,12,8,0.231261,23
antlr.LLkAnalyzer.look,12,9,0.278568,29
antlr.LLkAnalyzer.look,12,10,0.27588,30
antlr.LLkAnalyzer.look,12,11,0.29022400000000004,31
antlr.LLkAnalyzer.look,12,12,0.23053,24
antlr.LLkAnalyzer.look,12,13,0.253722,28
antlr.LLkAnalyzer.look,12,14,0.24957300000000002,25
antlr.LLkAnalyzer.look,12,15,0.28906200000000004,27
antlr.LLkAnalyzer.look,12,16,0.22314599999999998,22
antlr.LLkAnalyzer.look,12,17,0.21655499999999997,22
antlr.LLkAnalyzer.look,12,18,0.291561,28
antlr.LLkAnalyzer.look,12,19,0.25415,23
antlr.LLkAnalyzer.look,12,20,0.250855,23
antlr.Lookahead.containsEpsilon,0,2,0.184631,8
antlr.Lookahead.containsEpsilon,0,3,0.277162,10
antlr.Lookahead.containsEpsilon,0,4,0.38354400000000005,21
antlr.Lookahead.containsEpsilon,0,5,0.160216,9
antlr.Lookahead.containsEpsilon,0,6,0.07086100000000001,4
antlr.Lookahead.containsEpsilon,0,7,0.106628,6
antlr.Lookahead.containsEpsilon,0,8,0.225524,12
antlr.Lookahead.containsEpsilon,0,9,0.14434799999999998,8
antlr.Lookahead.containsEpsilon,0,10,0.194578,11
antlr.Lookahead.containsEpsilon,0,11,0.083007,4
antlr.Lookahead.containsEpsilon,0,12,0.136903,6
antlr.Lookahead.containsEpsilon,0,13,0.044981999999999994,2
antlr.Lookahead.containsEpsilon,0,14,0.06164599999999999,3
antlr.Lookahead.containsEpsilon,0,15,0.163819,7
antlr.Lookahead.containsEpsilon,0,16,0.126892,6
antlr.Lookahead.containsEpsilon,0,17,0.044128,2
antlr.Lookahead.containsEpsilon,0,18,0.057495000000000004,3
antlr.Lookahead.containsEpsilon,0,19,0.089356,4
antlr.Lookahead.containsEpsilon,0,20,0.16131600000000001,7
antlr.Lookahead.containsEpsilon,2,5,0.02472,1
antlr.Lookahead.containsEpsilon,2,6,0.25408800000000004,10
antlr.Lookahead.containsEpsilon,2,7,0.32055700000000004,14
antlr.Lookahead.containsEpsilon,2,8,0.330933,17
antlr.Lookahead.containsEpsilon,2,9,0.210083,8
antlr.Lookahead.containsEpsilon,2,10,0.105224,5
antlr.Lookahead.containsEpsilon,2,11,0.103211,5
antlr.Lookahead.containsEpsilon,2,12,0.10907,5
antlr.Lookahead.containsEpsilon,2,13,0.13262900000000002,6
antlr.Lookahead.containsEpsilon,2,14,0.15582200000000002,7
antlr.Lookahead.containsEpsilon,2,15,0.130006,6
antlr.Lookahead.containsEpsilon,2,16,0.060974,3
antlr.Lookahead.containsEpsilon,2,17,0.040955,2
antlr.Lookahead.containsEpsilon,2,18,0.221985,9
antlr.Lookahead.containsEpsilon,2,19,0.160279,6
antlr.Lookahead.containsEpsilon,2,20,0.098389,4
antlr.Lookahead.containsEpsilon,3,17,0.141114,8
antlr.Lookahead.containsEpsilon,3,18,0.120362,7
antlr.Lookahead.containsEpsilon,3,19,0.20458800000000002,12
antlr.Lookahead.containsEpsilon,3,20,0.157168,11
antlr.Lookahead.containsEpsilon,4,9,0.047791,3
antlr.Lookahead.containsEpsilon,4,10,0.19055200000000005,11
antlr.Lookahead.containsEpsilon,4,11,0.25543200000000005,12
antlr.Lookahead.containsEpsilon,4,12,0.24444500000000002,14
antlr.Lookahead.containsEpsilon,4,13,0.150756,9
antlr.Lookahead.containsEpsilon,4,14,0.219482,13
antlr.Lookahead.containsEpsilon,4,15,0.153686,7
antlr.Lookahead.containsEpsilon,4,16,0.20776599999999998,13
antlr.Lookahead.containsEpsilon,4,17,0.17279,9
antlr.Lookahead.containsEpsilon,4,18,0.21636900000000003,12
antlr.Lookahead.containsEpsilon,4,19,0.15832799999999997,8
antlr.Lookahead.containsEpsilon,4,20,0.210755,9
antlr.Lookahead.containsEpsilon,5,4,0.31768799999999997,19
antlr.Lookahead.containsEpsilon,5,5,0.163637,11
antlr.Lookahead.containsEpsilon,5,6,0.68518,8
antlr.Lookahead.containsEpsilon,5,7,0.276551,13
antlr.Lookahead.containsEpsilon,5,8,0.133971,8
antlr.Lookahead.containsEpsilon,5,9,0.19531200000000004,13
antlr.Lookahead.containsEpsilon,5,10,0.11645399999999999,8
antlr.Lookahead.containsEpsilon,5,11,0.08758400000000001,5
antlr.Lookahead.containsEpsilon,5,12,0.18090699999999998,12
antlr.Lookahead.containsEpsilon,5,13,0.154663,7
antlr.Lookahead.containsEpsilon,5,14,0.195007,12
antlr.Lookahead.containsEpsilon,5,15,0.057739000000000006,5
antlr.Lookahead.containsEpsilon,6,15,0.15081999999999998,7
antlr.Lookahead.containsEpsilon,6,16,0.25854699999999997,12
antlr.Lookahead.containsEpsilon,6,17,0.176333,13
antlr.Lookahead.containsEpsilon,6,18,0.20587,14
antlr.Lookahead.containsEpsilon,6,19,0.142455,11
antlr.Lookahead.containsEpsilon,6,20,0.302553,15
antlr.Lookahead.containsEpsilon,8,19,0.133543,10
antlr.Lookahead.containsEpsilon,8,20,0.099731,7
antlr.Lookahead.containsEpsilon,10,1,0.06750300000000001,6
antlr.Lookahead.containsEpsilon,10,2,0.193054,19
antlr.Lookahead.containsEpsilon,11,4,0.27014399999999994,19
antlr.Lookahead.containsEpsilon,11,5,0.13543500000000003,12
antlr.Lookahead.containsEpsilon,11,6,0.140198,11
antlr.Lookahead.containsEpsilon,11,7,0.18701000000000004,18
antlr.Lookahead.containsEpsilon,11,8,0.184689,17
antlr.Lookahead.containsEpsilon,11,9,0.11090099999999999,11
antlr.Lookahead.containsEpsilon,11,10,0.08972000000000001,10
antlr.Lookahead.containsEpsilon,11,11,0.16217199999999998,14
antlr.Lookahead.containsEpsilon,11,12,0.115417,9
antlr.Lookahead.containsEpsilon,12,5,0.37451300000000004,26
antlr.Lookahead.containsEpsilon,12,6,0.288879,22
antlr.Lookahead.containsEpsilon,12,7,0.23663299999999998,16
antlr.Lookahead.containsEpsilon,12,8,0.121642,12
antlr.Lookahead.containsEpsilon,12,9,0.20263699999999998,16
antlr.Lookahead.containsEpsilon,12,10,0.092346,10
antlr.Lookahead.containsEpsilon,12,11,0.110047,12
antlr.Lookahead.containsEpsilon,12,12,0.096376,10
antlr.Lookahead.containsEpsilon,12,13,0.20221099999999997,20
antlr.Lookahead.containsEpsilon,12,14,0.23303199999999996,18
antlr.Lookahead.containsEpsilon,12,15,0.392949,28
antlr.Lookahead.containsEpsilon,12,16,0.275388,23
antlr.Lookahead.containsEpsilon,12,17,0.27807400000000004,24
antlr.Lookahead.containsEpsilon,12,18,0.17987099999999998,14
antlr.Lookahead.containsEpsilon,12,19,0.36749099999999996,30
antlr.Lookahead.containsEpsilon,12,20,0.29846399999999995,23
antlr.Lookahead.of,0,3,0.063843,3
antlr.Lookahead.of,0,4,0.066344,3
antlr.Lookahead.of,0,5,0.055786,3
antlr.Lookahead.of,0,11,0.045105000000000006,2
antlr.Lookahead.of,0,12,0.0448,2
antlr.Lookahead.of,0,13,0.815735,2
antlr.Lookahead.of,0,14,0.042297,2
antlr.Lookahead.of,0,17,0.044066,2
antlr.Lookahead.of,0,19,0.044982999999999995,2
antlr.Lookahead.of,0,20,0.02417,1
antlr.Lookahead.of,1,3,0.026795,1
antlr.Lookahead.of,1,5,0.025269,1
antlr.Lookahead.of,1,6,0.074769,3
antlr.Lookahead.of,1,7,0.027405000000000002,1
antlr.Lookahead.of,1,8,0.024536000000000002,1
antlr.Lookahead.of,1,12,0.023743,1
antlr.Lookahead.of,2,5,0.022216999999999997,1
antlr.Lookahead.of,2,6,0.0224,1
antlr.Lookahead.of,2,7,0.058839,3
antlr.Lookahead.of,2,8,0.022034,1
antlr.Lookahead.of,2,10,0.03302,2
antlr.Lookahead.of,2,11,0.035583,1
antlr.Lookahead.of,2,12,0.020935,1
antlr.Lookahead.of,2,13,0.06823699999999999,3
antlr.Lookahead.of,2,14,0.023254,1
antlr.Lookahead.of,2,15,0.020996,1
antlr.Lookahead.of,2,19,0.062927,3
antlr.Lookahead.of,2,20,0.061095,3
antlr.Lookahead.of,3,1,0.018006,1
antlr.Lookahead.of,3,2,0.032715,2
antlr.Lookahead.of,3,3,0.049255,3
antlr.Lookahead.of,4,5,0.05230799999999999,3
antlr.Lookahead.of,4,6,0.035033999999999996,2
antlr.Lookahead.of,4,7,0.150939,7
antlr.Lookahead.of,4,8,0.099365,5
antlr.Lookahead.of,4,9,0.09314,4
antlr.Lookahead.of,4,10,0.071351,2
antlr.Lookahead.of,4,11,0.08496000000000001,4
antlr.Lookahead.of,4,12,0.08642500000000002,4
antlr.Lookahead.of,4,13,0.100342,6
antlr.Lookahead.of,4,14,0.016357,1
antlr.Lookahead.of,4,15,0.08550899999999999,4
antlr.Lookahead.of,4,16,0.03778,2
antlr.Lookahead.of,4,18,0.019226,1
antlr.Lookahead.of,4,19,0.03247,1
antlr.Lookahead.of,5,3,0.013977000000000002,1
antlr.Lookahead.of,5,4,0.029602000000000003,2
antlr.Lookahead.of,5,6,0.017029,1
antlr.Lookahead.of,5,7,0.016967,1
antlr.Lookahead.of,5,8,0.014099,1
antlr.Lookahead.of,5,10,0.048216999999999996,3
antlr.Lookahead.of,5,11,0.039246,3
antlr.Lookahead.of,5,12,0.031799,2
antlr.Lookahead.of,5,13,0.035767,2
antlr.Lookahead.of,5,14,0.018127,1
antlr.Lookahead.of,5,15,0.037903,3
antlr.Lookahead.of,5,17,0.037416,3
antlr.Lookahead.of,5,18,0.025025,2
antlr.Lookahead.of,5,19,0.034728999999999996,2
antlr.Lookahead.of,5,20,0.027894000000000002,2
antlr.Lookahead.of,6,5,0.044372,4
antlr.Lookahead.of,6,6,0.046507,4
antlr.Lookahead.of,6,7,0.048644999999999994,3
antlr.Lookahead.of,6,8,0.04779,2
antlr.Lookahead.of,6,9,0.041504,3
antlr.Lookahead.of,6,10,0.093262,4
antlr.Lookahead.of,6,11,0.045226999999999996,4
antlr.Lookahead.of,6,12,0.10656800000000001,6
antlr.Lookahead.of,6,13,0.010803,1
antlr.Lookahead.of,6,14,0.701659,4
antlr.Lookahead.of,6,15,0.079649,4
antlr.Lookahead.of,6,16,0.05957,4
antlr.Lookahead.of,6,17,0.033936,3
antlr.Lookahead.of,6,19,0.07671900000000001,6
antlr.Lookahead.of,6,20,0.075927,5
antlr.Lookahead.of,7,2,0.011535,1
antlr.Lookahead.of,7,3,0.08117700000000001,6
antlr.Lookahead.of,7,4,0.071229,5
antlr.Lookahead.of,7,5,0.011413,1
antlr.Lookahead.of,9,2,0.165954,10
antlr.Lookahead.of,9,3,0.063661,5
antlr.Lookahead.of,9,4,0.016662,1
antlr.Lookahead.of,10,5,0.098144,9
antlr.Lookahead.of,11,1,0.01947,2
antlr.Lookahead.of,12,3,0.051453,5
antlr.Lookahead.of,12,4,0.06958,5
antlr.collections.impl.Vector.size,0,5,0.132689,7
antlr.collections.impl.Vector.size,0,6,0.220336,12
antlr.collections.impl.Vector.size,0,7,0.323364,15
antlr.collections.impl.Vector.size,0,8,0.5031109999999999,26
antlr.collections.impl.Vector.size,0,9,0.31305,16
antlr.collections.impl.Vector.size,0,10,0.259152,14
antlr.collections.impl.Vector.size,0,11,0.38732800000000006,18
antlr.collections.impl.Vector.size,0,12,0.39385899999999996,18
antlr.collections.impl.Vector.size,0,13,0.335815,15
antlr.collections.impl.Vector.size,0,14,1.068179,14
antlr.collections.impl.Vector.size,0,15,0.277774,13
antlr.collections.impl.Vector.size,0,16,0.369994,16
antlr.collections.impl.Vector.size,0,17,0.342468,15
antlr.collections.impl.Vector.size,0,18,0.34851,17
antlr.collections.impl.Vector.size,0,19,0.39684899999999995,16
antlr.collections.impl.Vector.size,0,20,0.28063800000000005,12
antlr.collections.impl.Vector.size,1,4,0.742555,9
antlr.collections.impl.Vector.size,1,5,0.22747799999999999,8
antlr.collections.impl.Vector.size,1,6,0.488647,17
antlr.collections.impl.Vector.size,1,7,0.493226,18
antlr.collections.impl.Vector.size,1,8,0.741761,27
antlr.collections.impl.Vector.size,1,9,0.584165,23
antlr.collections.impl.Vector.size,1,10,0.385743,14
antlr.collections.impl.Vector.size,1,11,0.33679300000000006,14
antlr.collections.impl.Vector.size,1,12,0.324283,13
antlr.collections.impl.Vector.size,1,13,0.42376699999999995,16
antlr.collections.impl.Vector.size,1,14,0.7145360000000001,27
antlr.collections.impl.Vector.size,1,15,0.7746569999999999,27
antlr.collections.impl.Vector.size,1,16,0.25329599999999997,10
antlr.collections.impl.Vector.size,1,17,0.026795,1
antlr.collections.impl.Vector.size,2,2,0.096618,5
antlr.collections.impl.Vector.size,2,3,0.3207999999999999,15
antlr.collections.impl.Vector.size,2,4,0.46826199999999996,20
antlr.collections.impl.Vector.size,2,5,0.49591300000000005,20
antlr.collections.impl.Vector.size,2,6,0.30926400000000004,13
antlr.collections.impl.Vector.size,2,7,0.14795,7
antlr.collections.impl.Vector.size,3,9,0.3310539999999999,22
antlr.collections.impl.Vector.size,3,10,0.627565,34
antlr.collections.impl.Vector.size,3,11,0.35522600000000004,16
antlr.collections.impl.Vector.size,3,12,0.6085810000000001,33
antlr.collections.impl.Vector.size,3,13,0.20892400000000003,14
antlr.collections.impl.Vector.size,3,14,0.215087,17
antlr.collections.impl.Vector.size,4,8,0.015992,1
antlr.collections.impl.Vector.size,4,9,0.401491,24
antlr.collections.impl.Vector.size,4,10,0.4292620000000001,25
antlr.collections.impl.Vector.size,4,11,0.339967,19
antlr.collections.impl.Vector.size,4,12,0.103211,6
antlr.collections.impl.Vector.size,5,20,0.203796,14
antlr.collections.impl.Vector.size,6,5,0.192933,15
antlr.collections.impl.Vector.size,6,6,0.27722500000000005,22
antlr.collections.impl.Vector.size,6,7,0.357602,24
antlr.collections.impl.Vector.size,6,8,0.32599100000000003,20
antlr.collections.impl.Vector.size,6,9,0.38177399999999995,24
antlr.collections.impl.Vector.size,6,10,0.21472100000000002,15
antlr.collections.impl.Vector.size,7,6,0.36584300000000003,24
antlr.collections.impl.Vector.size,7,7,0.6618019999999998,52
antlr.collections.impl.Vector.size,7,8,0.7673340000000001,51
antlr.collections.impl.Vector.size,7,9,0.6070619999999999,46
antlr.collections.impl.Vector.size,7,10,0.132445,10
antlr.collections.impl.Vector.size,8,2,0.754762,48
antlr.collections.impl.Vector.size,8,3,1.5048819999999996,58
antlr.collections.impl.Vector.size,8,4,0.7664169999999998,51
antlr.collections.impl.Vector.size,8,5,1.2066060000000003,40
antlr.collections.impl.Vector.size,8,6,0.36377,26
antlr.collections.impl.Vector.size,8,7,0.47467099999999995,38
antlr.collections.impl.Vector.size,8,8,0.637514,43
antlr.collections.impl.Vector.size,8,9,0.18347200000000002,14
antlr.collections.impl.Vector.size,10,1,0.175597,18
antlr.collections.impl.Vector.size,10,2,0.021424,2
antlr.collections.impl.Vector.size,11,3,0.305358,30
antlr.collections.impl.Vector.size,11,4,0.5468150000000002,54
antlr.collections.impl.Vector.size,11,5,0.7373039999999998,65
antlr.collections.impl.Vector.size,11,6,1.1826189999999996,56
antlr.collections.impl.Vector.size,11,7,0.5567669999999999,53
antlr.collections.impl.Vector.size,11,8,0.37395999999999996,34
antlr.collections.impl.Vector.size,11,9,0.22491499999999998,21
antlr.collections.impl.Vector.size,12,7,0.20727399999999993,20
antlr.collections.impl.Vector.size,12,8,0.7054430000000002,68
antlr.collections.impl.Vector.size,12,9,0.6828600000000004,70
antlr.collections.impl.Vector.size,12,10,0.5888600000000003,66
antlr.collections.impl.Vector.size,12,11,0.9641720000000003,56
antlr.collections.impl.Vector.size,12,12,0.38342500000000007,42
antlr.collections.impl.Vector.size,12,13,0.164,18
