,MethodName,Package
0,org.sunflow.core.primitive.TriangleMesh$WaldTriangle$$$$$intersect,15606.39825199919
1,org.sunflow.core.accel.KDTree$$$$$intersect,1351.1993339999995
2,org.sunflow.core.primitive.Sphere$$$$$intersectPrimitive,1147.3045319999828
3,org.sunflow.core.accel.BoundingIntervalHierarchy$$$$$intersect,821.9647609999946
4,org.sunflow.core.accel.NullAccelerator$$$$$intersect,696.097812999991
